<?xml version="1.0" encoding="utf-8"?>
<!-- Generator: Adobe Illustrator 25.4.1, SVG Export Plug-In . SVG Version: 6.00 Build 0)  -->
<svg version="1.1" id="Ebene_1" xmlns="http://www.w3.org/2000/svg" xmlns:xlink="http://www.w3.org/1999/xlink" x="0px" y="0px"
	 width="70px" height="100px" viewBox="0 0 70 100" style="enable-background:new 0 0 70 100;" xml:space="preserve">
<style type="text/css">
	.st0{fill:#1D1D1B;}
</style>
<path class="st0" d="M32.3,86.5c0-0.6-0.1-1.3-0.2-2.1c0-0.2,0-0.3,0-0.5c0.1-0.9,0-1.9,0-2.8c0-0.9,0.1-1.8-0.1-2.6
	c-0.2-0.9-0.2-1.9-0.3-2.8c-0.2-1.1-0.3-2.2-0.4-3.3c0-0.6-0.1-1.2-0.3-1.8c-0.1-0.4-0.1-0.9-0.2-1.4c0-0.8-0.2-1.5-0.5-2.2
	c-0.1-0.2-0.2-0.3-0.3-0.4c-0.3-0.1-0.4-0.4-0.4-0.7c-0.1-0.3-0.2-0.6-0.4-0.8c-0.1,0-0.1-0.1-0.1-0.2c-0.1-0.5-0.5-0.9-0.8-1.3
	c-0.1-0.2-0.3-0.4-0.5-0.5c-1.2-0.7-2.2-1.4-3.4-2.1c-0.6-0.3-1.3-0.6-1.9-1c-0.8-0.5-1.7-0.8-2.4-1.3c-0.7-0.5-1.5-1.1-2-1.8
	c-0.5-0.5-0.9-1.1-1.3-1.7c-0.3-0.4-0.6-0.9-0.9-1.3c-0.3-0.5-0.4-1-0.6-1.5c-0.2-0.4-0.2-0.9-0.2-1.3c0-0.5-0.1-0.9-0.4-1.3
	c-0.1-0.2-0.1-0.4-0.1-0.6c0.1-1.1,0.5-2.2,0.7-3.3c0.1-0.3,0.2-0.5,0.5-0.7c0.1-0.1,0.2-0.1,0.3-0.1c0.1-0.1,0.3-0.1,0.3-0.3
	c0-0.2-0.2-0.1-0.3-0.1c-0.3,0-0.3-0.2-0.2-0.3c0.6-0.7,0.9-1.5,1.3-2.3c0.1-0.2,0.2-0.4,0.3-0.6c0.2-0.4,0.4-0.8,0.4-1.3
	c0-0.4,0.1-0.7,0.1-1.1c0.1-0.7,0.1-1.3-0.1-2c-0.1-0.3-0.1-0.6-0.2-1c-0.1-0.4-0.2-0.7-0.3-1c-0.3-0.6-0.5-1.1-0.8-1.7
	c-0.1-0.1-0.1-0.2-0.2-0.3c-0.6-0.5-0.7-1.2-1-1.8c-0.5-0.9-0.9-1.8-1.5-2.6c-0.1-0.2-0.3-0.4-0.5-0.5c-0.1,0-0.3-0.1-0.3-0.3
	c-0.1-0.4-0.3-0.7-0.3-1.1c0-0.2,0-0.5-0.1-0.7c-0.1-0.3-0.2-0.6-0.3-1c0-0.1,0-0.1,0-0.2c-0.3-0.4-0.3-1-0.4-1.5c0-0.1,0-0.2,0-0.3
	c0.2-0.8,0.5-1.6,1.1-2.3c0.7-0.8,1.5-1.2,2.4-1.5c0.7-0.2,1.5-0.4,2.2-0.9c0.5-0.4,1-0.8,1.2-1.4c0.1-0.3,0.3-0.5,0.5-0.7
	c0.4-0.3,0.5-0.8,0.5-1.2c0-0.3-0.1-0.5-0.4-0.7c-0.3-0.1-0.5-0.2-0.8-0.3c-0.9-0.1-1.3-0.7-1.7-1.4c-0.2-0.4-0.3-0.8-0.6-1.2
	c-0.2-0.3-0.2-0.5-0.1-0.9c0.3-0.8,0.7-1.6,1-2.5c0.3-0.7,0.8-0.9,1.5-1.1c0.5-0.1,0.5-0.1,0.6-0.6c0.1-0.4,0.3-0.7,0.6-1.1
	c0.3-0.4,0.3-0.6-0.1-0.9c-0.4-0.3-0.8-0.6-1.2-0.8c-0.5-0.2-0.9-0.5-1.3-0.9c-0.1-0.1-0.2-0.2-0.3-0.4c-0.1-0.3,0-0.6,0.4-0.6
	c0.9-0.1,1.7,0.2,2.4,0.5c0.4,0.2,0.7,0.3,1.1,0.5c0.5,0.2,0.6,0.1,0.8-0.4c0.2-0.4,0.3-0.8,0.5-1.2C22.5,1.2,23,1,23.4,1.2
	c0.5,0.3,1.1,0.3,1.6,0.5c0.7,0.3,1.5,0.6,2.2,0.9C27.7,2.8,28,3,28.3,3c0.1,0,0.2,0,0.2,0.1c0.8,0.5,1.7,0.8,2.5,1.2
	c0.6,0.4,1.3,0.7,1.9,1.2c0.4,0.3,0.5,0.7,0.3,1.1c-0.1,0.3-0.2,0.5-0.3,0.8c-0.1,0.4-0.1,0.6,0.3,0.8c0.8,0.5,1.6,1,2.3,1.6
	c0.3,0.2,0.5,0.5,0.5,0.9c0,0.2-0.1,0.4-0.3,0.3c-0.5,0-1.1,0.1-1.6-0.1c-0.2-0.1-0.4-0.1-0.5-0.1c-0.4-0.1-0.8,0-0.9,0.4
	c-0.1,0.2-0.3,0.3-0.5,0.4c-0.2,0.1-0.4,0.2-0.5,0.5c0,0.1-0.1,0.2-0.2,0.3c-0.5,0.5-0.7,1.1-0.8,1.8c-0.1,0.6-0.2,1.1-0.2,1.7
	c0,0.4,0,0.4-0.5,0.4c0,0-0.1,0-0.1,0c-0.9-0.1-0.9,0-1.3,0.9c-0.2,0.4-0.5,0.9-0.5,1.4c0,0.1-0.1,0.1-0.1,0.2
	c-0.5,0.4-1.6,0.6-2.2,0.2c-0.3-0.2-0.6-0.4-1.1-0.4c-0.2,0-0.3,0-0.4,0.3c0,0.2-0.1,0.3-0.2,0.4c-0.1,0.3-0.1,0.5,0.1,0.7
	c0.3,0.3,0.5,0.6,0.7,0.9c0.1,0.2,0.3,0.3,0.4,0.4c0.6,0.4,1.3,0.7,1.8,1.2c1.1,0.9,2.1,1.7,2.9,3c0.3,0.6,0.7,1.2,0.9,1.8
	c0.3,0.9,0.6,1.8,0.2,2.8c-0.1,0.2-0.1,0.5-0.1,0.8c-0.1,0.5-0.3,1-0.4,1.5c-0.2,0.7-0.7,1.3-0.9,2c-0.1,0.2-0.1,0.4-0.1,0.6
	c0,0.3,0.1,0.3,0.4,0.3c0.4-0.1,0.6-0.4,0.8-0.7c0.1-0.3,0.3-0.5,0.5-0.7c0.6-0.5,1.2-1.1,1.8-1.6c0,0,0,0,0.1-0.1
	c0.4-0.7,1-1.1,1.5-1.7c0.1-0.2,0.3-0.3,0.5-0.3c0.6,0,0.9-0.4,1-0.9c0.1-0.5,0.3-1,0.5-1.4c0.2-0.3,0-0.5-0.3-0.5
	c-1.2-0.2-2.4-0.3-3.7-0.4c-0.1,0-0.2,0-0.2,0c-0.3-0.1-0.4-0.2-0.3-0.5c0.4-1,0.9-2.1,1.2-3.1c0.3-1,0.9-2,1.2-3
	c0-0.2,0.1-0.4,0.2-0.5c0.5-0.8,0.7-1.8,1.2-2.6c0.1-0.2,0.3-0.3,0.6-0.3c0.6,0,1.1,0.2,1.6,0.3c1.1,0.3,2.2,0.5,3.3,0.8
	c0.3,0.1,0.6,0,0.9,0c1-0.3,2-0.5,3-0.7c0.4-0.1,0.5,0,0.4,0.4c0,0.2-0.1,0.3-0.2,0.4c-0.2,0.2-0.2,0.4-0.3,0.7
	c-0.1,0.3-0.2,0.6-0.4,0.8c-0.2,0.2-0.2,0.4-0.3,0.6c-0.2,0.4-0.3,0.8-0.6,1.1c-0.1,0-0.1,0.2-0.1,0.2c-0.1,0.5-0.3,1-0.5,1.4
	c-0.3,0.6-0.5,1.3-0.8,1.9c-0.2,0.4-0.4,0.9-0.7,1.3c-0.1,0.2-0.3,0.3-0.4,0.4c-0.2,0.1-0.3,0.2-0.3,0.4c0,0.4-0.2,0.7-0.6,0.9
	c-1.1,0.7-2,1.5-2.7,2.5c-0.2,0.2-0.3,0.5-0.3,0.7c-0.1,0.3-0.1,0.6-0.2,0.9c0,0.2-0.1,0.4-0.3,0.5c-0.3,0.2-0.4,0.4-0.6,0.7
	c-0.1,0.3-0.3,0.5-0.5,0.6c-0.4,0.3-0.7,0.8-1,1.2c-0.1,0.2-0.3,0.3-0.4,0.5c-0.2,0.2-0.4,0.4-0.5,0.7c-0.1,0.3-0.4,0.5-0.7,0.7
	c-0.3,0.3-0.5,0.6-0.8,0.9c-0.2,0.2-0.2,0.5,0.1,0.7c0.2,0.2,0.5,0.3,0.8,0.3c0.3,0,0.6,0,0.9,0.2c0.1,0.1,0.3,0.1,0.5,0.1
	c0.3,0,0.6,0.2,0.7,0.5c0.2,0.5,0.6,0.8,0.7,1.3c0.2,0.6,0.2,1.2,0,1.8c0,0.2-0.1,0.3-0.3,0.3c-0.3,0.1-0.4,0.5-0.1,0.7
	c0.5,0.3,0.6,0.8,0.9,1.2c0.4,0.3,0.7,0.8,1,1.2c0.4,0.6,1,1.1,1.3,1.8c0.4,0.6,0.7,1.1,1.1,1.6c0.1,0.1,0.2,0.3,0.3,0.3
	c0.6,0.3,0.9,0.9,1.4,1.4c0.1,0.1,0.2,0.2,0.2,0.3c0.3,0.5,0.7,0.9,1.1,1.4c0.7,0.9,1.6,1.6,2.3,2.5c0.4,0.5,1,0.8,1.3,1.4
	c0.4,0.7,1.1,1.2,1.6,1.9c0.2,0.3,0.4,0.5,0.5,0.8c0.1,0.2,0.2,0.4,0.3,0.5c0.3,0.3,0.5,0.8,0.6,1.2c0.3,0.7,0.7,1.5,1,2.2
	c0.2,0.4,0.4,0.8,0.5,1.2c0.3,0.7,0.6,1.4,0.9,2.1c0.3,0.7,0.5,1.4,1.1,2c0,0,0.1,0.1,0.1,0.2c0.6,1.2,1.3,2.4,2,3.6
	c0.2,0.3,0.3,0.6,0.4,0.9c0.2,0.5,0.6,0.9,0.8,1.4c0.1,0.2,0.2,0.5,0.4,0.7c0.2,0.4,0.5,0.8,0.7,1.1c0.6,0.9,1.1,1.8,1.6,2.6
	c0.8,1.1,1.4,2.3,2.1,3.4c0.3,0.4,0.7,0.8,0.9,1.3c0,0.1,0.1,0.2,0.2,0.3c0.1,0.5,0.5,0.8,1,1c0.6,0.4,1.2,0.7,1.8,1.1
	c0.5,0.3,1,0.6,1.5,1.1c0.3,0.4,0.3,0.7-0.1,1c-0.5,0.5-1.2,0.5-1.8,0.4c-1-0.2-2.1-0.3-3.1-0.7c-0.3-0.1-0.6-0.2-0.9-0.3
	c-0.1,0-0.2-0.1-0.3-0.1c-0.1,0-0.2,0-0.3,0.1c-0.1,0.1,0,0.2,0.1,0.3c0.3,0.4,0.7,0.7,1,1.1c0.2,0.3,0.5,0.5,0.3,0.9
	c-0.2,0.4-0.5,0.6-0.9,0.6c-0.4,0-0.9,0-1.3,0c-0.1,0-0.2,0-0.2-0.1c-0.8-0.4-1.7-0.7-2.4-1.3c-0.4-0.4-0.9-0.5-1.5-0.3
	c-0.1,0-0.1,0-0.2,0c-0.8-0.1-1.5,0.1-2.3,0.1c-0.1,0-0.2,0-0.3,0c-0.8,0.4-1.8,0.5-2.6,0.9c-0.7,0.4-1.5,0.6-2.3,0.6
	c-0.5,0-1.1,0-1.6,0c-0.4,0-0.8,0-1.2,0.1c-0.5,0.2-1.1,0.2-1.6,0.2c-0.8,0-1.4,0.3-2.2,0.3c-0.8,0.1-1.6,0.1-2.4,0
	c-0.4-0.1-0.8-0.1-1.2-0.1c-0.8-0.1-1.6-0.4-2.3-0.8c-0.4-0.2-0.8-0.4-1.2-0.6c-0.2-0.1-0.3-0.2-0.4-0.3c-0.1-0.2-0.2-0.4-0.4-0.6
	c-0.3-0.3-0.5-0.7-0.8-1C32.3,87.9,32.2,87.3,32.3,86.5 M39.2,66.8c0.7,0,1.3-0.1,1.9-0.1c0.2,0,0.5-0.1,0.8-0.1
	c0.2,0,0.3-0.1,0.5-0.1c0.2,0,0.2-0.2,0.2-0.3c0-0.1-0.1-0.2-0.2-0.3c-0.2,0-0.3-0.1-0.5-0.1c-0.9,0-1.8-0.2-2.7-0.2
	c-0.4,0-0.9,0-1.3-0.1c-1.3-0.3-2.5-0.7-3.8-1.3c-0.8-0.3-1.6-0.6-2.3-1c-0.1,0-0.1-0.1-0.2-0.1c-0.5,0-0.9-0.3-1.3-0.5
	c-0.1-0.1-0.3-0.1-0.4-0.1c-0.1,0-0.2,0-0.3,0.2c0,0.1,0,0.2,0.1,0.3c0.1,0.1,0.3,0.2,0.4,0.3c0.4,0.4,0.9,0.7,1.4,0.8
	c0.1,0,0.3,0.1,0.4,0.2c0.6,0.5,1.4,0.8,2.1,1.2c0.7,0.3,1.3,0.6,2.1,0.8c0.5,0.1,1,0.2,1.5,0.3C38.1,66.6,38.7,66.8,39.2,66.8
	 M31.1,41.7c0.2,0,0.3,0,0.5,0c0.1,0,0.3-0.1,0.3-0.2c0-0.1-0.1-0.2-0.3-0.3c-0.7-0.1-1.4-0.2-2.1-0.4c-0.1,0-0.2,0-0.2,0
	c-0.5,0-0.9,0-1.3-0.2c-0.1-0.1-0.2-0.1-0.4-0.1c-0.8-0.1-1.6-0.3-2.4-0.5c-0.7-0.2-1.4-0.5-2.1-0.7c-0.5-0.2-1-0.4-1.2-1
	c0-0.1-0.1-0.2-0.2-0.2c-0.3-0.2-0.5-0.5-0.7-0.7c-0.2-0.3-0.4-0.6-0.6-0.9c-0.2-0.3-0.5-0.4-0.7-0.6c-0.4-0.6-1-1.1-1.3-1.8
	c0-0.1-0.1-0.2-0.2-0.3c-0.4-0.4-0.7-0.8-0.9-1.2c-0.1-0.1-0.2-0.2-0.3-0.2c-0.2,0.1-0.1,0.2-0.1,0.4c0.1,0.2,0.2,0.4,0.3,0.6
	c0.2,0.7,0.6,1.3,1,1.8c1,1.2,2.2,2.4,3.1,3.7c0.1,0.1,0.1,0.2,0.2,0.2c0.9,0.6,1.8,1,2.9,1.3c0.6,0.2,1.1,0.3,1.7,0.4
	c1,0.3,2,0.4,3.1,0.5c0.4,0,0.8,0,1.1,0.1C30.6,41.7,30.9,41.7,31.1,41.7 M44.2,71c0-0.1,0-0.1,0-0.1c0-0.1,0-0.2,0.1-0.2
	c0.2,0,0.1,0.1,0.1,0.2c0,0,0,0.1,0,0.1c0.1,0,0.1,0,0.1-0.1c0.1-0.6,0.3-1.3,0.4-1.9c0-0.1,0-0.2,0-0.3c-0.1-0.2,0-0.3,0.1-0.5
	c0.1-0.2,0.3-0.4,0.2-0.6c-0.1-0.4,0-0.7,0.1-1c0.1-0.1,0.1-0.3,0.1-0.4c0-0.1,0-0.3-0.2-0.4c-0.2,0-0.3,0.1-0.3,0.2
	c-0.2,0.8-0.8,1.6-0.6,2.5c0,0.1,0,0.2,0,0.3c-0.3,0.8-0.5,1.6-0.8,2.4c-0.4,0.9-0.6,1.8-1,2.6c-0.3,0.5-0.5,1.1-0.8,1.6
	c-0.4,0.7-0.7,1.3-1,2c-0.3,0.9-0.7,1.9-1.2,2.7c-0.1,0.2-0.3,0.4-0.3,0.7c0,0.1,0,0.3,0.2,0.3c0.2,0,0.2-0.1,0.2-0.2
	c0-0.2,0.1-0.4,0.3-0.6c0.4-0.6,0.7-1.1,1-1.7c0.2-0.4,0.2-0.8,0.4-1.2c0.1-0.3,0.3-0.5,0.4-0.8c0-0.1,0.1-0.2,0.2-0.2
	c0.3,0,0.3-0.3,0.4-0.5c0.2-0.5,0.3-1,0.7-1.4c0.1-0.1,0.1-0.1,0.1-0.2c0-0.4,0.3-0.7,0.4-1c0.2-0.7,0.4-1.3,0.7-2
	C44.2,71.2,44.2,71.1,44.2,71 M38.6,63.2c0.3,0,0.6,0,0.9,0c0.1,0,0.3,0,0.3-0.2c0-0.2-0.1-0.2-0.3-0.2c-0.3-0.1-0.7-0.1-1-0.2
	c-0.8-0.1-1.5-0.2-2.3-0.3c-0.5-0.1-1.1-0.1-1.6-0.3c-0.2-0.1-0.3-0.1-0.5-0.1c-0.8,0-1.6-0.3-2.3-0.4c-0.6-0.1-1.2-0.3-1.8-0.5
	c-0.3-0.1-0.6-0.2-1-0.2c-0.1,0-0.3,0-0.4-0.1c-0.5-0.4-1.1-0.5-1.7-0.6c-0.5-0.1-1.1-0.2-1.7-0.4c-0.1,0-0.2-0.1-0.3,0
	c-0.1,0.1,0,0.2,0.2,0.3c0.2,0.1,0.5,0.2,0.7,0.3c0.7,0.3,1.4,0.5,2.1,0.7c1,0.4,2,0.8,3,1.1c0.3,0.1,0.5,0.2,0.8,0.2
	c0.6,0.1,1.3,0.3,1.9,0.4c0.9,0.1,1.8,0.3,2.7,0.3c0.1,0,0.2,0,0.2,0C37.3,63.2,37.9,63.3,38.6,63.2 M31.5,8.6c0.2,0,0.4,0,0.5-0.2
	c0.1-0.2,0-0.3-0.1-0.4c-0.1-0.1-0.3-0.2-0.4-0.3c-0.4-0.2-0.8-0.3-1.1-0.5c-0.5-0.3-1-0.5-1.5-0.7c-0.6-0.4-1.3-0.6-2-0.9
	c-0.5-0.3-1-0.6-1.6-0.8c-0.5-0.2-1.1-0.4-1.5-0.7c-0.4-0.3-0.8-0.3-1.2-0.3c-0.2,0-0.3,0-0.4,0.2c0,0.2,0.1,0.3,0.2,0.4
	c0.6,0.4,1.2,0.8,1.9,1.2c1.4,0.6,2.7,1.4,4.1,2c0.5,0.2,1.1,0.4,1.6,0.7c0.3,0.1,0.6,0.2,0.9,0.3C31.1,8.5,31.3,8.6,31.5,8.6
	 M48,67.7c0-0.3,0-0.6,0.1-0.9c0-0.2,0-0.3,0-0.5c0-0.2-0.1-0.4-0.3-0.3c-0.2,0-0.3,0.1-0.3,0.3c0,0.4-0.1,0.9-0.1,1.3
	c0.1,0.7-0.1,1.5-0.1,2.2c0,0.4,0,0.9-0.1,1.3c-0.1,0.7-0.2,1.3-0.2,2c-0.1,0.8-0.2,1.6-0.3,2.4c-0.1,0.8-0.1,1.5-0.3,2.3
	c-0.1,0.7-0.2,1.4-0.2,2.1c0,0.2,0,0.5-0.1,0.7c-0.1,0.2-0.1,0.4-0.1,0.6c0,0.5,0,1-0.1,1.5c-0.1,0.4-0.2,0.9-0.1,1.3
	c0,0.1,0,0.2,0.1,0.3c0.2,0,0.3-0.1,0.3-0.2c0-0.1,0-0.2,0-0.4c0-0.3,0-0.5,0.2-0.8c0.1-0.2,0.1-0.4,0.1-0.6c0-0.3,0-0.6,0.1-0.9
	c0.3-1.1,0.3-2.1,0.4-3.2c0.1-0.9,0.3-1.7,0.3-2.6c0-0.6,0.2-1.2,0.1-1.8c0-0.1,0-0.2,0-0.2c0.2-1.2,0.4-2.4,0.5-3.6
	c0-0.4,0-0.8,0.1-1.2C48,68.3,48,68,48,67.7 M30.3,49.6c0.2,0,0.3,0,0.5,0c0.2,0,0.4-0.1,0.7-0.1c0.2-0.1,0.4-0.2,0.3-0.4
	c0-0.2-0.2-0.2-0.4-0.2c-0.2,0-0.4,0-0.5,0c-0.4,0.1-0.8,0-1.1,0c-0.4-0.1-0.8-0.1-1.1,0c-0.4,0.1-0.8,0.2-1.2,0c-0.1,0-0.1,0-0.2,0
	c-0.6,0-1.2,0.1-1.8,0.1c-0.7,0.1-1.4,0.1-2.1-0.1c-0.5-0.1-1.1-0.2-1.7-0.1c-0.6,0.1-1.2,0-1.7-0.2c-0.5-0.2-1-0.1-1.6-0.1
	c-0.2,0-0.3,0.2-0.1,0.3c0.1,0.1,0.1,0.2,0.2,0.2c0.3,0.1,0.5,0.2,0.8,0.2c0.9,0.1,1.8,0.2,2.7,0.3c0.3,0,0.5,0.1,0.8,0.1
	c1.7,0,3.3,0,5,0c0.3,0,0.5,0,0.8-0.1c0.2-0.1,0.4-0.1,0.6,0C29.5,49.7,29.9,49.6,30.3,49.6 M45.4,64.7c0-0.1,0-0.2-0.1-0.2
	c-0.3-0.1-0.4,0-0.6,0.3c-0.2,0.3-0.3,0.6-0.6,0.8c-0.8,0.7-1.3,1.5-1.3,2.6c0,0.3-0.1,0.5-0.3,0.8c-0.3,0.4-0.5,0.9-0.8,1.3
	c-0.3,0.5-0.5,1-0.9,1.3c-0.9,0.9-1.8,1.7-2.8,2.4c-0.2,0.1-0.4,0.3-0.5,0.5c0,0.1-0.1,0.2,0,0.2c0.1,0.1,0.2,0.1,0.3,0
	c0.4-0.2,0.7-0.4,1-0.7c0.3-0.3,0.7-0.6,1.1-0.8c0.3-0.1,0.5-0.3,0.6-0.6c0.2-0.4,0.5-0.6,0.8-0.9c0.2-0.2,0.3-0.4,0.5-0.6
	c0.3-0.5,0.6-1,1-1.3c0.2-0.2,0.3-0.4,0.4-0.6c0.1-0.1,0.1-0.2,0.2-0.4c0.3-0.4,0.5-0.9,0.7-1.4c0.1-0.1,0.1-0.3,0.2-0.4
	c0.3-0.4,0.5-0.8,0.6-1.3c0-0.1,0.1-0.2,0.2-0.4C45.1,65.3,45.2,65,45.4,64.7 M51.2,70.9c0.1-0.4-0.1-0.9-0.1-1.4
	c0-0.3,0-0.6-0.1-0.9c-0.1-0.7-0.4-1.5-0.4-2.2c0-0.4-0.2-0.7-0.3-1.1c0-0.1-0.1-0.2-0.3-0.2c-0.2,0-0.2,0.2-0.2,0.3
	c0,0.5,0.1,1.1,0.1,1.6c0,0.2,0.1,0.4,0.2,0.6c0.1,0.2,0.1,0.4,0.1,0.6c0,0.7,0,1.4,0.3,2.1c0.1,0.1,0,0.3,0,0.4
	c-0.1,1,0.1,2,0.1,3.1c0,0.1,0,0.1,0,0.2c0.2,1,0.2,2,0.3,3c0,0.2,0,0.5,0.1,0.7c0.1,0.5,0.2,1,0.2,1.5c0,0.7,0.1,1.4-0.1,2.2
	c-0.1,0.4,0,0.8,0.1,1.2c0,0.1,0.1,0.2,0.2,0.2c0.1,0,0.1-0.2,0.1-0.3c0-0.8,0-1.5,0-2.3c0-0.4,0-0.8,0-1.2
	c-0.1-0.5-0.1-1.1-0.1-1.6c0-0.5,0-1.1-0.1-1.6c-0.1-0.6-0.1-1.2-0.2-1.7c0-0.1,0-0.1,0-0.2c0.1-0.3,0.1-0.6,0-0.9
	c-0.1-0.3,0.1-0.6,0-0.9C51.2,71.7,51.2,71.3,51.2,70.9 M19.4,23.7c-0.1,0-0.2,0.1-0.2,0.2c0,0.2,0.1,0.4,0.2,0.6
	c0.2,0.3,0.3,0.6,0.5,0.8c0.2,0.3,0.3,0.5,0.3,0.9c0.1,1.1,0.6,2.1,1.2,3c0.6,1,1.5,1.8,2,2.9c0,0.1,0.1,0.1,0.1,0.2
	c0.1,0.2,0.2,0.4,0.3,0.6c0.2,0.5,0.4,1,0.8,1.3c0.1,0.1,0.3,0.2,0.5,0.2c0.3,0,0.4-0.2,0.2-0.4c-0.4-0.6-0.6-1.3-0.9-1.9
	c-0.3-0.4-0.4-0.9-0.7-1.3c-0.2-0.2-0.4-0.4-0.5-0.6c-0.4-0.7-1-1.2-1.5-1.8c-0.1-0.1-0.2-0.2-0.3-0.4c-0.3-0.6-0.3-1.4-0.7-2
	c-0.1-0.1,0-0.4-0.1-0.5c-0.1-0.3-0.2-0.6-0.3-0.8c-0.1-0.4-0.3-0.7-0.6-1C19.6,23.8,19.5,23.7,19.4,23.7 M25.4,35
	c-0.1,0-0.2,0.1-0.2,0.2c0,0.1,0,0.2,0.1,0.3c0.5,0.5,1,0.9,1.6,1.1c0.7,0.2,1.4,0.5,2,1c0.4,0.3,0.8,0.5,1.2,0.7
	c0.6,0.2,1.1,0.4,1.6,0.8c0.2,0.2,0.5,0.3,0.8,0.4c0.2,0.1,0.4,0,0.5-0.2c0.1-0.2,0-0.4-0.1-0.5c-0.1-0.1-0.2-0.1-0.3-0.2
	c-0.8-0.5-1.7-0.8-2.4-1.5c-0.1-0.1-0.1-0.1-0.2-0.1c-0.6-0.1-1-0.6-1.5-0.8c-0.5-0.3-1.1-0.6-1.7-0.6c-0.3,0-0.6-0.1-0.9-0.3
	C25.7,35.1,25.5,35,25.4,35 M35.7,48.6c0,0.2,0,0.4,0.3,0.5c0.8,0.4,1.6,0.9,2.3,1.4c0.9,0.7,1.9,1.2,2.8,1.9
	c0.3,0.3,0.8,0.4,1.1,0.7c0.1,0.1,0.4,0.2,0.6,0.2c0.1,0,0.2,0,0.3-0.1c0.1-0.1,0-0.2-0.1-0.3c-0.1-0.1-0.2-0.2-0.3-0.2
	c-0.2-0.1-0.3-0.2-0.4-0.4c-0.2-0.3-0.5-0.5-0.8-0.7c-0.4-0.2-0.8-0.5-1.2-0.8c-0.3-0.2-0.5-0.5-0.8-0.6c-0.6-0.3-1.1-0.7-1.6-1
	c-0.6-0.4-1.3-0.8-2-1C35.7,48.4,35.7,48.4,35.7,48.6 M32.1,47.2c0-0.1-0.1-0.3-0.1-0.5c-0.1-0.3,0-0.7-0.1-1
	c-0.3-0.6-0.4-1.2-0.7-1.8c-0.1-0.3-0.3-0.6-0.5-0.9c-0.1-0.1-0.2-0.3-0.3-0.3c-0.1,0-0.2-0.1-0.3,0C30,42.9,30,43,30.1,43.1
	c0.1,0.2,0.2,0.4,0.3,0.6c0.2,0.3,0.4,0.6,0.5,1c0.1,0.3,0.2,0.6,0.2,0.9c0,0.1,0.1,0.2,0.2,0.3c0.2,0.2,0.3,0.4,0.4,0.6
	c0.1,0.4,0.2,0.7,0.3,1c0,0.1,0.1,0.1,0.2,0.1c0.1,0,0.1-0.1,0.1-0.2C32.1,47.4,32.1,47.3,32.1,47.2 M23,36.4
	c-0.4,0.1-0.8,0.1-1.2,0.2c-0.1,0-0.2,0.1-0.1,0.2c0,0.1,0.1,0.1,0.2,0.1c0.2,0,0.4,0,0.7,0.1c0.3,0,0.6,0,0.9-0.1
	c0.1,0,0.2-0.1,0.2-0.2c0-0.1-0.1-0.2-0.2-0.2C23.3,36.4,23.1,36.4,23,36.4 M40.4,73.4C40.4,73.3,40.4,73.3,40.4,73.4
	c-0.1-0.1-0.1-0.1-0.2,0c-0.2,0.2-0.4,0.4-0.6,0.5c-0.3,0.2-0.6,0.6-0.9,0.8c-0.1,0-0.1,0.1,0,0.2c0.1,0.1,0.1,0,0.2,0
	c0.1-0.1,0.2-0.2,0.4-0.3c0.4-0.3,0.6-0.7,1-1C40.4,73.5,40.4,73.5,40.4,73.4 M31.2,47.6c0.1,0,0.3,0,0.3-0.2c0-0.2-0.1-0.3-0.3-0.3
	c-0.2,0-0.3,0.1-0.3,0.2C30.9,47.6,31.1,47.6,31.2,47.6 M28.4,98.3c0,0.2,0,0.4,0.1,0.6c0,0.1,0.2,0.2,0,0.2c-0.1,0-0.3,0.1-0.3-0.1
	c0-0.1,0-0.2,0-0.3c0-0.2,0-0.5-0.1-0.7c0-0.3-0.1-0.4-0.4-0.4c-0.2,0-0.4,0.1-0.5,0.4c0,0.3-0.1,0.6,0,0.9c0,0.1,0.1,0.1,0.1,0.2
	c0,0.1,0,0.1-0.1,0.1c-0.1,0-0.1,0-0.1-0.1c0-0.1,0-0.2,0-0.3c0.1-0.5-0.1-0.9-0.3-1.3c-0.1-0.1-0.1-0.2-0.3-0.2
	c-0.1,0-0.2,0.1-0.2,0.3c0,0.4-0.1,0.8,0.1,1.2c0.1,0.1,0,0.2-0.1,0.2c0,0-0.1,0-0.1,0c-0.6-0.3-1.2-0.3-1.8-0.6
	c-0.1,0-0.1-0.1-0.1-0.2c0-0.1,0-0.1,0-0.2c0-0.6-0.2-0.7-0.7-0.7c-0.2,0-0.3,0.1-0.3,0.3c0,0.2-0.2,0.2-0.3,0.1
	c-0.3-0.1-0.7-0.1-0.9-0.3c-0.2-0.1-0.4,0-0.5,0.1c-0.1,0.2-0.3,0.2-0.5,0.2c-0.2,0-0.4,0-0.7,0.1c-0.2,0.1-0.4,0.2-0.6,0.2
	c-0.3,0.1-0.5,0-0.7-0.2c-0.2-0.3-0.5-0.5-0.9-0.5c-0.1,0-0.2-0.1-0.4-0.2C17.5,97.1,17.3,97,17,97c-0.1,0-0.1,0-0.2,0
	c-0.1,0-0.1-0.1-0.1-0.1c0,0,0.1-0.1,0.1-0.1c0.3,0,0.5-0.1,0.8-0.1c0.1,0,0.3,0.1,0.4,0.1c0.4,0.3,0.5,0.3,0.7-0.1
	c0.1-0.1,0.1-0.1,0.2-0.1c0.1,0,0.2,0.1,0.2,0.2c0,0.1,0,0.2,0,0.4c0,0.2,0.1,0.3,0.3,0.3c0.1,0,0.1,0,0.2-0.1
	c0.4-0.2,0.7-0.4,1.1-0.2c0.1,0.1,0.3,0,0.4,0c0.2-0.1,0.3-0.2,0.1-0.4c-0.1-0.2-0.2-0.5-0.5-0.5c-0.1,0-0.1-0.1,0-0.1
	c0.2-0.1,0.4-0.3,0.7-0.1c0.2,0.2,0.6,0,0.9,0.2c0,0,0.1-0.1,0-0.1c-0.3-0.3-0.5-0.6-0.8-0.9C21.2,95,21,95,20.8,95.1
	c-0.3,0.1-0.5,0.1-0.8,0c-0.3-0.1-0.7-0.2-1,0c-0.3,0.1-0.6-0.2-0.7-0.4c0,0,0-0.1,0-0.1c0-0.1,0.1-0.1,0.2,0c0.1,0,0.2,0.1,0.3,0.1
	c0.3,0.1,0.5,0,0.5-0.3c0-0.2,0.1-0.4,0.1-0.6c0-0.1,0.1-0.2,0.2-0.1c0.1,0,0.1,0.1,0.1,0.2c0,0.2,0,0.4,0,0.6
	c0,0.4,0.3,0.7,0.7,0.6c0.2,0,0.3-0.1,0.5-0.2c0.3-0.1,0.4-0.1,0.6,0.2c0,0,0,0.1,0.1,0.1c0.1,0.1,0.1,0.3,0.3,0.3
	c0.2,0,0.1-0.2,0.2-0.3c0,0,0-0.1,0-0.1c0-0.1,0.1-0.2,0.2-0.2c0.2,0,0.1,0.1,0.1,0.2c0,0.2-0.1,0.3-0.1,0.5c0,0.1-0.1,0.3,0.1,0.4
	c0.2,0,0.3-0.1,0.4-0.2c0-0.1,0.1-0.1,0.1-0.2c0-0.2,0.1-0.3,0.3-0.3c0.2,0,0.4-0.1,0.3-0.4c0-0.1,0.1-0.2,0.2-0.2
	c0.1,0,0.2,0,0.3,0.2c0.1,0.3,0.4,0.5,0.5,0.8c0.1,0.2,0.4,0.2,0.6,0.2c0.5-0.1,0.9,0.4,1.3,0.5c0,0,0,0.1,0,0.1
	c0,0.1-0.1,0.1-0.1,0.1c-0.3,0-0.5,0-0.8-0.1C25.3,96,25,95.9,24.7,96c-0.2,0.1-0.3,0.7-0.1,0.9c0.1,0.1,0.3,0.1,0.4,0
	c0-0.1,0.1-0.1,0.1-0.2c0.1-0.2,0.2-0.2,0.3,0c0.1,0.2,0.1,0.4,0.2,0.5c0.2,0.1,0.3-0.1,0.5-0.1c0.3,0,0.6-0.1,0.8,0.2
	c0.1,0.2,0.3,0.2,0.6,0.2c0.1,0,0.1,0,0.2,0c0.5,0,0.7,0.1,0.7,0.6C28.4,98.1,28.4,98.2,28.4,98.3 M24.2,96.8c0-0.4-0.3-0.7-0.6-0.7
	c-0.2,0-0.4,0.2-0.4,0.4c0,0.3,0.3,0.6,0.6,0.6C24.1,97.2,24.2,97.1,24.2,96.8 M22.9,96.5c0-0.1,0-0.3-0.1-0.3
	c-0.2-0.1-0.3,0.1-0.4,0.2c0,0-0.1,0.1-0.1,0.2c0,0.2-0.1,0.3-0.4,0.2c0,0-0.1,0-0.1,0c-0.1,0-0.2,0-0.2,0.2c0,0.1,0.1,0.1,0.2,0.1
	c0.1,0,0.1,0,0.2,0c0.2-0.1,0.2,0,0.3,0.1c0.1,0.2,0.3,0.2,0.4,0C22.9,97,22.9,96.8,22.9,96.5 M25.3,98.3c-0.1-0.2,0-0.5-0.2-0.8
	c-0.1-0.1-0.2-0.2-0.4-0.1c-0.1,0-0.2,0.1-0.2,0.2c0.1,0.3,0.2,0.7,0.5,0.9c0.1,0.1,0.2,0.1,0.3,0C25.3,98.5,25.3,98.4,25.3,98.3
	 M24.1,95.7c0-0.2-0.1-0.3-0.2-0.2c-0.1,0-0.2,0.1-0.1,0.2c0,0.1,0.1,0.2,0.2,0.2C24,95.9,24.1,95.8,24.1,95.7 M25.7,98.1
	c0,0.1,0,0.4,0.1,0.4c0.2,0,0.1-0.2,0.1-0.4c0-0.1,0-0.1,0-0.2c0,0,0-0.1-0.1,0c0,0-0.1,0-0.1,0.1C25.7,98,25.7,98,25.7,98.1
	 M20.3,97.8c0-0.1-0.1-0.1-0.1-0.1c-0.1,0-0.1,0-0.1,0.1c0,0.1,0,0.2,0.2,0.2C20.2,97.9,20.3,97.8,20.3,97.8 M59.8,63.6
	c-0.2,0.4-0.2,0.7-0.1,1.1c0,0.1,0,0.2,0.1,0.4c0.2,0.5,0,1.2,0.6,1.6c0,0,0,0.1,0.1,0.1c0,0.1,0,0.1-0.1,0.1
	c-0.4,0-0.2,0.2-0.2,0.4c0,0.3,0.1,0.7,0.2,1c0.1,0.5,0.1,1.1,0.2,1.6c0.1,0.3,0.1,0.7,0.1,1c0,0.2,0,0.5,0,0.7c0,0.1,0,0.2,0.1,0.3
	c0.4,0.4,0.7,0.9,0.9,1.4c0.1,0.1,0.1,0.2,0.3,0.3c0.1,0,0.1,0,0.2,0c0.1-0.1,0.1-0.1,0-0.2c0-0.1-0.1-0.1-0.1-0.2
	c-0.3-0.2-0.5-0.5-0.6-0.9c0-0.1-0.1-0.2-0.1-0.2C61,72,61,71.7,60.9,71.4c-0.1-0.4-0.1-0.4,0.2-0.6c0.2-0.1,0.3-0.3,0.3-0.5
	c0-0.1,0-0.3-0.1-0.4c-0.1-0.9-0.1-1.8-0.3-2.7c-0.1-0.7-0.1-1.4-0.3-2.1c-0.1-0.4-0.1-0.8-0.1-1.2c0-0.2,0.2-0.4,0-0.5
	c-0.2-0.1-0.2,0.2-0.3,0.4c0,0-0.1,0.1-0.1,0.1c-0.1,0-0.1-0.1-0.1-0.2c0-0.2,0-0.4,0-0.6c0-0.5,0.2-1-0.2-1.4
	c-0.1-0.1-0.1-0.1-0.2-0.1c-0.1,0-0.1,0.1,0,0.2c0.1,0.3,0.2,0.7,0.2,0.9C59.9,63,59.9,63.3,59.8,63.6 M54.8,56.7
	c0.1,0.1,0.2,0.2,0.3,0.1c0.2,0,0.1-0.2,0.1-0.3c-0.1-0.1,0-0.3,0-0.4c0-0.6,0.1-1.1,0.3-1.7c0.2-0.7-0.2-1.5-0.8-1.7
	c-0.2-0.1-0.3-0.2-0.4-0.4c-0.1-0.3-0.4-0.5-0.7-0.5c-0.3,0-0.5-0.1-0.7-0.3c-0.1,0-0.1-0.1-0.2-0.1c-0.5-0.1-1-0.5-1.6-0.6
	c-0.1,0-0.2-0.1-0.3-0.2c-0.2-0.2-0.4-0.3-0.6-0.3c-0.3,0-0.4-0.1-0.4-0.4c0-0.3-0.1-0.5-0.4-0.6c-0.8-0.5-1.7-0.8-2.7-1.1
	c-0.1,0-0.2-0.1-0.3,0.1c0,0.1,0.1,0.1,0.2,0.2c0.3,0.2,0.7,0.3,1.1,0.5c0.4,0.2,0.8,0.5,1.3,0.5c0.2,0,0.4,0.2,0.4,0.5
	c0.1,0.4,0.1,0.4,0.5,0.5c0.3,0.1,0.6,0.1,0.7,0.4c0,0.1,0.1,0.2,0.2,0.2c0.4,0.1,0.7,0.4,1.1,0.4c0.1,0,0.2,0.1,0.4,0.2
	c0.3,0.2,0.6,0.5,0.9,0.4c0.5-0.1,0.7,0.2,1,0.4c0.4,0.3,0.6,0.7,0.4,1.2c-0.2,0.4-0.1,0.9,0.1,1.3c0.2,0.4,0.2,0.8,0.2,1.1
	C54.8,56.4,54.7,56.5,54.8,56.7 M11.2,75.6c-0.2,0.1-0.3,0.1-0.5,0.2c-0.7,0.1-1.4,0.3-2,0.7c-0.1,0.1-0.3,0.2-0.5,0.3
	c-0.4,0.1-0.7,0.3-1.1,0.5c-0.9,0.4-1.7,1.1-2.6,1.4c-0.1,0.1-0.2,0.1-0.3,0.2c-0.1,0.1-0.1,0.3,0,0.4c0.1,0.1,0.3,0.1,0.4-0.1
	c0.1-0.1,0.1-0.2,0.2-0.2c0.6-0.3,1.2-0.6,1.8-1c0.4-0.3,1-0.4,1.3-0.9c0.1-0.1,0.2-0.1,0.3,0c0.1,0.1,0.1,0.2,0.2,0.1
	c0.3-0.2,0.7-0.2,0.9-0.5c0.2-0.3,0.6-0.4,0.9-0.5c0.2,0,0.5-0.1,0.7-0.2c0.5-0.3,1.1-0.4,1.7-0.5c0.3,0,0.7-0.1,1,0.2
	c0.2,0.3,0.6,0.5,1,0.6c0.7,0.2,1.3,0.6,1.6,1.3c0.1,0.1,0.1,0.2,0.2,0.3c0.1,0.1,0.1,0.2,0.3,0.2c0.1,0,0.1-0.2,0.1-0.3
	c0.1-0.2,0-0.4-0.1-0.5c-0.2-0.1-0.3-0.3-0.4-0.4c-0.3-0.3-0.6-0.7-1.1-0.8c-0.4-0.1-0.7-0.3-1-0.6c-0.4-0.6-1-0.5-1.7-0.6
	C12.1,75.3,11.7,75.4,11.2,75.6 M14.3,96.8c0,0.1,0,0.1-0.1,0.2c-0.4,0.3-0.6,0.6-1.1,0.8c-0.1,0.1-0.2,0.1-0.2-0.1
	c0-0.1-0.1-0.2-0.2-0.2c-0.4-0.2-0.6-0.5-0.6-1c0-0.1-0.1-0.2-0.2-0.2c-0.3-0.2-0.7-0.4-1.1-0.4c-0.2,0-0.4,0-0.5,0.2
	c-0.1,0.1-0.2,0.1-0.3,0.2c-0.1,0-0.2,0.1-0.3,0C9.8,96,10,96,10,96c0.1-0.1,0.3-0.1,0.2-0.3c0-0.1-0.1-0.2-0.2-0.2
	c-0.2,0-0.3,0-0.4,0.2c-0.1,0.1,0,0.3-0.2,0.4c-0.3,0-0.5,0-0.8-0.1c-0.1,0-0.1-0.1-0.1-0.1c0-0.1,0.1-0.1,0.1-0.1c0,0,0.1,0,0.1,0
	c0.1,0,0.3,0.1,0.4-0.1c0.1-0.2-0.1-0.3-0.2-0.3c-0.2-0.1-0.5-0.2-0.7-0.3c-0.2-0.1-0.3-0.3-0.2-0.4c0.1-0.2,0.3-0.2,0.4-0.1
	c0.1,0.1,0.2,0.1,0.3,0.3c0.2,0.3,0.6,0.4,0.9,0.5c0.6,0.2,1.3,0.2,1.9,0.3c0.2,0,0.3,0,0.5,0c0.3-0.1,0.3-0.3,0.1-0.5
	c-0.1-0.1-0.2-0.1-0.2-0.2c-0.1-0.1,0-0.3,0.1-0.3c0.1-0.1,0.2,0,0.2,0.1c0.2,0.3,0.4,0.6,0.1,1c-0.1,0.2,0,0.5,0.1,0.6
	c0.2,0.1,0.3,0.1,0.5,0c0.2-0.1,0.2-0.3,0.2-0.4c0-0.2,0-0.3,0.3-0.3c0.2,0,0.4-0.2,0.6-0.3c0.1,0,0.1-0.2,0.2-0.1
	c0.1,0.1,0,0.2,0,0.3c-0.1,0.3-0.2,0.6-0.5,0.8c-0.2,0.2-0.2,0.3,0.1,0.4c0.1,0.1,0.3,0.1,0.5,0.1C14.2,96.6,14.3,96.7,14.3,96.8
	 M13.2,96.8c0-0.2-0.1-0.3-0.2-0.3c-0.2,0-0.3,0.1-0.2,0.3c0,0.1,0.1,0.3,0.2,0.3C13.2,97.1,13.2,97,13.2,96.8 M11.3,91.3
	c-0.1,0.2-0.2,0.3-0.4,0.1c-0.3-0.3-0.5-0.6-0.7-1c-0.1-0.1,0-0.3-0.1-0.3c-0.1,0-0.1,0.2-0.2,0.3c-0.1,0.1-0.1,0.3,0,0.3
	c0.3,0.2,0.4,0.6,0.7,0.8c0.3,0.2,0.5,0.6,0.7,0.9c0.1,0.2,0,0.3-0.1,0.4c-0.2,0.1-0.3,0.1-0.5,0.1c-0.1,0-0.1,0.1-0.1,0.2
	c0,0.1,0.1,0.1,0.1,0.1c0.5,0.2,1,0.1,1.4-0.1c0.3-0.1,0.1-0.5,0.2-0.7c0.1-0.1,0.2-0.3,0-0.4c-0.2-0.1-0.3,0-0.4,0.1
	c0,0-0.1,0.1-0.1,0.1c-0.2,0.1-0.3,0-0.4-0.2c0-0.1,0-0.3,0-0.5c0.1-0.6,0.2-1.2,0.4-1.8c0-0.1,0.1-0.3,0.2-0.4
	c0.2-0.2,0.3-0.4,0.3-0.6c0-0.2,0.1-0.4,0.3-0.5c0.1,0,0.1-0.1,0.1-0.2c0-0.1-0.1-0.1-0.2-0.1c-0.3,0-0.6,0.1-0.9,0.1
	c-0.2,0-0.2,0.2-0.1,0.3c0.1,0,0.1,0.1,0.2,0.1c0.3,0.1,0.3,0.3,0.1,0.6c-0.1,0.1-0.2,0.1-0.2,0.2c-0.2,0.1-0.3,0.3-0.2,0.5
	C11.5,90.4,11.5,90.9,11.3,91.3 M13.5,56.2c0.2-0.1,0.4-0.2,0.6-0.2c0,0,0.1,0,0.1-0.1c0-0.1-0.1-0.1-0.1-0.1
	c-0.3,0-0.6,0.1-0.9,0.1c-0.9,0.1-1.8-0.2-2.7-0.4c-1-0.2-1.7,0.2-2.4,0.9c-0.1,0.1-0.3,0.3-0.5,0.3c-0.5,0.2-0.9,0.4-1.3,0.8
	C6,57.9,5.5,58.1,5,58.3c-0.1,0.1-0.3,0.1-0.5,0.2c-0.1,0-0.1,0.1-0.1,0.2c0,0.1,0.1,0.1,0.2,0.1c0.1,0,0.3,0,0.4-0.1
	c0.4-0.2,0.8-0.3,1.1-0.6c0.3-0.3,0.6-0.5,1-0.7c0.5-0.3,1-0.5,1.4-1c0.2-0.2,0.4-0.4,0.6-0.5c0.4-0.2,0.8-0.3,1.2,0
	c0.2,0.2,0.5,0.2,0.9,0.2c0.4,0,0.7,0,1.1,0.1c0.2,0,0.5,0,0.8,0.1C13.2,56.3,13.4,56.2,13.5,56.2 M12.1,6.9
	c-0.1-0.1-0.2-0.3-0.3-0.5c-0.2-0.9-0.7-1.5-1.2-2.2c-0.1-0.1-0.2-0.3-0.3-0.5c-0.1-0.3-0.3-0.4-0.6-0.4c-0.1,0-0.2,0-0.2,0.1
	c0,0.1,0.1,0.1,0.1,0.2c0.4,0.4,0.8,0.7,1,1.3c0.3,0.6,0.6,1.3,1,1.9c0.3,0.4,0.6,0.9,0.5,1.5c0,0.2-0.1,0.4-0.1,0.6
	c-0.1,0.4,0,0.8,0.3,1.1c0.5,0.5,1.1,0.9,1.6,1.4c0.1,0.1,0.1,0.2,0.3,0.1c0.1-0.1,0-0.2,0-0.3c0-0.1-0.1-0.2-0.1-0.3
	c-0.4-0.5-0.8-0.9-1.4-1.2c-0.4-0.2-0.4-0.3-0.3-0.7c0.1-0.3,0.1-0.6,0.1-0.9C12.6,7.6,12.5,7.2,12.1,6.9 M59.3,60.4
	c-0.5-0.5-0.9-1-1.4-1.4c-0.2-0.2-0.5-0.4-0.6-0.8c-0.2-0.4-0.5-0.8-1-0.8c-0.2,0-0.3-0.1-0.4-0.2c-0.1,0-0.1-0.1-0.2,0
	c-0.1,0.1,0,0.2,0.1,0.2c0.3,0.3,0.6,0.5,0.8,0.8c0.2,0.5,0.5,0.9,0.8,1.3c0.1,0.2,0.2,0.3,0.4,0.2c0.2-0.1,0.3,0,0.4,0.1
	c0.1,0.1,0.1,0.1,0.2,0.2c0.2,0.3,0.4,0.6,0.7,0.9c0.1,0.1,0.2,0.2,0.3,0.1c0.1-0.1,0.1-0.2,0.1-0.3C59.4,60.6,59.4,60.5,59.3,60.4
	 M1.9,0.1C1.9,0,1.9,0,1.8,0C1.6,0,1.4,0.4,1.5,0.5C1.5,0.8,1.6,1,1.5,1.3c0,0.2,0,0.4-0.2,0.5C1.1,1.8,1,1.6,0.9,1.4
	c0-0.1-0.1-0.1-0.1-0.2C0.7,1.1,0.6,1,0.4,1c-0.2,0-0.3,0-0.3,0.3c0,0.2,0,0.3-0.1,0.4C-0.1,1.9,0,2.1,0.2,2.1
	C0.6,2.3,1,2.3,1.4,2.1c0.2-0.2,0.3-0.1,0.3,0.2c0,0.2,0.1,0.4,0.1,0.6c0.1,0.3,0.2,0.5,0.6,0.5c0.1,0,0.2,0,0.2,0
	c0.4,0,0.4,0,0.6-0.4c0.1-0.2,0.2-0.3,0.3-0.3c0.1,0,0.2,0,0.2-0.1c0.1-0.1,0.1-0.2,0-0.3c-0.1-0.1-0.1,0-0.2,0
	C3.2,2.4,2.8,2.6,2.4,2.7c-0.3,0.1-0.5,0-0.5-0.3c0-0.3-0.1-0.6,0-0.9c0-0.3,0.1-0.6,0.1-1.1C1.9,0.4,1.9,0.2,1.9,0.1 M26,94.1
	c-0.2,0.2-0.4,0.4-0.5,0.7c0,0.1-0.1,0.2-0.2,0.2c-0.1,0-0.1-0.1-0.1-0.2c0-0.1,0-0.2,0-0.3c0-0.1-0.1-0.1-0.2-0.1
	c-0.1,0-0.1,0.1-0.2,0.1c-0.1,0.3,0,0.6,0.3,0.7c0.1,0,0.3,0,0.5,0c0.1,0,0.2,0,0.3,0.1c0.2,0.2,0.4,0.2,0.6,0.1
	c0.2-0.1,0.4-0.1,0.5-0.1c0.5,0.2,0.9,0,1.4,0.2c0.1,0,0.2,0,0.3,0c0,0,0.1,0,0.1-0.1c0-0.1-0.1-0.1-0.1-0.1
	c-0.4-0.1-0.7-0.3-1.1-0.3c-0.3,0-0.4-0.1-0.4-0.4c0-0.1,0-0.2,0-0.2c0-0.1,0-0.1-0.1-0.2c-0.1,0-0.1,0-0.2,0.1
	c-0.1,0.2-0.3,0.4-0.4,0.6c-0.2,0.1-0.3,0.1-0.3-0.1C26.1,94.5,26,94.3,26,94.1L26,94.1z M16.9,17.8c-0.3-1-0.6-2.1-1-3.1
	c0-0.1,0-0.1-0.1-0.2c-0.2-0.1-0.3-0.3-0.3-0.5c0-0.1,0-0.3-0.2-0.2c-0.2,0-0.2,0.1-0.2,0.3c0.1,0.3,0.1,0.6,0.2,0.8
	c0.1,0.4,0.2,0.7,0.6,0.8c0.1,0,0.1,0.1,0.1,0.2c0.2,0.3,0.3,0.7,0.3,1c0,0.3,0.1,0.7,0.1,1c0,0.1,0.1,0.2,0.2,0.2
	c0.2,0,0.2-0.1,0.2-0.3C17,17.9,17,17.9,16.9,17.8 M4.4,3.5c0,0.1,0,0.2,0,0.3c0,0.1,0.1,0.1,0.2,0.1C4.8,3.9,5.1,4,5.3,4
	c0.4,0,0.8,0,1.2,0.1c0.1,0.1,0.3,0,0.3-0.1c0-0.3,0.2-0.3,0.5-0.4c0.1,0,0.2,0,0.2-0.1c0-0.1-0.1-0.2-0.2-0.2
	C7,3.2,6.7,3.2,6.5,3.3C6,3.5,5.5,3.6,4.9,3.5c-0.1,0-0.2-0.1-0.2-0.1C4.6,3.4,4.5,3.4,4.4,3.5 M15.9,99.3c-0.1-0.2-0.2-0.4-0.5-0.5
	c-0.2,0-0.3-0.2-0.4-0.4c-0.1-0.2-0.1-0.4-0.2-0.5c0-0.1-0.1-0.1-0.2-0.1c-0.1,0-0.1,0.1-0.1,0.2c0,0.2,0.1,0.4,0.2,0.6
	c0.1,0.1,0.2,0.3,0.1,0.5c-0.1,0.2,0,0.2,0.1,0.2c0.3,0,0.5,0.2,0.6,0.5c0,0.1,0.1,0.2,0.2,0.3c0.1,0.1,0.2,0,0.2-0.1
	C16,99.7,15.9,99.5,15.9,99.3 M17.2,86.4c0.2,0,0.3,0.1,0.3,0.4c0,0.2-0.1,0.3-0.1,0.4c0,0.1-0.1,0.2,0,0.2c0.1,0.1,0.2,0,0.3-0.1
	c0.1-0.1,0.1-0.3,0.2-0.4c0.1-0.3,0-0.6,0.2-0.8c0.2-0.3,0.1-0.6,0-0.8c0-0.1-0.1-0.1-0.1-0.1c-0.1,0-0.1,0.1-0.1,0.1
	c0,0.3-0.1,0.5-0.1,0.8c0,0.1-0.1,0.1-0.2,0.1c-0.1,0-0.1-0.1-0.1-0.2c0.2-0.4-0.2-0.2-0.3-0.3c0,0-0.1,0-0.1,0.1c0,0.1,0,0.1,0,0.2
	C17.1,86,17.1,86.2,17.2,86.4L17.2,86.4z M30.5,98.6c0.1-0.1,0.2-0.1,0.3-0.1c0.1-0.1,0.4,0,0.3-0.2c0-0.1-0.3-0.1-0.4-0.1
	c-0.1,0-0.2,0-0.3,0c-0.2,0-0.4,0-0.5-0.2c-0.2-0.2-0.4-0.1-0.4,0.1c0,0.3-0.1,0.5-0.3,0.7c0,0-0.1,0.1-0.1,0.1
	c0,0.1,0.1,0.1,0.2,0.1c0.1,0,0.2-0.1,0.3-0.2c0.1-0.3,0.2-0.3,0.5-0.2C30.2,98.8,30.4,98.7,30.5,98.6 M21.5,98.8
	c-0.5,0-0.8,0.4-1.3,0.5c0,0-0.1,0.1,0,0.1c0,0,0.1,0.1,0.1,0.1c0.1,0,0.1,0,0.2,0c0.4-0.2,0.7-0.2,1.1-0.2c0.1,0,0.2-0.1,0.3-0.1
	c0.2-0.1,0.4-0.2,0.6-0.2c0.2,0,0.3-0.1,0.3-0.2c0-0.1,0-0.2-0.1-0.2c-0.1-0.1-0.2,0-0.3,0.1c-0.2,0.2-0.4,0.3-0.6,0.2
	C21.6,98.8,21.6,98.8,21.5,98.8 M19.9,70.5c0.5-0.1,1-0.1,1.6-0.1c0.2,0,0.3-0.1,0.5-0.3c0.2-0.2,0.4-0.4,0.7-0.6
	c0.1,0,0.1-0.1,0.1-0.2c-0.1-0.1-0.1-0.1-0.2,0c-0.1,0.1-0.2,0.2-0.3,0.3c-0.1,0.1-0.3,0.3-0.5,0.3c-0.6,0.1-1.1,0.5-1.8,0.4
	c0,0-0.1,0-0.1,0c0,0,0,0-0.1,0.1C19.7,70.5,19.8,70.5,19.9,70.5 M12.4,98.8c0.2,0.1,0.4,0.1,0.6,0c0.2-0.1,0.3-0.2,0.2-0.4
	c0-0.1-0.1-0.2-0.2-0.1c-0.2,0.2-0.4,0.2-0.6,0.1c-0.4-0.3-0.8,0-1.2,0.1c-0.1,0-0.1,0.1-0.1,0.1c0,0.1,0.1,0.1,0.2,0.1
	c0.2,0,0.4-0.1,0.6-0.1C12.1,98.7,12.3,98.8,12.4,98.8 M44.6,48.8c0,0,0.1-0.1,0.1-0.1c0-0.1-0.1-0.1-0.2-0.1c-0.1,0-0.2,0-0.4,0
	c-0.4,0.1-0.7,0.2-1.1,0.3c-0.1,0-0.2,0.1-0.3,0.1c-0.1,0-0.1,0.1-0.1,0.2c0,0.1,0.1,0.1,0.2,0.1c0,0,0.1,0,0.2,0
	C43.4,49.2,44.1,49.2,44.6,48.8 M19.2,70.6c0.1,0,0.1,0,0.1-0.1c0-0.1-0.1-0.1-0.1-0.1c-0.1,0-0.2,0-0.4,0c-0.3,0.1-0.6,0.1-0.8,0
	c-0.4-0.1-0.9,0.1-1.3,0.3c-0.2,0.1-0.2,0.2-0.2,0.4c0,0.1,0.1,0.1,0.1,0.1c0,0,0.1,0,0.1-0.1c0-0.2,0.1-0.3,0.3-0.4
	c0.2,0,0.4-0.1,0.6-0.1c0.2,0.1,0.4,0,0.6,0.1C18.6,70.7,18.9,70.6,19.2,70.6 M26.3,74.4c0-0.1-0.1-0.2-0.2-0.2
	c-0.1,0-0.1,0.1-0.1,0.2c0,0.7,0.1,1.4,0.2,2.2c0,0,0,0.1,0,0.1c0.1,0,0.1-0.1,0.1-0.1c0-0.5-0.1-0.9,0-1.3
	C26.4,74.9,26.4,74.6,26.3,74.4 M15.2,55.1c0,0.1,0,0.1,0,0.2c-0.1,0.1-0.2,0.2-0.2,0.3c0,0.1-0.2,0.1-0.1,0.2
	c0.1,0.1,0.2,0.1,0.3,0c0.1,0,0.1-0.1,0.2-0.1c0.2-0.1,0.4-0.2,0.4-0.4c0.1-0.2-0.2-0.2-0.2-0.4c0-0.1-0.1-0.2-0.2-0.2
	C15.2,54.8,15.1,54.9,15.2,55.1 M26.1,79.3c0,0,0,0.1,0.1,0.1c0.1,0,0.1,0,0.1-0.1c0-0.1,0.1-0.2,0.1-0.3c0-0.5,0-1.1,0-1.6
	c0-0.1,0-0.2-0.1-0.2c-0.1,0-0.1,0.1-0.1,0.2c0,0.3,0,0.6,0,0.9S26.1,78.9,26.1,79.3 M18,99.5c-0.1,0-0.2,0.1,0,0.2
	c0.2,0.2,0.6,0.2,0.8,0c0.1-0.2,0.2-0.2,0.4-0.3c0.1,0,0.2,0,0.2-0.2c0-0.1-0.1-0.1-0.3-0.1C18.7,99.3,18.3,99.4,18,99.5 M19.8,83.5
	c0,0.1,0,0.2,0.1,0.2c0.2,0,0.1-0.1,0.1-0.2c0-0.1,0-0.2,0-0.2c-0.1-0.2-0.1-0.5,0-0.7c0.1-0.3,0-0.6-0.2-0.8c0-0.1-0.1-0.2-0.2-0.1
	c-0.1,0,0,0.1,0,0.2C19.7,82.4,19.9,82.9,19.8,83.5C19.8,83.5,19.8,83.5,19.8,83.5 M18,87.8C18,87.7,18,87.7,18,87.8
	c-0.3-0.1-0.6,0.1-0.6,0.3c0,0.1-0.1,0.3,0.1,0.3c0.2,0.1,0.3,0.3,0.5,0.3c0.1,0,0.1-0.1,0.1-0.1c0-0.2-0.1-0.3,0-0.6
	C18,88,18,87.9,18,87.8 M13.6,31.4c0,0.4,0,0.7,0.2,1c0.1,0.1,0.2,0.2,0.3,0.1c0.1-0.1,0.1-0.2,0.1-0.3c-0.1-0.3-0.3-0.6-0.4-0.9
	C13.7,31.4,13.7,31.4,13.6,31.4C13.6,31.4,13.6,31.4,13.6,31.4 M18.8,88.5c0-0.1,0-0.3,0-0.4c0-0.1-0.1-0.1-0.2-0.1
	c-0.2,0.2-0.3,0.5-0.1,0.8c0,0.1,0.1,0.2,0.2,0.2c0.1,0,0.1-0.1,0.1-0.2C18.8,88.7,18.8,88.6,18.8,88.5L18.8,88.5z M19.9,96
	c0,0,0.1,0,0.1-0.1c0,0,0-0.1,0-0.1c-0.1-0.2-0.3-0.2-0.5-0.2c-0.2,0-0.4-0.2-0.5,0c0,0.2,0.2,0.2,0.4,0.3c0,0,0.1,0,0.1,0
	C19.7,96,19.8,95.9,19.9,96 M28.4,92.5c-0.1,0.1-0.2,0.5-0.1,0.6c0.1,0.1,0.2,0.1,0.3,0.1c0.1,0,0.2-0.1,0.2-0.2
	c0-0.2-0.1-0.3-0.1-0.5c0,0-0.1-0.1-0.1-0.1C28.5,92.4,28.5,92.4,28.4,92.5 M12.5,28.2C12.5,28.1,12.5,28.1,12.5,28.2
	c-0.1,0-0.1,0-0.1,0.1c0.1,0.4,0.2,0.7,0.4,1.1c0,0,0.1,0.1,0.1,0c0,0,0-0.1,0.1-0.1C12.9,28.9,12.7,28.5,12.5,28.2 M34,96.6
	c0.1,0,0.1,0,0.1-0.1c0,0,0-0.1-0.1-0.1c-0.1,0-0.1,0-0.2,0c-0.4,0.1-0.7,0.2-1.1,0.3c0,0-0.1,0-0.1,0c0,0.1,0.1,0.1,0.2,0.1
	C33.2,96.6,33.6,96.5,34,96.6 M18.5,80.3c0.2,0.1,0.3,0.2,0.4,0.4c0.1,0.1,0.1,0.4,0.3,0.3c0.1-0.1,0-0.3-0.1-0.4
	c-0.1-0.1-0.2-0.3-0.2-0.4c-0.1-0.1-0.1-0.2-0.2-0.2c-0.1,0-0.1,0-0.1,0.1C18.4,80.3,18.5,80.3,18.5,80.3 M12.7,93.7
	c0,0-0.1-0.1-0.2,0c-0.1,0.2-0.1,0.3-0.2,0.5c0,0.1,0.1,0.1,0.2,0.2c0.1,0,0.2,0,0.2-0.1c0-0.1,0-0.2,0.1-0.3
	C12.7,93.9,12.7,93.8,12.7,93.7 M19.1,87c0-0.1-0.1-0.1-0.1,0c-0.1,0.2-0.2,0.3-0.2,0.5c0,0.1,0.1,0.2,0.3,0.2
	c0.1,0,0.1-0.1,0.1-0.2C19.2,87.3,19.2,87.2,19.1,87 M26,72C26,72,26,72,26,72c-0.1,0-0.1,0-0.1,0c0.1,0.3-0.1,0.5,0,0.8
	c0,0.1,0,0.2,0.1,0.2c0.1,0,0.1-0.1,0.1-0.2c0,0,0-0.1,0-0.2C26.1,72.5,26,72.3,26,72 M20,84.3c-0.1,0-0.1,0.2-0.1,0.3
	c0,0.1,0,0.2,0,0.3c0,0.1-0.1,0.3-0.1,0.4c0.2-0.1,0.2-0.3,0.2-0.4c0-0.1,0-0.1,0-0.3C20,84.6,20.1,84.3,20,84.3 M14,98.6
	c-0.1,0-0.1,0.1,0,0.2c0.1,0.1,0.3,0.2,0.4,0.2c0,0,0.1,0,0.1,0C14.5,98.9,14.2,98.6,14,98.6 M32.8,96c0-0.1-0.1-0.1-0.2-0.1
	c-0.1,0-0.2-0.1-0.3-0.1c-0.1,0-0.3-0.1-0.3,0c0,0.1,0.2,0.1,0.3,0.2c0.1,0,0.2,0,0.3,0.1C32.7,96,32.8,96.1,32.8,96 M23.5,98.8
	c0.1,0,0.2,0.1,0.3,0c0,0,0-0.1,0-0.1c-0.1,0-0.3-0.1-0.4-0.1c0,0-0.1,0.1-0.1,0.1C23.3,98.7,23.4,98.8,23.5,98.8 M15.5,96.1
	c0-0.1,0-0.1-0.1-0.1c-0.1,0-0.3,0.2-0.3,0.3c0,0.1,0.1,0.1,0.1,0.1C15.4,96.4,15.5,96.2,15.5,96.1 M30.8,92.9
	c0,0.2,0.1,0.2,0.3,0.2c0.1,0,0.2,0,0.1-0.1c-0.1-0.1-0.1-0.3-0.3-0.3C30.8,92.7,30.8,92.8,30.8,92.9 M31.2,96.6c0,0,0.1-0.1,0-0.1
	c0,0-0.1,0-0.1,0c-0.1,0-0.2,0.1-0.3,0.2c0,0.1,0,0.1,0.1,0.2C31,96.8,31.1,96.7,31.2,96.6 M23.2,68.9c0-0.1-0.1-0.2-0.2-0.2
	c-0.1,0-0.1,0.1-0.1,0.2c0,0.1,0,0.2,0.2,0.2C23.1,69,23.2,69,23.2,68.9 M29.8,91.9c0-0.1-0.1-0.1-0.1,0c-0.1,0.1-0.1,0.2,0,0.3
	c0,0.1,0,0.2,0.1,0.2c0,0,0.1,0,0.1,0c0-0.1,0-0.1,0-0.2C29.8,92.1,29.8,92,29.8,91.9 M32.1,92.6c-0.1,0-0.1,0.1-0.1,0.2
	c0,0.1,0,0.2,0.2,0.2c0.1,0,0.1-0.1,0.1-0.1C32.2,92.7,32.2,92.6,32.1,92.6 M17.2,84.9c0.1,0,0.1-0.1,0.1-0.2c0-0.1,0-0.1-0.1-0.1
	C17.2,84.7,17.1,84.8,17.2,84.9C17.1,84.9,17.2,85,17.2,84.9 M13.1,29.9c0,0.1,0,0.1,0.1,0.1c0.1,0,0.1,0,0.1-0.1
	C13.3,29.8,13.3,29.8,13.1,29.9C13.2,29.8,13.1,29.8,13.1,29.9 M16.4,87.9c0,0.1,0,0.1,0,0.2c0,0,0.1,0,0.1-0.1
	C16.5,87.9,16.5,87.9,16.4,87.9C16.4,87.8,16.4,87.9,16.4,87.9 M23.7,93.8C23.7,93.7,23.6,93.7,23.7,93.8
	C23.6,93.8,23.6,93.8,23.7,93.8C23.6,93.8,23.6,93.8,23.7,93.8C23.7,93.8,23.7,93.8,23.7,93.8 M2.4,2.2C2.4,2.2,2.4,2.2,2.4,2.2
	C2.4,2.1,2.4,2.1,2.4,2.2L2.4,2.2C2.4,2.2,2.4,2.2,2.4,2.2 M26,94.1c0,0,0.1-0.1,0-0.1L26,94.1L26,94.1z M27,73.1L27,73.1L27,73.1
	L27,73.1z M28.6,71.7L28.6,71.7L28.6,71.7L28.6,71.7z M17.2,86.4L17.2,86.4L17.2,86.4z"/>
</svg>
