[
  { "title": "audio1", "image": "1.mp3", "tags": [] },
  { "title": "audio2", "image": "2.mp3", "tags": [] },
  { "title": "audio3", "image": "3.mp3", "tags": [] },
  { "title": "audio4", "image": "4.mp3", "tags": [] },
  { "title": "audio5", "image": "5.mp3", "tags": [] },
  { "title": "audio6", "image": "6.mp3", "tags": [] },
  { "title": "audio7", "image": "7.mp3", "tags": [] },
  { "title": "audio8", "image": "8.mp3", "tags": [] },
  { "title": "audio9", "image": "9.mp3", "tags": [] },
  { "title": "audio10", "image": "10.mp3", "tags": [] },
  { "title": "audio11", "image": "11.mp3", "tags": [] },
  { "title": "audio12", "image": "12.mp3", "tags": [] },
  { "title": "audio13", "image": "13.mp3", "tags": [] },
  { "title": "audio14", "image": "14.mp3", "tags": [] },
  { "title": "audio15", "image": "15.mp3", "tags": [] },
  { "title": "audio16", "image": "16.mp3", "tags": [] },
  { "title": "audio17", "image": "17.mp3", "tags": [] },
  { "title": "audio18", "image": "18.mp3", "tags": [] },
  { "title": "audio19", "image": "19.mp3", "tags": [] },
  { "title": "audio20", "image": "20.mp3", "tags": [] },
  { "title": "audio21", "image": "21.mp3", "tags": [] }
]