{
  "startinfo": {
    "book": "odd",
    "startPage": "page1",
    "pageCount": 12,
    "loadPageImages": 1,
    "loadPageAudio":1
  },
  "images":[{"key":"bg","path":"bg.jpg"}],
  "audio":[{"key":"rag","path":"OldJazzRag.mp3"}]
}
