{
	"textures": [
		{
			"image": "icons.png",
			"format": "RGBA8888",
			"size": {
				"w": 1530,
				"h": 204
			},
			"scale": 0.5,
			"frames": [
				{
					"filename": "candy.png",
					"rotated": false,
					"trimmed": false,
					"sourceSize": {
						"w": 100,
						"h": 100
					},
					"spriteSourceSize": {
						"x": 0,
						"y": 0,
						"w": 100,
						"h": 100
					},
					"frame": {
						"x": 1,
						"y": 1,
						"w": 100,
						"h": 100
					}
				},
				{
					"filename": "candy1.png",
					"rotated": false,
					"trimmed": false,
					"sourceSize": {
						"w": 100,
						"h": 100
					},
					"spriteSourceSize": {
						"x": 0,
						"y": 0,
						"w": 100,
						"h": 100
					},
					"frame": {
						"x": 1,
						"y": 103,
						"w": 100,
						"h": 100
					}
				},
				{
					"filename": "candy2.png",
					"rotated": false,
					"trimmed": false,
					"sourceSize": {
						"w": 100,
						"h": 100
					},
					"spriteSourceSize": {
						"x": 0,
						"y": 0,
						"w": 100,
						"h": 100
					},
					"frame": {
						"x": 103,
						"y": 1,
						"w": 100,
						"h": 100
					}
				},
				{
					"filename": "candy3.png",
					"rotated": false,
					"trimmed": false,
					"sourceSize": {
						"w": 100,
						"h": 100
					},
					"spriteSourceSize": {
						"x": 0,
						"y": 0,
						"w": 100,
						"h": 100
					},
					"frame": {
						"x": 103,
						"y": 103,
						"w": 100,
						"h": 100
					}
				},
				{
					"filename": "candy4.png",
					"rotated": false,
					"trimmed": false,
					"sourceSize": {
						"w": 100,
						"h": 100
					},
					"spriteSourceSize": {
						"x": 0,
						"y": 0,
						"w": 100,
						"h": 100
					},
					"frame": {
						"x": 205,
						"y": 1,
						"w": 100,
						"h": 100
					}
				},
				{
					"filename": "candy5.png",
					"rotated": false,
					"trimmed": false,
					"sourceSize": {
						"w": 100,
						"h": 100
					},
					"spriteSourceSize": {
						"x": 0,
						"y": 0,
						"w": 100,
						"h": 100
					},
					"frame": {
						"x": 205,
						"y": 103,
						"w": 100,
						"h": 100
					}
				},
				{
					"filename": "candy6.png",
					"rotated": false,
					"trimmed": false,
					"sourceSize": {
						"w": 100,
						"h": 100
					},
					"spriteSourceSize": {
						"x": 0,
						"y": 0,
						"w": 100,
						"h": 100
					},
					"frame": {
						"x": 307,
						"y": 1,
						"w": 100,
						"h": 100
					}
				},
				{
					"filename": "candy7.png",
					"rotated": false,
					"trimmed": false,
					"sourceSize": {
						"w": 100,
						"h": 100
					},
					"spriteSourceSize": {
						"x": 0,
						"y": 0,
						"w": 100,
						"h": 100
					},
					"frame": {
						"x": 307,
						"y": 103,
						"w": 100,
						"h": 100
					}
				},
				{
					"filename": "dotsprinkles.png",
					"rotated": false,
					"trimmed": false,
					"sourceSize": {
						"w": 100,
						"h": 100
					},
					"spriteSourceSize": {
						"x": 0,
						"y": 0,
						"w": 100,
						"h": 100
					},
					"frame": {
						"x": 409,
						"y": 1,
						"w": 100,
						"h": 100
					}
				},
				{
					"filename": "face1.png",
					"rotated": false,
					"trimmed": false,
					"sourceSize": {
						"w": 100,
						"h": 100
					},
					"spriteSourceSize": {
						"x": 0,
						"y": 0,
						"w": 100,
						"h": 100
					},
					"frame": {
						"x": 409,
						"y": 103,
						"w": 100,
						"h": 100
					}
				},
				{
					"filename": "face2.png",
					"rotated": false,
					"trimmed": false,
					"sourceSize": {
						"w": 100,
						"h": 100
					},
					"spriteSourceSize": {
						"x": 0,
						"y": 0,
						"w": 100,
						"h": 100
					},
					"frame": {
						"x": 511,
						"y": 1,
						"w": 100,
						"h": 100
					}
				},
				{
					"filename": "face3.png",
					"rotated": false,
					"trimmed": false,
					"sourceSize": {
						"w": 100,
						"h": 100
					},
					"spriteSourceSize": {
						"x": 0,
						"y": 0,
						"w": 100,
						"h": 100
					},
					"frame": {
						"x": 511,
						"y": 103,
						"w": 100,
						"h": 100
					}
				},
				{
					"filename": "face4.png",
					"rotated": false,
					"trimmed": false,
					"sourceSize": {
						"w": 100,
						"h": 100
					},
					"spriteSourceSize": {
						"x": 0,
						"y": 0,
						"w": 100,
						"h": 100
					},
					"frame": {
						"x": 613,
						"y": 1,
						"w": 100,
						"h": 100
					}
				},
				{
					"filename": "face5.png",
					"rotated": false,
					"trimmed": false,
					"sourceSize": {
						"w": 100,
						"h": 100
					},
					"spriteSourceSize": {
						"x": 0,
						"y": 0,
						"w": 100,
						"h": 100
					},
					"frame": {
						"x": 613,
						"y": 103,
						"w": 100,
						"h": 100
					}
				},
				{
					"filename": "face6.png",
					"rotated": false,
					"trimmed": false,
					"sourceSize": {
						"w": 100,
						"h": 100
					},
					"spriteSourceSize": {
						"x": 0,
						"y": 0,
						"w": 100,
						"h": 100
					},
					"frame": {
						"x": 715,
						"y": 1,
						"w": 100,
						"h": 100
					}
				},
				{
					"filename": "face7.png",
					"rotated": false,
					"trimmed": false,
					"sourceSize": {
						"w": 100,
						"h": 100
					},
					"spriteSourceSize": {
						"x": 0,
						"y": 0,
						"w": 100,
						"h": 100
					},
					"frame": {
						"x": 715,
						"y": 103,
						"w": 100,
						"h": 100
					}
				},
				{
					"filename": "face8.png",
					"rotated": false,
					"trimmed": false,
					"sourceSize": {
						"w": 100,
						"h": 100
					},
					"spriteSourceSize": {
						"x": 0,
						"y": 0,
						"w": 100,
						"h": 100
					},
					"frame": {
						"x": 817,
						"y": 1,
						"w": 100,
						"h": 100
					}
				},
				{
					"filename": "face9.png",
					"rotated": false,
					"trimmed": false,
					"sourceSize": {
						"w": 100,
						"h": 100
					},
					"spriteSourceSize": {
						"x": 0,
						"y": 0,
						"w": 100,
						"h": 100
					},
					"frame": {
						"x": 817,
						"y": 103,
						"w": 100,
						"h": 100
					}
				},
				{
					"filename": "faces.png",
					"rotated": false,
					"trimmed": false,
					"sourceSize": {
						"w": 100,
						"h": 100
					},
					"spriteSourceSize": {
						"x": 0,
						"y": 0,
						"w": 100,
						"h": 100
					},
					"frame": {
						"x": 919,
						"y": 1,
						"w": 100,
						"h": 100
					}
				},
				{
					"filename": "heartbuttons.png",
					"rotated": false,
					"trimmed": false,
					"sourceSize": {
						"w": 100,
						"h": 100
					},
					"spriteSourceSize": {
						"x": 0,
						"y": 0,
						"w": 100,
						"h": 100
					},
					"frame": {
						"x": 919,
						"y": 103,
						"w": 100,
						"h": 100
					}
				},
				{
					"filename": "heartsprinkles.png",
					"rotated": false,
					"trimmed": false,
					"sourceSize": {
						"w": 100,
						"h": 100
					},
					"spriteSourceSize": {
						"x": 0,
						"y": 0,
						"w": 100,
						"h": 100
					},
					"frame": {
						"x": 1021,
						"y": 1,
						"w": 100,
						"h": 100
					}
				},
				{
					"filename": "icing.png",
					"rotated": false,
					"trimmed": false,
					"sourceSize": {
						"w": 100,
						"h": 100
					},
					"spriteSourceSize": {
						"x": 0,
						"y": 0,
						"w": 100,
						"h": 100
					},
					"frame": {
						"x": 1021,
						"y": 103,
						"w": 100,
						"h": 100
					}
				},
				{
					"filename": "icingblue.png",
					"rotated": false,
					"trimmed": false,
					"sourceSize": {
						"w": 100,
						"h": 100
					},
					"spriteSourceSize": {
						"x": 0,
						"y": 0,
						"w": 100,
						"h": 100
					},
					"frame": {
						"x": 1123,
						"y": 1,
						"w": 100,
						"h": 100
					}
				},
				{
					"filename": "icinggreen.png",
					"rotated": false,
					"trimmed": false,
					"sourceSize": {
						"w": 100,
						"h": 100
					},
					"spriteSourceSize": {
						"x": 0,
						"y": 0,
						"w": 100,
						"h": 100
					},
					"frame": {
						"x": 1123,
						"y": 103,
						"w": 100,
						"h": 100
					}
				},
				{
					"filename": "icingorange.png",
					"rotated": false,
					"trimmed": false,
					"sourceSize": {
						"w": 100,
						"h": 100
					},
					"spriteSourceSize": {
						"x": 0,
						"y": 0,
						"w": 100,
						"h": 100
					},
					"frame": {
						"x": 1225,
						"y": 1,
						"w": 100,
						"h": 100
					}
				},
				{
					"filename": "icingred.png",
					"rotated": false,
					"trimmed": false,
					"sourceSize": {
						"w": 100,
						"h": 100
					},
					"spriteSourceSize": {
						"x": 0,
						"y": 0,
						"w": 100,
						"h": 100
					},
					"frame": {
						"x": 1225,
						"y": 103,
						"w": 100,
						"h": 100
					}
				},
				{
					"filename": "iconchoc1.png",
					"rotated": false,
					"trimmed": false,
					"sourceSize": {
						"w": 100,
						"h": 100
					},
					"spriteSourceSize": {
						"x": 0,
						"y": 0,
						"w": 100,
						"h": 100
					},
					"frame": {
						"x": 1327,
						"y": 1,
						"w": 100,
						"h": 100
					}
				},
				{
					"filename": "iconchoc2.png",
					"rotated": false,
					"trimmed": false,
					"sourceSize": {
						"w": 100,
						"h": 100
					},
					"spriteSourceSize": {
						"x": 0,
						"y": 0,
						"w": 100,
						"h": 100
					},
					"frame": {
						"x": 1327,
						"y": 103,
						"w": 100,
						"h": 100
					}
				},
				{
					"filename": "jar.png",
					"rotated": false,
					"trimmed": false,
					"sourceSize": {
						"w": 100,
						"h": 100
					},
					"spriteSourceSize": {
						"x": 0,
						"y": 0,
						"w": 100,
						"h": 100
					},
					"frame": {
						"x": 1429,
						"y": 1,
						"w": 100,
						"h": 100
					}
				},
				{
					"filename": "redbuttons.png",
					"rotated": false,
					"trimmed": false,
					"sourceSize": {
						"w": 100,
						"h": 100
					},
					"spriteSourceSize": {
						"x": 0,
						"y": 0,
						"w": 100,
						"h": 100
					},
					"frame": {
						"x": 1429,
						"y": 103,
						"w": 100,
						"h": 100
					}
				}
			]
		}
	],
	"meta": {
		"app": "https://www.codeandweb.com/texturepacker",
		"version": "3.0",
		"smartupdate": "$TexturePacker:SmartUpdate:e62746534d0f4b865efa24bfc5f1c8a9:52414005b1e93926847b9b552e9f1ac3:b5c5bd7252d2048fecbb1bda1760f9ef$"
	}
}
