<svg xmlns="http://www.w3.org/2000/svg" xmlns:xlink="http://www.w3.org/1999/xlink" width="88" height="105" viewBox="0 0 88 105">
  <defs>
    <radialGradient id="radial-gradient" cx="0.5" cy="0.5" r="0.5" gradientUnits="objectBoundingBox">
      <stop offset="0" stop-color="#ffd980"/>
      <stop offset="1" stop-color="#be7800"/>
    </radialGradient>
    <filter id="Ellipse_1" x="0" y="0" width="88" height="88" filterUnits="userSpaceOnUse">
      <feOffset dx="5" dy="5" input="SourceAlpha"/>
      <feGaussianBlur stdDeviation="3" result="blur"/>
      <feFlood flood-opacity="0.4"/>
      <feComposite operator="in" in2="blur"/>
      <feComposite in="SourceGraphic"/>
    </filter>
  </defs>
  <g id="Listen_Selected" data-name="Listen Selected" transform="translate(-152 -5)">
    <g id="Listen" transform="translate(18501 20459)">
      <g transform="matrix(1, 0, 0, 1, -18349, -20454)" filter="url(#Ellipse_1)">
        <g id="Ellipse_1-2" data-name="Ellipse 1" transform="translate(4 4)" stroke="#fff" stroke-width="5" fill="url(#radial-gradient)">
          <circle cx="35" cy="35" r="35" stroke="none"/>
          <circle cx="35" cy="35" r="32.5" fill="none"/>
        </g>
      </g>
      <g id="Listen_Ear" data-name="Listen Ear" transform="translate(-15 -29.247)">
        <g id="Ear">
          <path id="Path_4878" data-name="Path 4878" d="M-18304.186-20397.887c.232-6.564,11.266-14.3,19.955-9.975s9.609,13.688,8,18.877-4.084,5.658-6.4,10.846-2.217,7.949-2.855,9.906a8.518,8.518,0,0,1-7.615,5.807c-4.977.508-8.123-4.955-8.221-6.453" fill="none" stroke="#fff" stroke-linecap="round" stroke-width="3"/>
          <path id="Path_4880" data-name="Path 4880" d="M-18297.648-20393.945a7.456,7.456,0,0,1,11.457,1.309c2.77,4.113,1.264,9.822-1.73,11.318s-3.439,1.875-3.826,2.441-.41,2.074-.609,3.23-.746,4.035-4.232,3.281-2.07-4.734-2.07-4.734" fill="none" stroke="#fff" stroke-linecap="round" stroke-width="3"/>
          <path id="Path_4879" data-name="Path 4879" d="M-18282.838-20396.045c-.242-3.744-6.867-8.955-12.486-4.174-5.48,4.938-.988,10.107,0,11.531,0,0,2.65-1.389,3.824.709s-1.9,3.488-1.9,3.488" fill="none" stroke="#fff" stroke-linecap="round" stroke-width="3"/>
        </g>
        <g id="Sound_waves" data-name="Sound waves">
          <path id="Path_4881" data-name="Path 4881" d="M-18306.809-20388.027a4.726,4.726,0,0,0-1.9,3.857,4.632,4.632,0,0,0,1.621,3.705" fill="none" stroke="#fff" stroke-linecap="round" stroke-width="2"/>
          <path id="Path_4882" data-name="Path 4882" d="M-18310.35-20391.623a8.655,8.655,0,0,0-3.279,7.357c.07,5.17,3.279,7.189,3.279,7.189" fill="none" stroke="#fff" stroke-linecap="round" stroke-width="2"/>
          <path id="Path_4883" data-name="Path 4883" d="M-18314.148-20394.906a14.012,14.012,0,0,0-4.508,10.969c.3,7.055,4.508,10.51,4.508,10.51" fill="none" stroke="#fff" stroke-linecap="round" stroke-width="2"/>
        </g>
      </g>
    </g>
    <text id="Listen-2" data-name="Listen" transform="translate(156 100)" fill="#fff" font-size="25" font-family="AndikaNewBasic-Regular, Andika New Basic"><tspan x="0" y="0">Listen</tspan></text>
  </g>
</svg>
