<svg xmlns="http://www.w3.org/2000/svg" xmlns:xlink="http://www.w3.org/1999/xlink" width="88" height="88" viewBox="0 0 88 88">
  <defs>
    <radialGradient id="radial-gradient" cx="0.5" cy="0.5" r="0.5" gradientUnits="objectBoundingBox">
      <stop offset="0" stop-color="#5c90ce"/>
      <stop offset="1" stop-color="#375982"/>
    </radialGradient>
    <filter id="Ellipse_1" x="0" y="0" width="88" height="88" filterUnits="userSpaceOnUse">
      <feOffset dx="5" dy="5" input="SourceAlpha"/>
      <feGaussianBlur stdDeviation="3" result="blur"/>
      <feFlood flood-opacity="0.4"/>
      <feComposite operator="in" in2="blur"/>
      <feComposite in="SourceGraphic"/>
    </filter>
    <linearGradient id="linear-gradient" x1="1.122" y1="0.175" x2="0" y2="0.565" gradientUnits="objectBoundingBox">
      <stop offset="0" stop-color="#fff" stop-opacity="0.702"/>
      <stop offset="1" stop-color="#fff"/>
    </linearGradient>
    <linearGradient id="linear-gradient-2" x1="-0.122" y1="0.175" x2="1" y2="0.565" xlink:href="#linear-gradient"/>
    <filter id="Path_9" x="46.516" y="19.191" width="7.628" height="13.936" filterUnits="userSpaceOnUse">
      <feOffset dx="1" dy="1" input="SourceAlpha"/>
      <feGaussianBlur stdDeviation="0.5" result="blur-2"/>
      <feFlood flood-opacity="0.502"/>
      <feComposite operator="in" in2="blur-2"/>
      <feComposite in="SourceGraphic"/>
    </filter>
  </defs>
  <g id="Read" transform="translate(18429 20554)">
    <g transform="matrix(1, 0, 0, 1, -18429, -20554)" filter="url(#Ellipse_1)">
      <g id="Ellipse_1-2" data-name="Ellipse 1" transform="translate(4 4)" stroke="#fff" stroke-width="5" fill="url(#radial-gradient)">
        <circle cx="35" cy="35" r="35" stroke="none"/>
        <circle cx="35" cy="35" r="32.5" fill="none"/>
      </g>
    </g>
    <g id="book" transform="translate(-18411.844 -20533.563)">
      <path id="Path_7" data-name="Path 7" d="M.25.393A2.163,2.163,0,0,1,1.283,0H2.76V19.828a5.147,5.147,0,0,0,1.122,2.661,4.229,4.229,0,0,0,2.2,1.047,29.284,29.284,0,0,1,6.309.741A15.294,15.294,0,0,1,18.248,27.6a32.774,32.774,0,0,0-8.9-.691c-4.266.383-7.842,1.073-7.842,1.073A1.9,1.9,0,0,1,.458,27.6a2.811,2.811,0,0,1-.664-1.074L-.154,1.291A1.514,1.514,0,0,1,.25.393Z" transform="translate(0.206 5.511)" fill="#fff"/>
      <path id="Path_8" data-name="Path 8" d="M17.792.393A2.163,2.163,0,0,0,16.76,0H15.283V19.828a5.147,5.147,0,0,1-1.122,2.661,4.229,4.229,0,0,1-2.2,1.047,29.284,29.284,0,0,0-6.309.741A15.294,15.294,0,0,0-.206,27.6a32.774,32.774,0,0,1,8.9-.691c4.266.383,7.842,1.073,7.842,1.073a1.9,1.9,0,0,0,1.047-.382,2.811,2.811,0,0,0,.664-1.074L18.2,1.291A1.514,1.514,0,0,0,17.792.393Z" transform="translate(25.439 5.511)" fill="#fff"/>
      <path id="Path_21" data-name="Path 21" d="M15.771-23.658s-.1-1.216-.64-1.571a2.472,2.472,0,0,0-1.208-.355,16.376,16.376,0,0,0-7.6,1.421A16.158,16.158,0,0,0,0-18.884L0,6.353A18.974,18.974,0,0,1,6.745,2.138,32.369,32.369,0,0,1,14.2.938a1.043,1.043,0,0,0,.843-.2,2.825,2.825,0,0,0,.587-1.047Z" transform="translate(22.922 25.709)" fill="url(#linear-gradient)"/>
      <path id="Path_22" data-name="Path 22" d="M0-23.658s.1-1.216.64-1.571a2.472,2.472,0,0,1,1.208-.355,16.376,16.376,0,0,1,7.6,1.421,16.158,16.158,0,0,1,6.32,5.28l0,25.236A18.974,18.974,0,0,0,9.026,2.138,32.369,32.369,0,0,0,1.568.938a1.043,1.043,0,0,1-.843-.2A2.825,2.825,0,0,1,.137-.314Z" transform="translate(5.048 25.709)" fill="url(#linear-gradient-2)"/>
      <g transform="matrix(1, 0, 0, 1, -17.16, -20.44)" filter="url(#Path_9)">
        <g id="Path_9-2" data-name="Path 9" transform="translate(46.62 19.69)" fill="#fff">
          <path d="M 0.893008828163147 9.535415649414062 L 0.893008828163147 1.654257774353027 C 1.275327086448669 1.469673752784729 2.018110036849976 1.13342010974884 2.780328750610352 0.9118834137916565 C 3.41468334197998 0.727506697177887 4.075273990631104 0.6183116436004639 4.521008968353271 0.5588988065719604 L 4.521008968353271 9.501142501831055 L 3.134608745574951 7.754123210906982 L 2.748998880386353 7.268203258514404 L 2.356048822402954 7.748213291168213 L 0.893008828163147 9.535415649414062 Z" stroke="none"/>
          <path d="M 4.021008968353271 1.141469955444336 C 3.680814266204834 1.201252937316895 3.2955162525177 1.282835006713867 2.919878721237183 1.392013549804688 C 2.348246574401855 1.558156967163086 1.78539514541626 1.793210029602051 1.393008708953857 1.97194766998291 L 1.393008708953857 8.135299682617188 L 2.755038738250732 6.47148323059082 L 4.021008968353271 8.066740989685059 L 4.021008968353271 1.141469955444336 M 5.021008968353271 3.814697265625e-06 L 5.021008968353271 10.93554306030273 L 2.742948770523071 8.064933776855469 L 0.3930087089538574 10.93554306030273 L 0.3930087089538574 1.345123291015625 C 0.3930087089538574 1.345123291015625 1.483768939971924 0.7680330276489258 2.640778779983521 0.4317531585693359 C 3.797778844833374 0.09547328948974609 5.021008968353271 3.814697265625e-06 5.021008968353271 3.814697265625e-06 Z" stroke="none" fill="#456e9f"/>
        </g>
      </g>
    </g>
  </g>
</svg>
