<svg xmlns="http://www.w3.org/2000/svg" xmlns:xlink="http://www.w3.org/1999/xlink" width="128" height="78" viewBox="0 0 128 78">
  <defs>
    <filter id="Rectangle_1" x="0" y="0" width="128" height="78" filterUnits="userSpaceOnUse">
      <feOffset dx="5" dy="5" input="SourceAlpha"/>
      <feGaussianBlur stdDeviation="3" result="blur"/>
      <feFlood flood-opacity="0.4"/>
      <feComposite operator="in" in2="blur"/>
      <feComposite in="SourceGraphic"/>
    </filter>
  </defs>
  <g id="Menu_Arrow" data-name="Menu Arrow" transform="translate(-39 4)">
    <g transform="matrix(1, 0, 0, 1, 39, -4)" filter="url(#Rectangle_1)">
      <path id="Rectangle_1-2" data-name="Rectangle 1" d="M0,0H110a0,0,0,0,1,0,0V40A20,20,0,0,1,90,60H20A20,20,0,0,1,0,40V0A0,0,0,0,1,0,0Z" transform="translate(4 4)" fill="#dbaa37"/>
    </g>
    <g id="Group_1" data-name="Group 1" transform="translate(76.926 18)">
      <line id="Line_1" data-name="Line 1" x1="20.561" y2="24" transform="translate(0 0)" fill="none" stroke="#fff" stroke-linecap="round" stroke-width="10"/>
      <line id="Line_2" data-name="Line 2" x2="21.589" y2="24" transform="translate(20.561 0)" fill="none" stroke="#fff" stroke-linecap="round" stroke-width="10"/>
    </g>
  </g>
</svg>
