{"data":[{"word":"lemon","letters":["l","m","o","n"]},
{"word":"apple","letters":["b","a","p","e"]},
{"word":"orange","letters":["l","m","o","e"]},
{"word":"strawberry","letters":["c","m","s","y"]},
{"word":"kiwi","letters":["i","k","w"]},
{"word":"pineapple","letters":["p","k","e"]},
{"word":"cherries","letters":["t","s","c"]}]}