{
	"textures": [
		{
			"image": "robot.png",
			"format": "RGBA8888",
			"size": {
				"w": 1008,
				"h": 1441
			},
			"scale": 1,
			"frames": [
				{
					"filename": "Run (7).png",
					"rotated": false,
					"trimmed": true,
					"sourceSize": {
						"w": 284,
						"h": 278
					},
					"spriteSourceSize": {
						"x": 38,
						"y": 27,
						"w": 185,
						"h": 237
					},
					"frame": {
						"x": 1,
						"y": 1,
						"w": 185,
						"h": 237
					}
				},
				{
					"filename": "Run (6).png",
					"rotated": false,
					"trimmed": true,
					"sourceSize": {
						"w": 284,
						"h": 278
					},
					"spriteSourceSize": {
						"x": 54,
						"y": 26,
						"w": 170,
						"h": 250
					},
					"frame": {
						"x": 1,
						"y": 240,
						"w": 170,
						"h": 250
					}
				},
				{
					"filename": "JumpShoot (1).png",
					"rotated": false,
					"trimmed": true,
					"sourceSize": {
						"w": 284,
						"h": 278
					},
					"spriteSourceSize": {
						"x": 50,
						"y": 28,
						"w": 185,
						"h": 225
					},
					"frame": {
						"x": 188,
						"y": 1,
						"w": 185,
						"h": 225
					}
				},
				{
					"filename": "JumpShoot (3).png",
					"rotated": false,
					"trimmed": true,
					"sourceSize": {
						"w": 284,
						"h": 278
					},
					"spriteSourceSize": {
						"x": 38,
						"y": 28,
						"w": 186,
						"h": 223
					},
					"frame": {
						"x": 375,
						"y": 1,
						"w": 186,
						"h": 223
					}
				},
				{
					"filename": "JumpShoot (5).png",
					"rotated": false,
					"trimmed": true,
					"sourceSize": {
						"w": 284,
						"h": 278
					},
					"spriteSourceSize": {
						"x": 46,
						"y": 28,
						"w": 185,
						"h": 224
					},
					"frame": {
						"x": 563,
						"y": 1,
						"w": 185,
						"h": 224
					}
				},
				{
					"filename": "Dead (10).png",
					"rotated": false,
					"trimmed": true,
					"sourceSize": {
						"w": 281,
						"h": 260
					},
					"spriteSourceSize": {
						"x": 11,
						"y": 134,
						"w": 257,
						"h": 116
					},
					"frame": {
						"x": 750,
						"y": 1,
						"w": 257,
						"h": 116
					}
				},
				{
					"filename": "Dead (9).png",
					"rotated": false,
					"trimmed": true,
					"sourceSize": {
						"w": 281,
						"h": 260
					},
					"spriteSourceSize": {
						"x": 11,
						"y": 134,
						"w": 257,
						"h": 116
					},
					"frame": {
						"x": 750,
						"y": 1,
						"w": 257,
						"h": 116
					}
				},
				{
					"filename": "Dead (8).png",
					"rotated": false,
					"trimmed": true,
					"sourceSize": {
						"w": 281,
						"h": 260
					},
					"spriteSourceSize": {
						"x": 11,
						"y": 134,
						"w": 257,
						"h": 116
					},
					"frame": {
						"x": 750,
						"y": 119,
						"w": 257,
						"h": 116
					}
				},
				{
					"filename": "Shoot (4).png",
					"rotated": false,
					"trimmed": true,
					"sourceSize": {
						"w": 284,
						"h": 278
					},
					"spriteSourceSize": {
						"x": 62,
						"y": 26,
						"w": 169,
						"h": 236
					},
					"frame": {
						"x": 1,
						"y": 492,
						"w": 169,
						"h": 236
					}
				},
				{
					"filename": "Shoot (1).png",
					"rotated": false,
					"trimmed": true,
					"sourceSize": {
						"w": 284,
						"h": 278
					},
					"spriteSourceSize": {
						"x": 54,
						"y": 26,
						"w": 168,
						"h": 235
					},
					"frame": {
						"x": 1,
						"y": 730,
						"w": 168,
						"h": 235
					}
				},
				{
					"filename": "Shoot (3).png",
					"rotated": false,
					"trimmed": true,
					"sourceSize": {
						"w": 284,
						"h": 278
					},
					"spriteSourceSize": {
						"x": 58,
						"y": 26,
						"w": 166,
						"h": 236
					},
					"frame": {
						"x": 1,
						"y": 967,
						"w": 166,
						"h": 236
					}
				},
				{
					"filename": "Shoot (2).png",
					"rotated": false,
					"trimmed": true,
					"sourceSize": {
						"w": 284,
						"h": 278
					},
					"spriteSourceSize": {
						"x": 49,
						"y": 26,
						"w": 166,
						"h": 235
					},
					"frame": {
						"x": 1,
						"y": 1205,
						"w": 166,
						"h": 235
					}
				},
				{
					"filename": "Run (2).png",
					"rotated": false,
					"trimmed": true,
					"sourceSize": {
						"w": 284,
						"h": 278
					},
					"spriteSourceSize": {
						"x": 60,
						"y": 26,
						"w": 129,
						"h": 248
					},
					"frame": {
						"x": 173,
						"y": 240,
						"w": 129,
						"h": 248
					}
				},
				{
					"filename": "Run (1).png",
					"rotated": false,
					"trimmed": true,
					"sourceSize": {
						"w": 284,
						"h": 278
					},
					"spriteSourceSize": {
						"x": 73,
						"y": 26,
						"w": 131,
						"h": 244
					},
					"frame": {
						"x": 304,
						"y": 228,
						"w": 131,
						"h": 244
					}
				},
				{
					"filename": "JumpShoot (4).png",
					"rotated": false,
					"trimmed": true,
					"sourceSize": {
						"w": 284,
						"h": 278
					},
					"spriteSourceSize": {
						"x": 42,
						"y": 28,
						"w": 182,
						"h": 224
					},
					"frame": {
						"x": 437,
						"y": 227,
						"w": 182,
						"h": 224
					}
				},
				{
					"filename": "JumpShoot (2).png",
					"rotated": false,
					"trimmed": true,
					"sourceSize": {
						"w": 284,
						"h": 278
					},
					"spriteSourceSize": {
						"x": 43,
						"y": 28,
						"w": 181,
						"h": 222
					},
					"frame": {
						"x": 621,
						"y": 237,
						"w": 181,
						"h": 222
					}
				},
				{
					"filename": "Dead (2).png",
					"rotated": false,
					"trimmed": true,
					"sourceSize": {
						"w": 281,
						"h": 260
					},
					"spriteSourceSize": {
						"x": 11,
						"y": 26,
						"w": 167,
						"h": 234
					},
					"frame": {
						"x": 804,
						"y": 237,
						"w": 167,
						"h": 234
					}
				},
				{
					"filename": "Run (8).png",
					"rotated": false,
					"trimmed": true,
					"sourceSize": {
						"w": 284,
						"h": 278
					},
					"spriteSourceSize": {
						"x": 64,
						"y": 26,
						"w": 159,
						"h": 241
					},
					"frame": {
						"x": 169,
						"y": 967,
						"w": 159,
						"h": 241
					}
				},
				{
					"filename": "Idle (2).png",
					"rotated": false,
					"trimmed": true,
					"sourceSize": {
						"w": 284,
						"h": 278
					},
					"spriteSourceSize": {
						"x": 63,
						"y": 27,
						"w": 139,
						"h": 235
					},
					"frame": {
						"x": 171,
						"y": 730,
						"w": 139,
						"h": 235
					}
				},
				{
					"filename": "Idle (1).png",
					"rotated": false,
					"trimmed": true,
					"sourceSize": {
						"w": 284,
						"h": 278
					},
					"spriteSourceSize": {
						"x": 63,
						"y": 26,
						"w": 139,
						"h": 236
					},
					"frame": {
						"x": 172,
						"y": 492,
						"w": 139,
						"h": 236
					}
				},
				{
					"filename": "Dead (3).png",
					"rotated": false,
					"trimmed": true,
					"sourceSize": {
						"w": 281,
						"h": 260
					},
					"spriteSourceSize": {
						"x": 14,
						"y": 43,
						"w": 186,
						"h": 201
					},
					"frame": {
						"x": 169,
						"y": 1210,
						"w": 186,
						"h": 201
					}
				},
				{
					"filename": "Run (5).png",
					"rotated": false,
					"trimmed": true,
					"sourceSize": {
						"w": 284,
						"h": 278
					},
					"spriteSourceSize": {
						"x": 66,
						"y": 26,
						"w": 150,
						"h": 240
					},
					"frame": {
						"x": 313,
						"y": 474,
						"w": 150,
						"h": 240
					}
				},
				{
					"filename": "Dead (1).png",
					"rotated": false,
					"trimmed": true,
					"sourceSize": {
						"w": 281,
						"h": 260
					},
					"spriteSourceSize": {
						"x": 12,
						"y": 14,
						"w": 143,
						"h": 233
					},
					"frame": {
						"x": 465,
						"y": 453,
						"w": 143,
						"h": 233
					}
				},
				{
					"filename": "Run (3).png",
					"rotated": false,
					"trimmed": true,
					"sourceSize": {
						"w": 284,
						"h": 278
					},
					"spriteSourceSize": {
						"x": 55,
						"y": 27,
						"w": 166,
						"h": 234
					},
					"frame": {
						"x": 610,
						"y": 461,
						"w": 166,
						"h": 234
					}
				},
				{
					"filename": "Run (4).png",
					"rotated": false,
					"trimmed": true,
					"sourceSize": {
						"w": 284,
						"h": 278
					},
					"spriteSourceSize": {
						"x": 48,
						"y": 26,
						"w": 156,
						"h": 239
					},
					"frame": {
						"x": 778,
						"y": 473,
						"w": 156,
						"h": 239
					}
				},
				{
					"filename": "Idle (3).png",
					"rotated": false,
					"trimmed": true,
					"sourceSize": {
						"w": 284,
						"h": 278
					},
					"spriteSourceSize": {
						"x": 63,
						"y": 27,
						"w": 139,
						"h": 235
					},
					"frame": {
						"x": 312,
						"y": 730,
						"w": 139,
						"h": 235
					}
				},
				{
					"filename": "Idle (10).png",
					"rotated": false,
					"trimmed": true,
					"sourceSize": {
						"w": 284,
						"h": 278
					},
					"spriteSourceSize": {
						"x": 63,
						"y": 26,
						"w": 139,
						"h": 236
					},
					"frame": {
						"x": 330,
						"y": 967,
						"w": 139,
						"h": 236
					}
				},
				{
					"filename": "Idle (4).png",
					"rotated": false,
					"trimmed": true,
					"sourceSize": {
						"w": 284,
						"h": 278
					},
					"spriteSourceSize": {
						"x": 63,
						"y": 28,
						"w": 139,
						"h": 234
					},
					"frame": {
						"x": 357,
						"y": 1205,
						"w": 139,
						"h": 234
					}
				},
				{
					"filename": "Idle (8).png",
					"rotated": false,
					"trimmed": true,
					"sourceSize": {
						"w": 284,
						"h": 278
					},
					"spriteSourceSize": {
						"x": 63,
						"y": 27,
						"w": 139,
						"h": 235
					},
					"frame": {
						"x": 453,
						"y": 716,
						"w": 139,
						"h": 235
					}
				},
				{
					"filename": "Idle (9).png",
					"rotated": false,
					"trimmed": true,
					"sourceSize": {
						"w": 284,
						"h": 278
					},
					"spriteSourceSize": {
						"x": 63,
						"y": 27,
						"w": 139,
						"h": 235
					},
					"frame": {
						"x": 471,
						"y": 953,
						"w": 139,
						"h": 235
					}
				},
				{
					"filename": "Idle (5).png",
					"rotated": false,
					"trimmed": true,
					"sourceSize": {
						"w": 284,
						"h": 278
					},
					"spriteSourceSize": {
						"x": 63,
						"y": 28,
						"w": 139,
						"h": 234
					},
					"frame": {
						"x": 594,
						"y": 697,
						"w": 139,
						"h": 234
					}
				},
				{
					"filename": "Dead (4).png",
					"rotated": false,
					"trimmed": true,
					"sourceSize": {
						"w": 281,
						"h": 260
					},
					"spriteSourceSize": {
						"x": 9,
						"y": 66,
						"w": 212,
						"h": 180
					},
					"frame": {
						"x": 735,
						"y": 714,
						"w": 212,
						"h": 180
					}
				},
				{
					"filename": "Idle (6).png",
					"rotated": false,
					"trimmed": true,
					"sourceSize": {
						"w": 284,
						"h": 278
					},
					"spriteSourceSize": {
						"x": 63,
						"y": 28,
						"w": 139,
						"h": 234
					},
					"frame": {
						"x": 612,
						"y": 933,
						"w": 139,
						"h": 234
					}
				},
				{
					"filename": "Idle (7).png",
					"rotated": false,
					"trimmed": true,
					"sourceSize": {
						"w": 284,
						"h": 278
					},
					"spriteSourceSize": {
						"x": 63,
						"y": 28,
						"w": 139,
						"h": 234
					},
					"frame": {
						"x": 753,
						"y": 896,
						"w": 139,
						"h": 234
					}
				},
				{
					"filename": "Dead (5).png",
					"rotated": false,
					"trimmed": true,
					"sourceSize": {
						"w": 281,
						"h": 260
					},
					"spriteSourceSize": {
						"x": 2,
						"y": 86,
						"w": 236,
						"h": 158
					},
					"frame": {
						"x": 498,
						"y": 1190,
						"w": 236,
						"h": 158
					}
				},
				{
					"filename": "Dead (6).png",
					"rotated": false,
					"trimmed": true,
					"sourceSize": {
						"w": 281,
						"h": 260
					},
					"spriteSourceSize": {
						"x": 0,
						"y": 107,
						"w": 252,
						"h": 142
					},
					"frame": {
						"x": 753,
						"y": 1132,
						"w": 252,
						"h": 142
					}
				},
				{
					"filename": "Dead (7).png",
					"rotated": false,
					"trimmed": true,
					"sourceSize": {
						"w": 281,
						"h": 260
					},
					"spriteSourceSize": {
						"x": 9,
						"y": 127,
						"w": 255,
						"h": 123
					},
					"frame": {
						"x": 736,
						"y": 1276,
						"w": 255,
						"h": 123
					}
				}
			]
		}
	],
	"meta": {
		"app": "https://www.codeandweb.com/texturepacker",
		"version": "3.0",
		"smartupdate": "$TexturePacker:SmartUpdate:332d14e6b50ae40776182e6ed8924a25:aa0367fa233b12efb55cd832e56d22fb:a304e87a8f03f133e4f637a0c46d3aed$"
	}
}
