<svg xmlns="http://www.w3.org/2000/svg" xmlns:xlink="http://www.w3.org/1999/xlink" width="106" height="501" viewBox="0 0 106 501">
  <defs>
    <filter id="Union_3" x="0" y="0" width="106" height="501" filterUnits="userSpaceOnUse">
      <feOffset dx="2" dy="5" input="SourceAlpha"/>
      <feGaussianBlur stdDeviation="1" result="blur"/>
      <feFlood flood-opacity="0.4"/>
      <feComposite operator="in" in2="blur"/>
      <feComposite in="SourceGraphic"/>
    </filter>
    <filter id="Rectangle_91" x="21" y="17" width="64" height="332" filterUnits="userSpaceOnUse">
      <feOffset dx="2" dy="3" input="SourceAlpha"/>
      <feGaussianBlur stdDeviation="1" result="blur-2"/>
      <feFlood flood-opacity="0.4"/>
      <feComposite operator="in" in2="blur-2"/>
      <feComposite in="SourceGraphic"/>
    </filter>
    <filter id="slide">
      <feOffset dx="5" dy="5" input="SourceAlpha"/>
      <feGaussianBlur stdDeviation="5" result="blur-3"/>
      <feFlood flood-opacity="0.702" result="color"/>
      <feComposite operator="out" in="SourceGraphic" in2="blur-3"/>
      <feComposite operator="in" in="color"/>
      <feComposite operator="in" in2="SourceGraphic"/>
    </filter>
    <filter id="blue_line">
      <feOffset dx="5" dy="5" input="SourceAlpha"/>
      <feGaussianBlur stdDeviation="5" result="blur-4"/>
      <feFlood flood-opacity="0.702" result="color-2"/>
      <feComposite operator="out" in="SourceGraphic" in2="blur-4"/>
      <feComposite operator="in" in="color-2"/>
      <feComposite operator="in" in2="SourceGraphic"/>
    </filter>
    <radialGradient id="radial-gradient" cx="0.5" cy="0.5" r="0.5" gradientUnits="objectBoundingBox">
      <stop offset="0" stop-color="#5c90ce"/>
      <stop offset="1" stop-color="#375982"/>
    </radialGradient>
    <filter id="handle" x="22" y="179" width="68" height="68" filterUnits="userSpaceOnUse">
      <feOffset dx="5" dy="5" input="SourceAlpha"/>
      <feGaussianBlur stdDeviation="3" result="blur-5"/>
      <feFlood flood-opacity="0.4"/>
      <feComposite operator="in" in2="blur-5"/>
      <feComposite in="SourceGraphic"/>
    </filter>
    <filter id="Ellipse_4" x="17" y="352" width="78" height="78" filterUnits="userSpaceOnUse">
      <feOffset dx="5" dy="5" input="SourceAlpha"/>
      <feGaussianBlur stdDeviation="3" result="blur-6"/>
      <feFlood flood-opacity="0.4"/>
      <feComposite operator="in" in2="blur-6"/>
      <feComposite in="SourceGraphic"/>
    </filter>
  </defs>
  <g id="Music_Menu" data-name="Music Menu" transform="translate(-387 -484)">
    <g transform="matrix(1, 0, 0, 1, 387, 484)" filter="url(#Union_3)">
      <path id="Union_3-2" data-name="Union 3" d="M39.646,442.033c-8.861-7.66-21.521-16.533-21.521-16.533h.009A39.966,39.966,0,0,1,0,392V8A40,40,0,0,1,40-32H60A40,40,0,0,1,100,8V392a39.966,39.966,0,0,1-18.134,33.5h.009s-11.6,9.076-20.515,16.533S53.663,461,50,461,48.506,449.694,39.646,442.033Z" transform="translate(1 32)" fill="#fff"/>
    </g>
    <g id="Slider" transform="translate(-3377 -3851)">
      <g transform="matrix(1, 0, 0, 1, 3764, 4335)" filter="url(#Rectangle_91)">
        <rect id="Rectangle_91-2" data-name="Rectangle 91" width="58" height="326" rx="29" transform="translate(22 17)" fill="#3a5e88"/>
      </g>
      <g data-type="innerShadowGroup">
        <rect id="slide-2" data-name="slide" width="260" height="30" rx="15" transform="translate(3830 4388) rotate(90)" fill="#fff"/>
        <g transform="matrix(1, 0, 0, 1, 3764, 4335)" filter="url(#slide)">
          <rect id="slide-3" data-name="slide" width="260" height="30" rx="15" transform="translate(66 53) rotate(90)" fill="#fff"/>
        </g>
      </g>
      <g data-type="innerShadowGroup">
        <rect id="blue_line-2" data-name="blue line" width="122" height="30" rx="15" transform="translate(3830 4526) rotate(90)" fill="#7dade8"/>
        <g transform="matrix(1, 0, 0, 1, 3764, 4335)" filter="url(#blue_line)">
          <rect id="blue_line-3" data-name="blue line" width="122" height="30" rx="15" transform="translate(66 191) rotate(90)" fill="#fff"/>
        </g>
      </g>
      <g transform="matrix(1, 0, 0, 1, 3764, 4335)" filter="url(#handle)">
        <g id="handle-2" data-name="handle" transform="translate(26 183)" stroke="#fff" stroke-width="5" fill="url(#radial-gradient)">
          <circle cx="25" cy="25" r="25" stroke="none"/>
          <circle cx="25" cy="25" r="22.5" fill="none"/>
        </g>
      </g>
      <text id="_" data-name="+" transform="translate(3815 4382)" fill="#fff" font-size="35" font-family="AndikaNewBasic-Regular, Andika New Basic"><tspan x="-10.254" y="0">+</tspan></text>
      <text id="_-" data-name="-" transform="translate(3815 4674)" fill="#fff" font-size="35" font-family="AndikaNewBasic-Regular, Andika New Basic"><tspan x="-7.349" y="0">-</tspan></text>
    </g>
    <g id="Mute_button" data-name="Mute button" transform="translate(0 -30)">
      <text id="mute" transform="translate(438 952)" fill="#888" font-size="25" font-family="AndikaNewBasic-Regular, Andika New Basic"><tspan x="-29.297" y="0">mute</tspan></text>
      <circle id="Ellipse_1" data-name="Ellipse 1" cx="30" cy="30" r="30" transform="translate(407.5 871)" fill="#193a62"/>
      <circle id="Ellipse_5" data-name="Ellipse 5" cx="30" cy="30" r="30" transform="translate(408.5 869.5)" fill="#598cc8"/>
      <g transform="matrix(1, 0, 0, 1, 387, 514)" filter="url(#Ellipse_4)">
        <circle id="Ellipse_4-2" data-name="Ellipse 4" cx="30" cy="30" r="30" transform="translate(21 356)" fill="url(#radial-gradient)"/>
      </g>
      <g id="Audio_Symbol" data-name="Audio Symbol" transform="translate(-4109.56 -3215)">
        <g id="Group_189" data-name="Group 189" transform="translate(2427 -3703)">
          <g id="Union_2" data-name="Union 2" transform="translate(2095.2 7797.244)" fill="#fff">
            <path d="M 26.98978042602539 37.74322509765625 L 26.98976898193359 37.74322509765625 C 26.68771934509277 37.74326705932617 26.40161895751953 37.65020751953125 26.13940048217773 37.46665573120117 L 12.28847980499268 27.77095603942871 L 11.90112018585205 27.49980545043945 L 11.42827987670898 27.49980545043945 L 4.799699783325195 27.49980545043945 C 3.972759962081909 27.49980545043945 3.299999952316284 26.82704544067383 3.299999952316284 26.00010681152344 L 3.299999952316284 17.00010681152344 C 3.299999952316284 16.17316627502441 3.972759962081909 15.50039577484131 4.799699783325195 15.50039577484131 L 9.999480247497559 15.50039577484131 L 10.47233963012695 15.50039577484131 L 10.85970973968506 15.22921657562256 L 26.13942909240723 4.532716274261475 C 26.4012393951416 4.349565982818604 26.68747901916504 4.256556034088135 26.98976898193359 4.256556034088135 C 27.71594047546387 4.256556034088135 28.49970054626465 4.832056045532227 28.49970054626465 5.761806011199951 L 28.49970054626465 36.23760604858398 C 28.49970054626465 37.16747665405273 27.71594047546387 37.74314498901367 26.98978042602539 37.74322509765625 Z" stroke="none"/>
            <path d="M 26.99970054626465 36.23787689208984 C 26.99970054626465 36.23778915405273 26.99970054626465 36.23769760131836 26.99970054626465 36.23760604858398 L 26.99970054626465 5.761806011199951 C 26.99970054626465 5.761706352233887 26.99970054626465 5.76160717010498 26.99970054626465 5.761508464813232 C 26.99968719482422 5.761517524719238 26.99967384338379 5.761527061462402 26.99966049194336 5.761536121368408 L 10.94519996643066 17.00039672851562 L 4.799999713897705 17.00055503845215 L 4.800159931182861 25.99980545043945 L 12.37395000457764 25.99980545043945 L 26.99960899353027 36.23781585693359 C 26.9996395111084 36.23783874511719 26.99967002868652 36.23785781860352 26.99970054626465 36.23787689208984 M 26.98995018005371 39.24322509765625 C 26.41114044189453 39.2432975769043 25.81809043884277 39.07272720336914 25.27919960021973 38.69549560546875 L 11.42827987670898 28.99980545043945 L 4.799699783325195 28.99980545043945 C 3.142799854278564 28.99980545043945 1.799999833106995 27.65700531005859 1.799999833106995 26.00010681152344 L 1.799999833106995 17.00010681152344 C 1.799999833106995 15.34319591522217 3.142799854278564 14.00039577484131 4.799699783325195 14.00039577484131 L 9.999480247497559 14.00039577484131 L 25.27919960021973 3.303896188735962 C 27.26819801330566 1.912495374679565 29.99970245361328 3.334496736526489 29.99970054626465 5.761806011199951 L 29.99970054626465 36.23760604858398 C 29.99970054626465 38.00725555419922 28.54747009277344 39.24304580688477 26.98995018005371 39.24322509765625 Z" stroke="none" fill="#fff"/>
          </g>
          <path id="Path_4874" data-name="Path 4874" d="M0,0A4.482,4.482,0,0,1,3.989,4.5,4.469,4.469,0,0,1,0,9" transform="translate(2130.5 7813.5)" fill="none" stroke="#fff" stroke-linecap="round" stroke-width="2"/>
          <path id="Path_4875" data-name="Path 4875" d="M0,0A12.192,12.192,0,0,1,6.331,10.593,11.579,11.579,0,0,1,0,21" transform="translate(2133.5 7807.5)" fill="none" stroke="#fff" stroke-linecap="round" stroke-width="2"/>
          <path id="Path_4876" data-name="Path 4876" d="M0,0S7.664,6.553,7.62,16.682,0,33,0,33" transform="translate(2137.5 7801.5)" fill="none" stroke="#fff" stroke-linecap="round" stroke-width="2"/>
        </g>
      </g>
    </g>
  </g>
</svg>
