<svg xmlns="http://www.w3.org/2000/svg" xmlns:xlink="http://www.w3.org/1999/xlink" width="128" height="78" viewBox="0 0 128 78">
  <defs>
    <filter id="Rectangle_1" x="0" y="0" width="128" height="78" filterUnits="userSpaceOnUse">
      <feOffset dx="5" dy="5" input="SourceAlpha"/>
      <feGaussianBlur stdDeviation="3" result="blur"/>
      <feFlood flood-opacity="0.4"/>
      <feComposite operator="in" in2="blur"/>
      <feComposite in="SourceGraphic"/>
    </filter>
  </defs>
  <g transform="matrix(1, 0, 0, 1, 0, 0)" filter="url(#Rectangle_1)">
    <path id="Rectangle_1-2" data-name="Rectangle 1" d="M0,0H110a0,0,0,0,1,0,0V40A20,20,0,0,1,90,60H20A20,20,0,0,1,0,40V0A0,0,0,0,1,0,0Z" transform="translate(4 4)" fill="rgba(0,0,0,0.1)"/>
  </g>
  <g id="Group_1" data-name="Group 1" transform="translate(33.876 15.939)">
    <g id="Line_1" data-name="Line 1" transform="translate(0 0.011)" fill="none" stroke-linecap="round">
      <path d="M27.611,7.05,7.05,31.05" stroke="none"/>
      <path d="M 27.61359214782715 2.050014495849609 C 27.26119995117188 2.050014495849609 26.90935134887695 2.087057113647461 26.56434631347656 2.160659790039062 C 26.2193431854248 2.234260559082031 25.88118362426758 2.344419479370117 25.55616760253906 2.490653991699219 C 25.23115158081055 2.63688850402832 24.91927909851074 2.819198608398438 24.62685012817383 3.037097930908203 C 24.33441925048828 3.254997253417969 24.06143188476562 3.508489608764648 23.81418609619141 3.797086715698242 L 3.253015518188477 27.79708671569824 C 2.803868293762207 28.32135391235352 2.482231140136719 28.91183090209961 2.2851881980896 29.53071975708008 C 2.08814525604248 30.14960861206055 2.015696048736572 30.79690742492676 2.064924240112305 31.43481826782227 C 2.114152431488037 32.07272720336914 2.28505802154541 32.70124816894531 2.574723720550537 33.28257751464844 C 2.864389419555664 33.86390686035156 3.272815704345703 34.39804458618164 3.797085523605347 34.84719467163086 C 4.032756328582764 35.04909896850586 4.281818389892578 35.22523880004883 4.540832042694092 35.37587738037109 C 4.799845695495605 35.52651214599609 5.068810939788818 35.65164947509766 5.344288349151611 35.75154876708984 C 5.619765758514404 35.85144805908203 5.901755332946777 35.92611312866211 6.186816692352295 35.97579956054688 C 6.471878528594971 36.02548599243164 6.760013103485107 36.05019760131836 7.04778003692627 36.05019760131836 C 7.400172233581543 36.05019760131836 7.752020359039307 36.01315307617188 8.097023963928223 35.93955230712891 C 8.442028045654297 35.86595153808594 8.780187606811523 35.75579071044922 9.105203628540039 35.60955810546875 C 9.430220603942871 35.46332168579102 9.742093086242676 35.28101348876953 10.03452301025391 35.06311416625977 C 10.32695388793945 34.84521484375 10.59994125366211 34.59172439575195 10.8471851348877 34.30312728881836 L 31.40835571289062 10.30312538146973 C 31.85750389099121 9.778858184814453 32.17914199829102 9.188381195068359 32.37618255615234 8.569492340087891 C 32.57322692871094 7.950603485107422 32.64567565917969 7.303302764892578 32.5964469909668 6.665393829345703 C 32.54721832275391 6.027484893798828 32.37631225585938 5.398965835571289 32.08664703369141 4.817634582519531 C 31.79698371887207 4.236305236816406 31.38855743408203 3.702165603637695 30.86428642272949 3.253015518188477 C 30.62861633300781 3.051113128662109 30.37955474853516 2.874975204467773 30.12054061889648 2.724338531494141 C 29.86152648925781 2.573699951171875 29.59255981445312 2.448562622070312 29.31708335876465 2.348663330078125 C 29.04160690307617 2.248764038085938 28.75961685180664 2.174100875854492 28.47455596923828 2.124412536621094 C 28.18949317932129 2.074726104736328 27.90135955810547 2.050014495849609 27.61359214782715 2.050014495849609 Z" stroke="none" fill="#888"/>
    </g>
    <g id="Line_2" data-name="Line 2" transform="translate(20.55)" fill="none" stroke-linecap="round">
      <path d="M7.061,7.061l21.589,24" stroke="none"/>
      <path d="M 7.059572219848633 2.0611572265625 C 6.761733531951904 2.0611572265625 6.463638305664062 2.087610244750977 6.169100761413574 2.140720367431641 C 5.874563217163086 2.193830490112305 5.583583354949951 2.273595809936523 5.299975395202637 2.380222320556641 C 5.016367435455322 2.486848831176758 4.740131378173828 2.620332717895508 4.475081443786621 2.780878067016602 C 4.210031509399414 2.941423416137695 3.956167936325073 3.129030227661133 3.717304944992065 3.343900680541992 C 3.204052448272705 3.805597305297852 2.808664321899414 4.349458694458008 2.533142566680908 4.937623977661133 C 2.257620811462402 5.525787353515625 2.10196590423584 6.158254623413086 2.068180084228516 6.79716682434082 C 2.034393787384033 7.436079025268555 2.122476577758789 8.081436157226562 2.334429740905762 8.695379257202148 C 2.546383380889893 9.309320449829102 2.882207870483398 9.891847610473633 3.343904972076416 10.40510177612305 L 24.93312454223633 34.40510177612305 C 25.17995071411133 34.67948913574219 25.45026397705078 34.92019271850586 25.73827743530273 35.12690353393555 C 26.02629089355469 35.33361434936523 26.33200454711914 35.5063362121582 26.64963150024414 35.64475631713867 C 26.96725845336914 35.78317642211914 27.29679870605469 35.88729858398438 27.63246536254883 35.95681762695312 C 27.96813201904297 36.02633285522461 28.3099250793457 36.06124496459961 28.65205764770508 36.06124496459961 C 28.94989585876465 36.06124496459961 29.24798965454102 36.0347900390625 29.54252815246582 35.98168182373047 C 29.83706665039062 35.92857360839844 30.12804794311523 35.84880447387695 30.41165542602539 35.74217987060547 C 30.69526290893555 35.63555526733398 30.97149848937988 35.50207138061523 31.23654937744141 35.34152221679688 C 31.5015983581543 35.18097686767578 31.75546264648438 34.99337005615234 31.99432563781738 34.77849960327148 C 32.50757598876953 34.31680297851562 32.9029655456543 33.77294158935547 33.17848968505859 33.18478012084961 C 33.45401000976562 32.59661483764648 33.60966491699219 31.96414566040039 33.64344787597656 31.32523345947266 C 33.6772346496582 30.68632125854492 33.58915328979492 30.04096412658691 33.37720108032227 29.42702293395996 C 33.16524505615234 28.81307983398438 32.82942199707031 28.23055267333984 32.36772537231445 27.71730041503906 L 10.77850532531738 3.717300415039062 C 10.53167819976807 3.442911148071289 10.26136493682861 3.202207565307617 9.97335147857666 2.99549674987793 C 9.685338973999023 2.788785934448242 9.37962532043457 2.616067886352539 9.06199836730957 2.477645874023438 C 8.74437141418457 2.339223861694336 8.41483211517334 2.235101699829102 8.079165458679199 2.165584564208984 C 7.743498802185059 2.096067428588867 7.401705265045166 2.0611572265625 7.059572219848633 2.0611572265625 Z" stroke="none" fill="#888"/>
    </g>
  </g>
  <g id="Group_230" data-name="Group 230" transform="translate(30.876 14.939)">
    <g id="Line_1-2" data-name="Line 1" transform="translate(0 0.011)" fill="none" stroke-linecap="round">
      <path d="M27.611,7.05,7.05,31.05" stroke="none"/>
      <path d="M 27.61359214782715 2.050014495849609 C 27.26119995117188 2.050014495849609 26.90935134887695 2.087057113647461 26.56434631347656 2.160659790039062 C 26.2193431854248 2.234260559082031 25.88118362426758 2.344419479370117 25.55616760253906 2.490653991699219 C 25.23115158081055 2.63688850402832 24.91927909851074 2.819198608398438 24.62685012817383 3.037097930908203 C 24.33441925048828 3.254997253417969 24.06143188476562 3.508489608764648 23.81418609619141 3.797086715698242 L 3.253015518188477 27.79708671569824 C 2.803868293762207 28.32135391235352 2.482231140136719 28.91183090209961 2.2851881980896 29.53071975708008 C 2.08814525604248 30.14960861206055 2.015696048736572 30.79690742492676 2.064924240112305 31.43481826782227 C 2.114152431488037 32.07272720336914 2.28505802154541 32.70124816894531 2.574723720550537 33.28257751464844 C 2.864389419555664 33.86390686035156 3.272815704345703 34.39804458618164 3.797085523605347 34.84719467163086 C 4.032756328582764 35.04909896850586 4.281818389892578 35.22523880004883 4.540832042694092 35.37587738037109 C 4.799845695495605 35.52651214599609 5.068810939788818 35.65164947509766 5.344288349151611 35.75154876708984 C 5.619765758514404 35.85144805908203 5.901755332946777 35.92611312866211 6.186816692352295 35.97579956054688 C 6.471878528594971 36.02548599243164 6.760013103485107 36.05019760131836 7.04778003692627 36.05019760131836 C 7.400172233581543 36.05019760131836 7.752020359039307 36.01315307617188 8.097023963928223 35.93955230712891 C 8.442028045654297 35.86595153808594 8.780187606811523 35.75579071044922 9.105203628540039 35.60955810546875 C 9.430220603942871 35.46332168579102 9.742093086242676 35.28101348876953 10.03452301025391 35.06311416625977 C 10.32695388793945 34.84521484375 10.59994125366211 34.59172439575195 10.8471851348877 34.30312728881836 L 31.40835571289062 10.30312538146973 C 31.85750389099121 9.778858184814453 32.17914199829102 9.188381195068359 32.37618255615234 8.569492340087891 C 32.57322692871094 7.950603485107422 32.64567565917969 7.303302764892578 32.5964469909668 6.665393829345703 C 32.54721832275391 6.027484893798828 32.37631225585938 5.398965835571289 32.08664703369141 4.817634582519531 C 31.79698371887207 4.236305236816406 31.38855743408203 3.702165603637695 30.86428642272949 3.253015518188477 C 30.62861633300781 3.051113128662109 30.37955474853516 2.874975204467773 30.12054061889648 2.724338531494141 C 29.86152648925781 2.573699951171875 29.59255981445312 2.448562622070312 29.31708335876465 2.348663330078125 C 29.04160690307617 2.248764038085938 28.75961685180664 2.174100875854492 28.47455596923828 2.124412536621094 C 28.18949317932129 2.074726104736328 27.90135955810547 2.050014495849609 27.61359214782715 2.050014495849609 Z" stroke="none" fill="#fff"/>
    </g>
    <g id="Line_2-2" data-name="Line 2" transform="translate(20.55)" fill="none" stroke-linecap="round">
      <path d="M7.061,7.061l21.589,24" stroke="none"/>
      <path d="M 7.059572219848633 2.0611572265625 C 6.761733531951904 2.0611572265625 6.463638305664062 2.087610244750977 6.169100761413574 2.140720367431641 C 5.874563217163086 2.193830490112305 5.583583354949951 2.273595809936523 5.299975395202637 2.380222320556641 C 5.016367435455322 2.486848831176758 4.740131378173828 2.620332717895508 4.475081443786621 2.780878067016602 C 4.210031509399414 2.941423416137695 3.956167936325073 3.129030227661133 3.717304944992065 3.343900680541992 C 3.204052448272705 3.805597305297852 2.808664321899414 4.349458694458008 2.533142566680908 4.937623977661133 C 2.257620811462402 5.525787353515625 2.10196590423584 6.158254623413086 2.068180084228516 6.79716682434082 C 2.034393787384033 7.436079025268555 2.122476577758789 8.081436157226562 2.334429740905762 8.695379257202148 C 2.546383380889893 9.309320449829102 2.882207870483398 9.891847610473633 3.343904972076416 10.40510177612305 L 24.93312454223633 34.40510177612305 C 25.17995071411133 34.67948913574219 25.45026397705078 34.92019271850586 25.73827743530273 35.12690353393555 C 26.02629089355469 35.33361434936523 26.33200454711914 35.5063362121582 26.64963150024414 35.64475631713867 C 26.96725845336914 35.78317642211914 27.29679870605469 35.88729858398438 27.63246536254883 35.95681762695312 C 27.96813201904297 36.02633285522461 28.3099250793457 36.06124496459961 28.65205764770508 36.06124496459961 C 28.94989585876465 36.06124496459961 29.24798965454102 36.0347900390625 29.54252815246582 35.98168182373047 C 29.83706665039062 35.92857360839844 30.12804794311523 35.84880447387695 30.41165542602539 35.74217987060547 C 30.69526290893555 35.63555526733398 30.97149848937988 35.50207138061523 31.23654937744141 35.34152221679688 C 31.5015983581543 35.18097686767578 31.75546264648438 34.99337005615234 31.99432563781738 34.77849960327148 C 32.50757598876953 34.31680297851562 32.9029655456543 33.77294158935547 33.17848968505859 33.18478012084961 C 33.45401000976562 32.59661483764648 33.60966491699219 31.96414566040039 33.64344787597656 31.32523345947266 C 33.6772346496582 30.68632125854492 33.58915328979492 30.04096412658691 33.37720108032227 29.42702293395996 C 33.16524505615234 28.81307983398438 32.82942199707031 28.23055267333984 32.36772537231445 27.71730041503906 L 10.77850532531738 3.717300415039062 C 10.53167819976807 3.442911148071289 10.26136493682861 3.202207565307617 9.97335147857666 2.99549674987793 C 9.685338973999023 2.788785934448242 9.37962532043457 2.616067886352539 9.06199836730957 2.477645874023438 C 8.74437141418457 2.339223861694336 8.41483211517334 2.235101699829102 8.079165458679199 2.165584564208984 C 7.743498802185059 2.096067428588867 7.401705265045166 2.0611572265625 7.059572219848633 2.0611572265625 Z" stroke="none" fill="#fff"/>
    </g>
  </g>
</svg>
