{
  "page": {
    "title": "Page 1",
    "backgroundImage": "bg1",
    "backgroundMusic": "FreshAndCool",
    "statics": [
      {
        "x": 28,
        "y": -1,
        "textKey": "holder",
        "angle": 90,
        "scale": -1,
        "w":30,
        "h":44,
        "type": "s",
        "alpha": 1,
        "color": 16777215,
        "col": -1,
        "loadEffect": 0,
        "tint": 998239,
        "origin": 0
      },
      {
        "x": 26,
        "y": 0.5,
        "textKey": "rect",
        "angle": 90,
        "scale": -1,
        "w":20,
        "h":10,
        "type": "s",
        "alpha": 1,
        "color": 16777215,
        "col": -1,
        "loadEffect": 0,
        "tint": 13408082,
        "origin": 0
      }
    ],
    "keyframes": [
      {
        "itemName": "audio3",
        "start": -1,
        "cssClass": "",
        "highlights": [],
        "active": true,
        "eventType": "playAudio",
        "useTween": false
      },
      {
        "itemName": "title1",
        "start": 1000,
        "atts": {
          "x": 32,
          "y": 1,
          "textKey": "300 CE",
          "angle": 90,
          "scale": 1,
          "type": "h",
          "alpha": 1,
          "color": 16777215,
          "col": -1,
          "loadEffect": 0,
          "tint": -1,
          "background":""
        },
        "cssClass": "title1",
        "cssSize":"fs1",
        "highlights": [
          {
            "cssClass": "green",
            "effectName": "noEffect",
            "duration": 1000,
            "scanned": ""
          }
        ],
        "active": true,
        "eventType": "update",
        "useTween": false
      },
      {
        "itemName": "icecream3",
        "start": 2000,
        "atts": {
          "x": 14,
          "y": 20,
          "textKey": "pimage3",
          "angle": 90,
          "scale": 0.6,
          "type": "im",
          "alpha": 1,
          "color": 16777215,
          "col": -1,
          "loadEffect": 2,
          "tint": -1
        },
        "cssClass": "",
        "highlights": [],
        "active": true,
        "eventType": "update",
        "useTween": false
      },
      {
        "itemName": "text1",
        "start": 3000,
        "atts": {
          "x": 29,
          "y": 14,
          "textKey": "Experimenters in China and India discover that adding [salt] to snow makes a slush that gets very cold.",
          "angle": 90,
          "scale": 1,
          "type": "h",
          "alpha": 1,
          "color": 16777215,
          "col": -1,
          "loadEffect": 0,
          "tint": 998239,
          "background": ""
        },
        "cssClass": "bookText2",
        "cssSize": "fs2",
        "highlights": [
          {
            "cssClass": "gray",
            "effectName": "redBox",
            "duration": 3000,
            "scanned": ""
          }
        ],
        "active": true,
        "eventType": "update",
        "useTween": false
      },
      {
        "itemName": "text2",
        "start": 10000,
        "atts": {
          "x": 29,
          "y": 36,
          "textKey": "They use this [trick] to cool drinks quickly. Italians rediscover it around 1500.",
          "angle": 90,
          "scale": 1,
          "type": "h",
          "alpha": 1,
          "color": 16777215,
          "col": -1,
          "loadEffect": 0,
          "tint": 998239,
          "background": ""
        },
        "cssClass": "bookText2",
        "cssSize": "fs3",
        "highlights": [
          {
            "cssClass": "green",
            "effectName": "sparkles",
            "duration": 1500,
            "scanned": ""
          }
        ],
        "active": true,
        "eventType": "update",
        "useTween": false
      }
    ]
  }
}
