{"page": {
    "title": "Page 1",
    "backgroundImage": "bg1",
    "backgroundMusic": "FreshAndCool",
    "keyframes": [
      {
        "itemName": "audio1",
        "start": -1,
        "cssClass": "",
        "highlights": [],
        "active": true,
        "eventType": "playAudio",
        "useTween": false
      },
      {
        "itemName": "text1",
        "start": 1000,
        "atts": {
          "x": 7.5,
          "y": 1,
          "textKey": "A delicious [history] of<br/> [Ice Cream.]<br/> Who Invented Ice Cream?",
          "angle": 90,
          "scale": 1,
          "type": "h",
          "alpha": 1,
          "color": 16777215,
          "col": -1,
          "loadEffect": 0,
          "tint": -1
        },
        "cssClass": "bookText",
        "highlights": [
          {
            "cssClass": "pink",
            "effectName": "halfRays",
            "duration": 500,
            "scanned": ""
          },
          {
            "cssClass": "blue",
            "effectName": "brackets",
            "duration": 1000,
            "scanned": ""
          }
        ],
        "active": true,
        "eventType": "update",
        "useTween": false
      },
      {
        "itemName": "c1",
        "start": 2000,
        "atts": {
          "x": 2.5,
          "y": 4,
          "textKey": "circle",
          "angle": 90,
          "scale": 0.5,
          "type": "s",
          "alpha": 1,
          "color": 16777215,
          "col": -1,
          "loadEffect": 0,
          "tint": 2719929
        },
        "cssClass": "",
        "highlights": [],
        "active": true,
        "eventType": "update",
        "useTween": false
      },
      {
        "itemName": "icecream1",
        "start": 2000,
        "atts": {
          "x": 2.5,
          "y": 4,
          "textKey": "pimage1",
          "angle": 90,
          "scale": 0.6,
          "type": "im",
          "alpha": 1,
          "color": 16777215,
          "col": -1,
          "loadEffect": 4,
          "tint": -1
        },
        "cssClass": "",
        "highlights": [],
        "active": true,
        "eventType": "update",
        "useTween": false
      },
      {
        "itemName": "text1",
        "start": 5000,
        "atts": {
          "x": 7.5,
          "y": 2,
          "textKey": "It all begins with [snow]!",
          "angle": 90,
          "scale": 1,
          "type": "h",
          "alpha": 1,
          "color": 16777215,
          "col": -1,
          "loadEffect": 0,
          "tint": -1
        },
        "cssClass": "bookText",
        "highlights": [
          {
            "cssClass": "blue",
            "effectName": "noEffect",
            "duration": 0,
            "scanned": ""
          },
          {
            "cssClass": "blue",
            "effectName": "noEffect",
            "duration": 0,
            "scanned": ""
          }
        ],
        "active": true,
        "eventType": "update",
        "useTween": false
      }
    ]
  }
}
