{
  "title": "Page 1",
  "backgroundImage": "",
  "backgroundMusic": "",
  "keyframes": [
    {
      "itemName": "text1",
      "start": 1000,
      "atts": {
        "x": 1,
        "y": 0,
        "textKey": "This is the second page",
        "angle": 90,
        "scale": 1,
        "type": "h",
        "alpha": 1,
        "color": 16777215,
        "col": 3
      },
      "cssClass": "bookText",
      "effectName": "",
      "duration": 0,
      "highlights": [
        {
          "startPos": 11,
          "len": 6,
          "cssClass": "green",
          "effectName": "brackets",
          "duration": 0,
          "scanned": ""
        }
      ],
      "active": true,
      "eventType": "update",
      "useTween": false
    }
  ]
}
