{
	"textures": [
		{
			"image": "sparks.png",
			"format": "RGBA8888",
			"size": {
				"w": 889,
				"h": 754
			},
			"scale": 1,
			"frames": [
				{
					"filename": "spark_prime0001.png",
					"rotated": false,
					"trimmed": true,
					"sourceSize": {
						"w": 242,
						"h": 278
					},
					"spriteSourceSize": {
						"x": 15,
						"y": 36,
						"w": 210,
						"h": 224
					},
					"frame": {
						"x": 1,
						"y": 1,
						"w": 210,
						"h": 224
					}
				},
				{
					"filename": "spark_prime0005.png",
					"rotated": false,
					"trimmed": true,
					"sourceSize": {
						"w": 242,
						"h": 278
					},
					"spriteSourceSize": {
						"x": 7,
						"y": 19,
						"w": 214,
						"h": 228
					},
					"frame": {
						"x": 213,
						"y": 1,
						"w": 214,
						"h": 228
					}
				},
				{
					"filename": "spark_prime0006.png",
					"rotated": false,
					"trimmed": true,
					"sourceSize": {
						"w": 242,
						"h": 278
					},
					"spriteSourceSize": {
						"x": 2,
						"y": 26,
						"w": 204,
						"h": 228
					},
					"frame": {
						"x": 429,
						"y": 1,
						"w": 204,
						"h": 228
					}
				},
				{
					"filename": "spark_prime0008.png",
					"rotated": false,
					"trimmed": true,
					"sourceSize": {
						"w": 242,
						"h": 278
					},
					"spriteSourceSize": {
						"x": 1,
						"y": 17,
						"w": 237,
						"h": 235
					},
					"frame": {
						"x": 635,
						"y": 1,
						"w": 237,
						"h": 235
					}
				},
				{
					"filename": "spark_prime0009.png",
					"rotated": false,
					"trimmed": true,
					"sourceSize": {
						"w": 242,
						"h": 278
					},
					"spriteSourceSize": {
						"x": 12,
						"y": 1,
						"w": 203,
						"h": 246
					},
					"frame": {
						"x": 1,
						"y": 227,
						"w": 203,
						"h": 246
					}
				},
				{
					"filename": "spark_prime0007.png",
					"rotated": false,
					"trimmed": true,
					"sourceSize": {
						"w": 242,
						"h": 278
					},
					"spriteSourceSize": {
						"x": 14,
						"y": 15,
						"w": 224,
						"h": 243
					},
					"frame": {
						"x": 206,
						"y": 231,
						"w": 224,
						"h": 243
					}
				},
				{
					"filename": "spark_prime0002.png",
					"rotated": false,
					"trimmed": true,
					"sourceSize": {
						"w": 242,
						"h": 278
					},
					"spriteSourceSize": {
						"x": 12,
						"y": 20,
						"w": 226,
						"h": 249
					},
					"frame": {
						"x": 432,
						"y": 238,
						"w": 226,
						"h": 249
					}
				},
				{
					"filename": "spark_prime0004.png",
					"rotated": false,
					"trimmed": true,
					"sourceSize": {
						"w": 242,
						"h": 278
					},
					"spriteSourceSize": {
						"x": 12,
						"y": 11,
						"w": 214,
						"h": 250
					},
					"frame": {
						"x": 660,
						"y": 238,
						"w": 214,
						"h": 250
					}
				},
				{
					"filename": "spark_prime0012.png",
					"rotated": false,
					"trimmed": true,
					"sourceSize": {
						"w": 242,
						"h": 278
					},
					"spriteSourceSize": {
						"x": 8,
						"y": 8,
						"w": 207,
						"h": 252
					},
					"frame": {
						"x": 1,
						"y": 476,
						"w": 207,
						"h": 252
					}
				},
				{
					"filename": "spark_prime0011.png",
					"rotated": false,
					"trimmed": true,
					"sourceSize": {
						"w": 242,
						"h": 278
					},
					"spriteSourceSize": {
						"x": 9,
						"y": 17,
						"w": 226,
						"h": 254
					},
					"frame": {
						"x": 210,
						"y": 489,
						"w": 226,
						"h": 254
					}
				},
				{
					"filename": "spark_prime0010.png",
					"rotated": false,
					"trimmed": true,
					"sourceSize": {
						"w": 242,
						"h": 278
					},
					"spriteSourceSize": {
						"x": 7,
						"y": 9,
						"w": 224,
						"h": 262
					},
					"frame": {
						"x": 438,
						"y": 490,
						"w": 224,
						"h": 262
					}
				},
				{
					"filename": "spark_prime0003.png",
					"rotated": false,
					"trimmed": true,
					"sourceSize": {
						"w": 242,
						"h": 278
					},
					"spriteSourceSize": {
						"x": 5,
						"y": 11,
						"w": 224,
						"h": 263
					},
					"frame": {
						"x": 664,
						"y": 490,
						"w": 224,
						"h": 263
					}
				}
			]
		}
	],
	"meta": {
		"app": "https://www.codeandweb.com/texturepacker",
		"version": "3.0",
		"smartupdate": "$TexturePacker:SmartUpdate:b86b8ce952a41dac24b1a6720328407d:c47194f36b5299557a166e5062115cc8:4ef5dc8051244717a8b53bb274c71e2d$"
	}
}
