<svg xmlns="http://www.w3.org/2000/svg" xmlns:xlink="http://www.w3.org/1999/xlink" width="30" height="260" viewBox="0 0 30 260">
  <defs>
    <filter id="slide">
      <feOffset dx="5" dy="5" input="SourceAlpha"/>
      <feGaussianBlur stdDeviation="5" result="blur"/>
      <feFlood flood-opacity="0.702" result="color"/>
      <feComposite operator="out" in="SourceGraphic" in2="blur"/>
      <feComposite operator="in" in="color"/>
      <feComposite operator="in" in2="SourceGraphic"/>
    </filter>
  </defs>
  <g data-type="innerShadowGroup">
    <rect id="slide-2" data-name="slide" width="260" height="30" rx="15" transform="translate(30) rotate(90)" fill="#fff"/>
    <g transform="matrix(1, 0, 0, 1, 0, 0)" filter="url(#slide)">
      <rect id="slide-3" data-name="slide" width="260" height="30" rx="15" transform="translate(30) rotate(90)" fill="#fff"/>
    </g>
  </g>
</svg>
