<svg xmlns="http://www.w3.org/2000/svg" xmlns:xlink="http://www.w3.org/1999/xlink" width="1938" height="198" viewBox="0 0 1938 198">
    <defs>
      <linearGradient id="linear-gradient" x1="0.5" x2="0.5" y2="1" gradientUnits="objectBoundingBox">
        <stop offset="0" stop-opacity="0.102"/>
        <stop offset="1" stop-opacity="0.502"/>
      </linearGradient>
      <filter id="Bottom_Bar" x="0" y="0" width="1938" height="198" filterUnits="userSpaceOnUse">
        <feOffset dx="5" dy="5" input="SourceAlpha"/>
        <feGaussianBlur stdDeviation="3" result="blur"/>
        <feFlood flood-opacity="0.4"/>
        <feComposite operator="in" in2="blur"/>
        <feComposite in="SourceGraphic"/>
      </filter>
    </defs>
    <g transform="matrix(1, 0, 0, 1, 0, 0)" filter="url(#Bottom_Bar)">
      <path id="Bottom_Bar-2" data-name="Bottom Bar" d="M0,0H1920V180H0Z" transform="translate(4 4)" fill="url(#linear-gradient)"/>
    </g>
  </svg>
  