{
	"textures": [
		{
			"image": "buildings1.png",
			"format": "RGBA8888",
			"size": {
				"w": 995,
				"h": 1346
			},
			"scale": 1,
			"frames": [
				{
					"filename": "hospital.png",
					"rotated": false,
					"trimmed": false,
					"sourceSize": {
						"w": 320,
						"h": 342
					},
					"spriteSourceSize": {
						"x": 0,
						"y": 0,
						"w": 320,
						"h": 342
					},
					"frame": {
						"x": 1,
						"y": 1,
						"w": 320,
						"h": 342
					}
				},
				{
					"filename": "pizza1.png",
					"rotated": false,
					"trimmed": false,
					"sourceSize": {
						"w": 360,
						"h": 256
					},
					"spriteSourceSize": {
						"x": 0,
						"y": 0,
						"w": 360,
						"h": 256
					},
					"frame": {
						"x": 1,
						"y": 345,
						"w": 360,
						"h": 256
					}
				},
				{
					"filename": "office1.png",
					"rotated": false,
					"trimmed": false,
					"sourceSize": {
						"w": 344,
						"h": 256
					},
					"spriteSourceSize": {
						"x": 0,
						"y": 0,
						"w": 344,
						"h": 256
					},
					"frame": {
						"x": 323,
						"y": 1,
						"w": 344,
						"h": 256
					}
				},
				{
					"filename": "cola.png",
					"rotated": false,
					"trimmed": false,
					"sourceSize": {
						"w": 333,
						"h": 256
					},
					"spriteSourceSize": {
						"x": 0,
						"y": 0,
						"w": 333,
						"h": 256
					},
					"frame": {
						"x": 1,
						"y": 603,
						"w": 333,
						"h": 256
					}
				},
				{
					"filename": "autoparts.png",
					"rotated": false,
					"trimmed": false,
					"sourceSize": {
						"w": 331,
						"h": 256
					},
					"spriteSourceSize": {
						"x": 0,
						"y": 0,
						"w": 331,
						"h": 256
					},
					"frame": {
						"x": 336,
						"y": 603,
						"w": 331,
						"h": 256
					}
				},
				{
					"filename": "bshop.png",
					"rotated": false,
					"trimmed": false,
					"sourceSize": {
						"w": 316,
						"h": 256
					},
					"spriteSourceSize": {
						"x": 0,
						"y": 0,
						"w": 316,
						"h": 256
					},
					"frame": {
						"x": 363,
						"y": 259,
						"w": 316,
						"h": 256
					}
				},
				{
					"filename": "fire.png",
					"rotated": false,
					"trimmed": false,
					"sourceSize": {
						"w": 316,
						"h": 256
					},
					"spriteSourceSize": {
						"x": 0,
						"y": 0,
						"w": 316,
						"h": 256
					},
					"frame": {
						"x": 669,
						"y": 1,
						"w": 316,
						"h": 256
					}
				},
				{
					"filename": "police.png",
					"rotated": false,
					"trimmed": false,
					"sourceSize": {
						"w": 299,
						"h": 256
					},
					"spriteSourceSize": {
						"x": 0,
						"y": 0,
						"w": 299,
						"h": 256
					},
					"frame": {
						"x": 669,
						"y": 517,
						"w": 299,
						"h": 256
					}
				},
				{
					"filename": "gen store.png",
					"rotated": false,
					"trimmed": false,
					"sourceSize": {
						"w": 313,
						"h": 243
					},
					"spriteSourceSize": {
						"x": 0,
						"y": 0,
						"w": 313,
						"h": 243
					},
					"frame": {
						"x": 681,
						"y": 259,
						"w": 313,
						"h": 243
					}
				},
				{
					"filename": "movies.png",
					"rotated": false,
					"trimmed": false,
					"sourceSize": {
						"w": 294,
						"h": 256
					},
					"spriteSourceSize": {
						"x": 0,
						"y": 0,
						"w": 294,
						"h": 256
					},
					"frame": {
						"x": 669,
						"y": 775,
						"w": 294,
						"h": 256
					}
				},
				{
					"filename": "snackshack.png",
					"rotated": false,
					"trimmed": false,
					"sourceSize": {
						"w": 290,
						"h": 220
					},
					"spriteSourceSize": {
						"x": 0,
						"y": 0,
						"w": 290,
						"h": 220
					},
					"frame": {
						"x": 1,
						"y": 861,
						"w": 290,
						"h": 220
					}
				},
				{
					"filename": "church.png",
					"rotated": false,
					"trimmed": false,
					"sourceSize": {
						"w": 227,
						"h": 256
					},
					"spriteSourceSize": {
						"x": 0,
						"y": 0,
						"w": 227,
						"h": 256
					},
					"frame": {
						"x": 293,
						"y": 861,
						"w": 227,
						"h": 256
					}
				},
				{
					"filename": "pizza2.png",
					"rotated": false,
					"trimmed": false,
					"sourceSize": {
						"w": 257,
						"h": 247
					},
					"spriteSourceSize": {
						"x": 0,
						"y": 0,
						"w": 257,
						"h": 247
					},
					"frame": {
						"x": 1,
						"y": 1083,
						"w": 257,
						"h": 247
					}
				},
				{
					"filename": "food.png",
					"rotated": false,
					"trimmed": false,
					"sourceSize": {
						"w": 240,
						"h": 232
					},
					"spriteSourceSize": {
						"x": 0,
						"y": 0,
						"w": 240,
						"h": 232
					},
					"frame": {
						"x": 522,
						"y": 1033,
						"w": 240,
						"h": 232
					}
				},
				{
					"filename": "coffee.png",
					"rotated": false,
					"trimmed": false,
					"sourceSize": {
						"w": 230,
						"h": 226
					},
					"spriteSourceSize": {
						"x": 0,
						"y": 0,
						"w": 230,
						"h": 226
					},
					"frame": {
						"x": 260,
						"y": 1119,
						"w": 230,
						"h": 226
					}
				},
				{
					"filename": "tree.png",
					"rotated": false,
					"trimmed": false,
					"sourceSize": {
						"w": 104,
						"h": 148
					},
					"spriteSourceSize": {
						"x": 0,
						"y": 0,
						"w": 104,
						"h": 148
					},
					"frame": {
						"x": 522,
						"y": 861,
						"w": 104,
						"h": 148
					}
				},
				{
					"filename": "bakery.png",
					"rotated": false,
					"trimmed": false,
					"sourceSize": {
						"w": 216,
						"h": 256
					},
					"spriteSourceSize": {
						"x": 0,
						"y": 0,
						"w": 216,
						"h": 256
					},
					"frame": {
						"x": 764,
						"y": 1033,
						"w": 216,
						"h": 256
					}
				}
			]
		}
	],
	"meta": {
		"app": "https://www.codeandweb.com/texturepacker",
		"version": "3.0",
		"smartupdate": "$TexturePacker:SmartUpdate:90e0f0579d01539c7ac6c0900ecfaabb:cc308496352e0e490800d49ee4d57379:3189c05cbb606b400df9d66cffb40b2b$"
	}
}
