<svg xmlns="http://www.w3.org/2000/svg" xmlns:xlink="http://www.w3.org/1999/xlink" width="106.606" height="117" viewBox="0 0 106.606 117">
  <defs>
    <filter id="Path_4967" x="0" y="13.856" width="106.606" height="103.144" filterUnits="userSpaceOnUse">
      <feOffset dx="5" dy="5" input="SourceAlpha"/>
      <feGaussianBlur stdDeviation="1" result="blur"/>
      <feFlood flood-opacity="0.4"/>
      <feComposite operator="in" in2="blur"/>
      <feComposite in="SourceGraphic"/>
    </filter>
    <filter id="_" x="35" y="0" width="38" height="107" filterUnits="userSpaceOnUse">
      <feOffset dx="2" dy="2" input="SourceAlpha"/>
      <feGaussianBlur result="blur-2"/>
      <feFlood flood-opacity="0.749"/>
      <feComposite operator="in" in2="blur-2"/>
      <feComposite in="SourceGraphic"/>
    </filter>
  </defs>
  <g id="Hint" transform="translate(-1412 -922)">
    <g id="Hint_" data-name="Hint (?)" transform="translate(320.675 -38.868)">
      <g transform="matrix(1, 0, 0, 1, 1091.33, 960.87)" filter="url(#Path_4967)">
        <path id="Path_4967-2" data-name="Path 4967" d="M20.36-1.954,72.854-3.248c11.244,0,25.753,12.9,25.753,23.618L97.262,73.68C97.262,84.4,84.1,91.9,72.854,91.9H20.36C9.115,91.9,0,83.2,0,72.482V20.37C0,9.648,9.115-1.954,20.36-1.954Z" transform="translate(0 17.1)" fill="#365981"/>
      </g>
      <g id="Rectangle_29" data-name="Rectangle 29" transform="translate(1098.112 969.868)" fill="#5a82b9" stroke="#fff" stroke-width="4">
        <rect width="93.213" height="90.94" rx="15" stroke="none"/>
        <rect x="2" y="2" width="89.213" height="86.94" rx="13" fill="none"/>
      </g>
      <g transform="matrix(1, 0, 0, 1, 1091.33, 960.87)" filter="url(#_)">
        <text id="_2" data-name="?" transform="translate(53 85)" fill="#fff" font-size="79" font-family="SegoeUI, Segoe UI"><tspan x="-17.706" y="0">?</tspan></text>
      </g>
    </g>
  </g>
</svg>
