[
	["YN027", "3 Rings of Fun", "E6FFFE"],
	["YB014", "8-Bit Knights", "FFFFD7"],
	["YB016", "Alien Homeworld", "E6FFFE"],
	["YN017", "Ape Arrangement", "F8FFEB"],
	["YN007", "Apples and Pears", "FFF5E3"],
	["YN012", "Arctic Friends", "E6FFFE"],
	["YN008", "Autumn Leaves", "FFF5E3"],
	["YG005", "Ballet Class", "FFF5FA"],
	["YN006", "Bicycle Barrage", "FFFCEB"],
	["YB004", "Birds in Blue", "E6FFFE"],
	["YG019", "Birthday Party", "FFFDEE"],
	["YN013", "Bunch of Bears", "FFF5E3"],
	["YG012", "Circled Icons", "FCE9E6"],
	["YN003", "Clouds & Rainbows", "FFFCEB"],
	["YN009", "Colorful Forest", "FFF5E3"],
	["YN020", "Colorful Monsters", "FFFFD7"],
	["YN025", "Country Bears", "DEF6FC"],
	["YG014", "Crafty Zoo", "FFFFD7"],
	["YG013", "Crayon Cats", "FFFDEE"],
	["YB018", "Critters In Blue", "FFFDEE"],
	["YN022", "Crowd of Faces", "FFFCEB"],
	["YG002", "Cups of All Sizes", "FFEEEE"],
	["YN028", "Deserted Isle", "FFFCEB"],
	["YN021", "Dogs With Crowns", "FFFCEB"],
	["YB019", "Embossed Sports", "F8FFEB"],
	["YN023", "Farm Life", "FFFFD7"],
	["YG003", "Flowers Aligned", "FFFCEB"],
	["YG007", "Flowers Around", "FFFDEE"],
	["YN030", "Food Impression", "E6FFFE"],
	["YB009", "Formula Ones", "FFF5E3"],
	["YB001", "Four Bears", "E6FFFE"],
	["YN005", "Fruit Dudes", "FFFCEB"],
	["YN010", "Furry Friends", "FFF5E3"],
	["YB017", "Garden Pests", "FFFCEB"],
	["YB008", "Green Beetles", "FFFCEB"],
	["YN032", "Happy Bugs", "FFFCEB"],
	["YB020", "Heavy Equipment", "FFF5E3"],
	["YN026", "Homestyle", "DEF6FC"],
	["YG008", "I Love Pink", "F9E6E1"],
	["YN024", "Litter of  Pups", "FFFDEE"],
	["YB012", "Lizards Galore", "F8FFEB"],
	["YN031", "Marker Doodle", "FFFDEE"],
	["YB013", "Meteor Inbound", "FFFDEE"],
	["YN029", "Midwest Farmland", "FFF5E3"],
	["YN016", "Monkeys & Bananas", "FFFFD7"],
	["YB010", "Nautical Theme", "E6FFFE"],
	["YN002", "Outside Chores", "FFF5E3"],
	["YG018", "Pasted Pencils", "FFFFD7"],
	["YG016", "Pastel Beach", "FFEEEE"],
	["YN018", "Penciled Pattern", "FFFFD7"],
	["YG001", "Pink Watercolor", "FFEEEE"],
	["YG006", "Pinwheel Plethora", "FFFDEE"],
	["YN014", "Rabbits", "F2ECEB"],
	["YN019", "Rhino Ruckus", "FFFDEE"],
	["YB002", "Rows of Robots", "F8FFEB"],
	["YG009", "Royal Ponies", "FFFDEE"],
	["YN004", "School Silhouette", "DEF6FC"],
	["YN001", "Shapes and Stains", "E6FFFE"],
	["YB007", "Silly Bugs", "E6FFFE"],
	["YG010", "Silly Teal Birds", "FFFDEE"],
	["YG017", "Spheres and Dots", "FFF5FA"],
	["YB003", "Spring Training", "FFFDEE"],
	["YB005", "Star Turtle", "E6FFFE"],
	["YB011", "Strike Zone", "FFFCEB"],
	["YG004", "Stuffed Animals", "FFF5FA"],
	["YG011", "Sunny Ice Cream", "F8FFEB"],
	["YB006", "Transportation", "DEF6FC"],
	["YN015", "Trunks and Tusks", "DEF6FC"],
	["DN", "TT Wallpaper", "FFFFD7"],
	["YG020", "Umbrella Chums", "FFFDEE"],
	["YB015", "Under a Log", "F8FFEB"],
	["YN033", "Under the Sea", "DEF6FC"],
	["YG015", "Unlikely Friends", "F4EDF9"],
	["YN011", "Wooded Cabin", "DEF6FC"]
]