{"data":[{"word":"lemon","letters":["l","m","o"]},
{"word":"apple","letters":["b","a","p","s"]},
{"word":"orange","letters":["l","m","o"]},
{"word":"strawberry","letters":["c","m","s"]},
{"word":"kiwi","letters":["i","k","w"]},
{"word":"pineapple","letters":["p","k","e"]},
{"word":"cherries","letters":["t","s","c"]}]}