<svg xmlns="http://www.w3.org/2000/svg" xmlns:xlink="http://www.w3.org/1999/xlink" width="66.315" height="103.911" viewBox="0 0 66.315 103.911">
  <defs>
    <filter id="Left_Arrow" x="0" y="0" width="66.315" height="103.911" filterUnits="userSpaceOnUse">
      <feOffset dx="5" dy="5" input="SourceAlpha"/>
      <feGaussianBlur stdDeviation="3" result="blur"/>
      <feFlood flood-opacity="0.4"/>
      <feComposite operator="in" in2="blur"/>
      <feComposite in="SourceGraphic"/>
    </filter>
  </defs>
  <g transform="matrix(1, 0, 0, 1, 0, 0)" filter="url(#Left_Arrow)">
    <g id="Left_Arrow-2" data-name="Left Arrow" transform="translate(52.32 89.91) rotate(180)" fill="#6384d2">
      <path d="M 5.39415454864502 84.91107940673828 C 4.220566272735596 84.91107940673828 3.117331027984619 84.45396423339844 2.287660360336304 83.62394714355469 C 1.457330942153931 82.79398345947266 1.000225067138672 81.69073486328125 1.000225067138672 80.51715087890625 C 1.000225067138672 79.34355926513672 1.457330942153931 78.24032592773438 2.287354469299316 77.41065216064453 L 36.03484725952148 43.66316223144531 L 36.741943359375 42.9560661315918 L 36.03485870361328 42.24896240234375 L 2.287519216537476 8.500808715820312 C 1.457330942153931 7.670985221862793 1.000225067138672 6.567703247070312 1.000225067138672 5.394044399261475 C 1.000225067138672 4.220291137695312 1.457389712333679 3.116726636886597 2.287507295608521 2.286608934402466 C 3.117189645767212 1.456926584243774 4.220483779907227 1.000008940696716 5.39415454864502 1.000008940696716 C 6.567813396453857 1.000008940696716 7.671107292175293 1.456926584243774 8.500789642333984 2.286608934402466 L 46.02809524536133 39.81390380859375 C 46.8655891418457 40.65140914916992 47.32269668579102 41.76484298706055 47.31518936157227 42.94907760620117 L 47.31514358520508 42.95542144775391 L 47.31518936157227 42.96176147460938 C 47.32269668579102 44.14606857299805 46.86565017700195 45.25929260253906 46.02824783325195 46.09634017944336 L 8.500789642333984 83.62379455566406 C 7.670966148376465 84.45396423339844 6.567730903625488 84.91107940673828 5.39415454864502 84.91107940673828 Z" stroke="none"/>
      <path d="M 5.394155025482178 83.91107940673828 C 6.300555229187012 83.91107940673828 7.152617454528809 83.55804443359375 7.793692588806152 82.91669464111328 L 45.32128143310547 45.38910293579102 C 45.9680290222168 44.74263000488281 46.32100677490234 43.88282775878906 46.31520462036133 42.96810531616211 L 46.31512832641602 42.95542907714844 L 46.31520462036133 42.94275283813477 C 46.32100677490234 42.02800369262695 45.96791839599609 41.16795349121094 45.32099151611328 40.52101516723633 L 7.793692588806152 2.993716239929199 C 7.152880191802979 2.352916240692139 6.300717830657959 2.000003814697266 5.394155025482178 2.000003814697266 C 4.487592697143555 2.000003814697266 3.635430097579956 2.352916240692139 2.994617700576782 2.993716239929199 C 2.35338020324707 3.634953737258911 2.000230073928833 4.48741626739502 2.000230073928833 5.394041061401367 C 2.000230073928833 6.300516128540039 2.353267669677734 7.152616024017334 2.994630098342896 7.793703556060791 L 38.15615463256836 42.9560661315918 L 2.994317770004272 78.117919921875 C 2.353267669677734 78.75868988037109 2.000230073928833 79.61075592041016 2.000230073928833 80.51715087890625 C 2.000230073928833 81.42355346679688 2.353267669677734 82.27561950683594 2.994917631149292 82.9169921875 C 3.635692596435547 83.55804443359375 4.487755298614502 83.91107940673828 5.394155025482178 83.91107940673828 M 5.394155025482178 85.91107940673828 C 4.013780117034912 85.91107940673828 2.633405208587646 85.38435363769531 1.580405235290527 84.33090209960938 C -0.5264948010444641 82.22490692138672 -0.5264948010444641 78.80940246582031 1.580405235290527 76.70340728759766 L 35.32774353027344 42.9560546875 L 1.580405235290527 9.207903861999512 C -0.5264948010444641 7.101903915405273 -0.5264948010444641 3.686403751373291 1.580405235290527 1.579503774642944 C 3.686405420303345 -0.5264967679977417 7.101905822753906 -0.5264959335327148 9.207904815673828 1.579503774642944 L 46.73520660400391 39.10680389404297 C 47.79739379882812 40.16899108886719 48.32399368286133 41.56361770629883 48.31516647338867 42.95542907714844 C 48.32399368286133 44.34724044799805 47.79739379882812 45.74185562133789 46.73520660400391 46.80360412597656 L 9.207904815673828 84.33090209960938 C 8.154905319213867 85.38435363769531 6.774530410766602 85.91107940673828 5.394155025482178 85.91107940673828 Z" stroke="none" fill="#fff"/>
    </g>
  </g>
</svg>
