{
	"textures": [
		{
			"image": "candy.png",
			"format": "RGBA8888",
			"size": {
				"w": 394,
				"h": 714
			},
			"scale": 1,
			"frames": [
				{
					"filename": "candy5.png",
					"rotated": false,
					"trimmed": false,
					"sourceSize": {
						"w": 186,
						"h": 294
					},
					"spriteSourceSize": {
						"x": 0,
						"y": 0,
						"w": 186,
						"h": 294
					},
					"frame": {
						"x": 1,
						"y": 1,
						"w": 186,
						"h": 294
					}
				},
				{
					"filename": "candy7.png",
					"rotated": false,
					"trimmed": false,
					"sourceSize": {
						"w": 193,
						"h": 291
					},
					"spriteSourceSize": {
						"x": 0,
						"y": 0,
						"w": 193,
						"h": 291
					},
					"frame": {
						"x": 1,
						"y": 297,
						"w": 193,
						"h": 291
					}
				},
				{
					"filename": "candy4.png",
					"rotated": false,
					"trimmed": false,
					"sourceSize": {
						"w": 204,
						"h": 204
					},
					"spriteSourceSize": {
						"x": 0,
						"y": 0,
						"w": 204,
						"h": 204
					},
					"frame": {
						"x": 189,
						"y": 1,
						"w": 204,
						"h": 204
					}
				},
				{
					"filename": "candy3.png",
					"rotated": false,
					"trimmed": false,
					"sourceSize": {
						"w": 223,
						"h": 123
					},
					"spriteSourceSize": {
						"x": 0,
						"y": 0,
						"w": 223,
						"h": 123
					},
					"frame": {
						"x": 1,
						"y": 590,
						"w": 223,
						"h": 123
					}
				},
				{
					"filename": "candy1.png",
					"rotated": false,
					"trimmed": false,
					"sourceSize": {
						"w": 171,
						"h": 172
					},
					"spriteSourceSize": {
						"x": 0,
						"y": 0,
						"w": 171,
						"h": 172
					},
					"frame": {
						"x": 196,
						"y": 207,
						"w": 171,
						"h": 172
					}
				},
				{
					"filename": "candy2.png",
					"rotated": false,
					"trimmed": false,
					"sourceSize": {
						"w": 159,
						"h": 158
					},
					"spriteSourceSize": {
						"x": 0,
						"y": 0,
						"w": 159,
						"h": 158
					},
					"frame": {
						"x": 196,
						"y": 381,
						"w": 159,
						"h": 158
					}
				},
				{
					"filename": "candy6.png",
					"rotated": false,
					"trimmed": false,
					"sourceSize": {
						"w": 157,
						"h": 163
					},
					"spriteSourceSize": {
						"x": 0,
						"y": 0,
						"w": 157,
						"h": 163
					},
					"frame": {
						"x": 226,
						"y": 541,
						"w": 157,
						"h": 163
					}
				}
			]
		}
	],
	"meta": {
		"app": "https://www.codeandweb.com/texturepacker",
		"version": "3.0",
		"smartupdate": "$TexturePacker:SmartUpdate:88dd04449b9ed70f18c8e8743daa2d7d:2cbe51d033d5eceaf8cd38ce3dfab18b:45fe36101e57ad1032e9d97a079c7e96$"
	}
}
