{
	"textures": [
		{
			"image": "icing.png",
			"format": "RGBA8888",
			"size": {
				"w": 474,
				"h": 1013
			},
			"scale": 1,
			"frames": [
				{
					"filename": "2.png",
					"rotated": false,
					"trimmed": false,
					"sourceSize": {
						"w": 276,
						"h": 355
					},
					"spriteSourceSize": {
						"x": 0,
						"y": 0,
						"w": 276,
						"h": 355
					},
					"frame": {
						"x": 1,
						"y": 1,
						"w": 276,
						"h": 355
					}
				},
				{
					"filename": "1.png",
					"rotated": false,
					"trimmed": false,
					"sourceSize": {
						"w": 352,
						"h": 352
					},
					"spriteSourceSize": {
						"x": 0,
						"y": 0,
						"w": 352,
						"h": 352
					},
					"frame": {
						"x": 1,
						"y": 358,
						"w": 352,
						"h": 352
					}
				},
				{
					"filename": "0.png",
					"rotated": false,
					"trimmed": false,
					"sourceSize": {
						"w": 194,
						"h": 346
					},
					"spriteSourceSize": {
						"x": 0,
						"y": 0,
						"w": 194,
						"h": 346
					},
					"frame": {
						"x": 279,
						"y": 1,
						"w": 194,
						"h": 346
					}
				},
				{
					"filename": "3.png",
					"rotated": false,
					"trimmed": false,
					"sourceSize": {
						"w": 300,
						"h": 300
					},
					"spriteSourceSize": {
						"x": 0,
						"y": 0,
						"w": 300,
						"h": 300
					},
					"frame": {
						"x": 1,
						"y": 712,
						"w": 300,
						"h": 300
					}
				}
			]
		}
	],
	"meta": {
		"app": "https://www.codeandweb.com/texturepacker",
		"version": "3.0",
		"smartupdate": "$TexturePacker:SmartUpdate:818d1cad0264c4b137f5ab6917c174d1:27d08193511ba2c3b4a3ca3622f8a529:eb15110b7530a407d9c2ebb79db4a18d$"
	}
}
