{
  "covers": { "left": [], "right": [] },
  "pages": [
    {
      "left": [
        {
          "type": "BACK_IMAGE",
          "subtype": "none",
          "classes": ["fullHeight"],
          "content": ["brushes.png"],
          "x": 0,
          "y": 0,
          "w": 25,
          "extras": {
            "alpha": 100,
            "rotation": 0,
            "flipH": false,
            "flipV": false,
            "orientation": 0,
            "skewX": 0,
            "skewY": 0,
            "borderColor": "#000000",
            "borderThick": 0,
            "fontSize": 16,
            "fontColor": "#000000",
            "fontName": "Arial",
            "backgroundPosX": 0,
            "backgroundPosY": 0,
            "backgroundSizeW": 100,
            "backgroundSizeH": 100
          }
        },
        {
          "type": "TEXT",
          "subtype": "none",
          "classes": [],
          "content": [
            "Lorem ipsum dolor sit amet, consectetur adipiscing elit. Praesent ut iaculis eros. Morbi accumsan metus quis turpis mattis, nec bibendum tortor vestibulum. Lorem ipsum dolor sit amet, consectetur adipiscing elit."
          ],
          "x": 50,
          "y": 20,
          "w": 80,
          "extras": {
            "alpha": 100,
            "rotation": 0,
            "flipH": false,
            "flipV": false,
            "orientation": 4,
            "skewX": 0,
            "skewY": 0,
            "borderColor": "#000000",
            "borderThick": 0,
            "fontSize": 16,
            "fontColor": "#000000",
            "fontName": "Arial",
            "backgroundPosX": 0,
            "backgroundPosY": 0,
            "backgroundSizeW": 100,
            "backgroundSizeH": 100
          }
        },
        {
          "type": "IMAGE",
          "subtype": "none",
          "classes": [],
          "content": ["test2.jpg"],
          "x": 19,
          "y": 43,
          "w": 70,
          "extras": {
            "alpha": 100,
            "rotation": 0,
            "flipH": false,
            "flipV": false,
            "orientation": 0,
            "skewX": 0,
            "skewY": 0,
            "borderColor": "#000000",
            "borderThick": 0,
            "fontSize": 16,
            "fontColor": "#000000",
            "fontName": "Arial",
            "backgroundPosX": 0,
            "backgroundPosY": 0,
            "backgroundSizeW": 100,
            "backgroundSizeH": 100
          }
        }
      ],
      "right": [
        {
          "type": "BACK_IMAGE",
          "subtype": "none",
          "classes": ["flipped", "fullHeight"],
          "content": ["brushes.png"],
          "x": 75,
          "y": 0,
          "w": 25,
          "extras": {
            "alpha": 100,
            "rotation": 0,
            "flipH": true,
            "flipV": false,
            "orientation": 0,
            "skewX": 0,
            "skewY": 0,
            "borderColor": "#000000",
            "borderThick": 0,
            "fontSize": 16,
            "fontColor": "#000000",
            "fontName": "Arial",
            "backgroundPosX": 0,
            "backgroundPosY": 0,
            "backgroundSizeW": 100,
            "backgroundSizeH": 100
          }
        },
        {
          "type": "TEXT",
          "subtype": "none",
          "classes": [],
          "content": [
            "Lorem ipsum dolor sit amet, consectetur adipiscing elit. Praesent ut iaculis eros. Morbi accumsan metus quis turpis mattis, nec bibendum tortor vestibulum. Lorem ipsum dolor sit amet, consectetur adipiscing elit."
          ],
          "x": 50,
          "y": 20,
          "w": 75,
          "extras": {
            "alpha": 100,
            "rotation": 0,
            "flipH": false,
            "flipV": false,
            "orientation": 4,
            "skewX": 0,
            "skewY": 0,
            "borderColor": "#000000",
            "borderThick": 0,
            "fontSize": 18,
            "fontColor": "#e22222",
            "fontName": "Arial",
            "backgroundPosX": 0,
            "backgroundPosY": 0,
            "backgroundSizeW": 100,
            "backgroundSizeH": 100
          }
        }
      ]
    },
    {
      "left": [
        {
          "type": "BACK_IMAGE",
          "subtype": "gutter",
          "classes": ["crossGutter2"],
          "content": ["wienerdog.png"],
          "x": 0,
          "y": 25,
          "w": 300,
          "extras": {
            "alpha": 100,
            "rotation": 0,
            "flipH": false,
            "flipV": false,
            "orientation": 0,
            "skewX": 0,
            "skewY": 0,
            "borderColor": "#000000",
            "borderThick": 0,
            "fontSize": 16,
            "fontColor": "#000000",
            "fontName": "Arial",
            "backgroundPosX": 30,
            "backgroundPosY": 0,
            "backgroundSizeW": 540,
            "backgroundSizeH": -1
          }
        }
      ],
      "right": [
        {
          "type": "BACK_IMAGE",
          "subtype": "gutter",
          "classes": ["crossGutter2"],
          "content": ["wienerdog.png"],
          "x": 0,
          "y": 25,
          "w": 300,
          "extras": {
            "alpha": 100,
            "rotation": 0,
            "flipH": false,
            "flipV": false,
            "orientation": 0,
            "skewX": 0,
            "skewY": 0,
            "borderColor": "#000000",
            "borderThick": 0,
            "fontSize": 16,
            "fontColor": "#000000",
            "fontName": "Arial",
            "backgroundPosX": -270,
            "backgroundPosY": 0,
            "backgroundSizeW": 540,
            "backgroundSizeH": -1
          }
        }
      ]
    }
  ]
}
