{
    "steps": [
        {
            "id": 0,
            "elements": [
                {
                    "type": "IMAGE",
                    "subType": "none",
                    "classes": [],
                    "content": [
                        "horse.jpg"
                    ],
                    "x": -47.66,
                    "y": -1.55,
                    "w": 148,
                    "h": 0,
                    "eid": "instance1",
                    "extras": {
                        "alpha": 100,
                        "rotation": 0,
                        "flipH": false,
                        "flipV": false,
                        "orientation": 0,
                        "skewX": 0,
                        "skewY": 0,
                        "borderColor": "#000000",
                        "borderThick": 0,
                        "fontSize": 16,
                        "fontColor": "#000000",
                        "fontName": "Arial",
                        "backgroundPosX": 0,
                        "backgroundPosY": 0,
                        "backgroundSizeW": 100,
                        "backgroundSizeH": 100,
                        "popupID": -1
                    },
                    "textStyle": -1
                },
                {
                    "type": "IMAGE",
                    "subType": "none",
                    "classes": [],
                    "content": [
                        "greenBars.svg"
                    ],
                    "x": 82.83,
                    "y": -2.95,
                    "w": 14,
                    "h": 0,
                    "eid": "instance2",
                    "extras": {
                        "alpha": 100,
                        "rotation": 0,
                        "flipH": false,
                        "flipV": false,
                        "orientation": 0,
                        "skewX": 0,
                        "skewY": 0,
                        "borderColor": "#000000",
                        "borderThick": 0,
                        "fontSize": 16,
                        "fontColor": "#000000",
                        "fontName": "Arial",
                        "backgroundPosX": 0,
                        "backgroundPosY": 0,
                        "backgroundSizeW": 100,
                        "backgroundSizeH": 100,
                        "popupID": -1
                    },
                    "textStyle": -1
                },
                {
                    "type": "IMAGE",
                    "subType": "none",
                    "classes": [],
                    "content": [
                        "titleBox.svg"
                    ],
                    "x": 64.59,
                    "y": 7.16,
                    "w": 36,
                    "h": 0,
                    "eid": "instance3",
                    "extras": {
                        "alpha": 100,
                        "rotation": 0,
                        "flipH": false,
                        "flipV": false,
                        "orientation": 0,
                        "skewX": 0,
                        "skewY": 0,
                        "borderColor": "#000000",
                        "borderThick": 0,
                        "fontSize": 16,
                        "fontColor": "#000000",
                        "fontName": "Arial",
                        "backgroundPosX": 0,
                        "backgroundPosY": 0,
                        "backgroundSizeW": 100,
                        "backgroundSizeH": 100,
                        "popupID": -1
                    },
                    "textStyle": -1
                }
            ],
            "zoom": {
                "x1": 0,
                "y1": 0,
                "x2": 100,
                "y2": 100
            },
            "audio": "bornIntro.mp3",
            "audioName": "bornIntro.mp3",
            "backgroundAudioName": "backgroundMusic/FreshAndCool.mp3",
            "backgroundAudio": "FreshAndCool.mp3",
            "label": "1"
        },
        {
            "id": 1,
            "elements": [
                {
                    "type": "IMAGE",
                    "subType": "none",
                    "classes": [],
                    "content": [
                        "horse.jpg"
                    ],
                    "x": -89,
                    "y": -1.55,
                    "w": 193,
                    "h": 0,
                    "eid": "instance1",
                    "extras": {
                        "alpha": 100,
                        "rotation": 0,
                        "flipH": false,
                        "flipV": false,
                        "orientation": 0,
                        "skewX": 0,
                        "skewY": 0,
                        "borderColor": "#000000",
                        "borderThick": 0,
                        "fontSize": 16,
                        "fontColor": "#000000",
                        "fontName": "Arial",
                        "backgroundPosX": 0,
                        "backgroundPosY": 0,
                        "backgroundSizeW": 100,
                        "backgroundSizeH": 100,
                        "popupID": -1
                    },
                    "textStyle": -1
                },
                {
                    "type": "IMAGE",
                    "subType": "none",
                    "classes": [],
                    "content": [
                        "cheetah.svg"
                    ],
                    "x": 9.91,
                    "y": 54.07,
                    "w": 30,
                    "h": 0,
                    "eid": "instance6",
                    "extras": {
                        "alpha": 100,
                        "rotation": 0,
                        "flipH": false,
                        "flipV": false,
                        "orientation": 0,
                        "skewX": 0,
                        "skewY": 0,
                        "borderColor": "#000000",
                        "borderThick": 0,
                        "fontSize": 16,
                        "fontColor": "#000000",
                        "fontName": "Arial",
                        "backgroundPosX": 0,
                        "backgroundPosY": 0,
                        "backgroundSizeW": 100,
                        "backgroundSizeH": 100,
                        "popupID": -1
                    },
                    "textStyle": -1
                },
                {
                    "type": "CARD",
                    "subType": "whiteCard",
                    "classes": [],
                    "content": [
                        " If a cheetah and a horse ran a 100-meter dash, who would win? Probably the cheetah—as the fastest land animal, it can run 70 miles (112 km) an hour. Even the fastest racehorses reach speeds of only about 45 mph."
                    ],
                    "x": 58.4,
                    "y": 8.43,
                    "w": 39,
                    "h": 27,
                    "eid": "instance4",
                    "extras": {
                        "alpha": 100,
                        "rotation": 0,
                        "flipH": false,
                        "flipV": false,
                        "orientation": 0,
                        "skewX": 0,
                        "skewY": 0,
                        "borderColor": "#000000",
                        "borderThick": 0,
                        "fontSize": 64,
                        "fontColor": "#3a7b1e",
                        "fontName": "Arial",
                        "backgroundPosX": 0,
                        "backgroundPosY": 0,
                        "backgroundSizeW": 100,
                        "backgroundSizeH": 100,
                        "popupID": -1
                    },
                    "textStyle": -1
                },
                {
                    "type": "CARD",
                    "subType": "whiteCard",
                    "classes": [],
                    "content": [
                        "But what if they raced a mile? That would be a different story. The cheetah would get tired and quit half way. But a horse could keep running for miles without tiring. It’s built for both speed and endurance."
                    ],
                    "x": 58.4,
                    "y": 53.49,
                    "w": 39,
                    "h": 27,
                    "eid": "instance5",
                    "extras": {
                        "alpha": 100,
                        "rotation": 0,
                        "flipH": false,
                        "flipV": false,
                        "orientation": 0,
                        "skewX": 0,
                        "skewY": 0,
                        "borderColor": "#000000",
                        "borderThick": 0,
                        "fontSize": 58,
                        "fontColor": "#000000",
                        "fontName": "Arial",
                        "backgroundPosX": 0,
                        "backgroundPosY": 0,
                        "backgroundSizeW": 100,
                        "backgroundSizeH": 100,
                        "popupID": -1
                    },
                    "textStyle": -1
                }
            ],
            "zoom": {
                "x1": 0,
                "y1": 0,
                "x2": 100,
                "y2": 100
            },
            "audio": "born1.mp3",
            "audioName": "born1.mp3",
            "backgroundAudioName": "backgroundMusic/FreshAndCool.mp3",
            "backgroundAudio": "FreshAndCool.mp3",
            "label": "2"
        },
        {
            "id": 5,
            "elements": [
                {
                    "type": "IMAGE",
                    "subType": "none",
                    "classes": [],
                    "content": [
                        "horse.jpg"
                    ],
                    "x": -89,
                    "y": -1.55,
                    "w": 193,
                    "h": 0,
                    "eid": "instance1",
                    "extras": {
                        "alpha": 100,
                        "rotation": 0,
                        "flipH": false,
                        "flipV": false,
                        "orientation": 0,
                        "skewX": 0,
                        "skewY": 0,
                        "borderColor": "#000000",
                        "borderThick": 0,
                        "fontSize": 16,
                        "fontColor": "#000000",
                        "fontName": "Arial",
                        "backgroundPosX": 0,
                        "backgroundPosY": 0,
                        "backgroundSizeW": 100,
                        "backgroundSizeH": 100,
                        "popupID": -1
                    },
                    "textStyle": -1
                },
                {
                    "type": "IMAGE",
                    "subType": "none",
                    "classes": [],
                    "content": [
                        "cheetah.svg"
                    ],
                    "x": 9.91,
                    "y": 54.07,
                    "w": 30,
                    "h": 0,
                    "eid": "instance6",
                    "extras": {
                        "alpha": 100,
                        "rotation": 0,
                        "flipH": false,
                        "flipV": false,
                        "orientation": 0,
                        "skewX": 0,
                        "skewY": 0,
                        "borderColor": "#000000",
                        "borderThick": 0,
                        "fontSize": 16,
                        "fontColor": "#000000",
                        "fontName": "Arial",
                        "backgroundPosX": 0,
                        "backgroundPosY": 0,
                        "backgroundSizeW": 100,
                        "backgroundSizeH": 100,
                        "popupID": -1
                    },
                    "textStyle": -1
                },
                {
                    "type": "CARD",
                    "subType": "whiteCard",
                    "classes": [],
                    "content": [
                        " If a cheetah and a horse ran a 100-meter dash, who would win? Probably the cheetah—as the fastest land animal, it can run 70 miles (112 km) an hour. Even the fastest racehorses reach speeds of only about 45 mph."
                    ],
                    "x": 58.4,
                    "y": 8.43,
                    "w": 39,
                    "h": 27,
                    "eid": "instance4",
                    "extras": {
                        "alpha": 100,
                        "rotation": 0,
                        "flipH": false,
                        "flipV": false,
                        "orientation": 0,
                        "skewX": 0,
                        "skewY": 0,
                        "borderColor": "#000000",
                        "borderThick": 0,
                        "fontSize": 64,
                        "fontColor": "#000000",
                        "fontName": "Arial",
                        "backgroundPosX": 0,
                        "backgroundPosY": 0,
                        "backgroundSizeW": 100,
                        "backgroundSizeH": 100,
                        "popupID": -1
                    },
                    "textStyle": -1
                },
                {
                    "type": "CARD",
                    "subType": "whiteCard",
                    "classes": [],
                    "content": [
                        "But what if they raced a mile? That would be a different story. The cheetah would get tired and quit half way. But a horse could keep running for miles without tiring. It’s built for both speed and endurance."
                    ],
                    "x": 58.4,
                    "y": 53.49,
                    "w": 39,
                    "h": 27,
                    "eid": "instance5",
                    "extras": {
                        "alpha": 100,
                        "rotation": 0,
                        "flipH": false,
                        "flipV": false,
                        "orientation": 0,
                        "skewX": 0,
                        "skewY": 0,
                        "borderColor": "#000000",
                        "borderThick": 0,
                        "fontSize": 58,
                        "fontColor": "#4ed016",
                        "fontName": "Arial",
                        "backgroundPosX": 0,
                        "backgroundPosY": 0,
                        "backgroundSizeW": 100,
                        "backgroundSizeH": 100,
                        "popupID": -1
                    },
                    "textStyle": -1
                }
            ],
            "zoom": {
                "x1": 0,
                "y1": 0,
                "x2": 100,
                "y2": 100
            },
            "audio": "born2.mp3",
            "audioName": "born2.mp3",
            "backgroundAudioName": "backgroundMusic/Progress.mp3",
            "backgroundAudio": "Progress.mp3",
            "label": "3"
        },
        {
            "id": 3,
            "elements": [
                {
                    "type": "IMAGE",
                    "subType": "none",
                    "classes": [],
                    "content": [
                        "horse.jpg"
                    ],
                    "x": -6.01,
                    "y": -5.4,
                    "w": 133,
                    "h": 0,
                    "eid": "instance1",
                    "extras": {
                        "alpha": 100,
                        "rotation": 0,
                        "flipH": false,
                        "flipV": false,
                        "orientation": 0,
                        "skewX": 0,
                        "skewY": 0,
                        "borderColor": "#000000",
                        "borderThick": 0,
                        "fontSize": 16,
                        "fontColor": "#000000",
                        "fontName": "Arial",
                        "backgroundPosX": 0,
                        "backgroundPosY": 0,
                        "backgroundSizeW": 100,
                        "backgroundSizeH": 100,
                        "popupID": -1
                    },
                    "textStyle": -1
                },
                {
                    "type": "LINE",
                    "subType": "none",
                    "classes": [],
                    "content": [],
                    "x": 26.65,
                    "y": 28.77,
                    "w": 54.469999999999985,
                    "h": 57.48999999999998,
                    "eid": "instance3",
                    "extras": {
                        "alpha": 100,
                        "rotation": 0,
                        "flipH": false,
                        "flipV": false,
                        "orientation": 0,
                        "skewX": 0,
                        "skewY": 0,
                        "borderColor": "#e7cc23",
                        "borderThick": 5,
                        "fontSize": 16,
                        "fontColor": "#000000",
                        "fontName": "Arial",
                        "backgroundPosX": 0,
                        "backgroundPosY": 0,
                        "backgroundSizeW": 100,
                        "backgroundSizeH": 100,
                        "popupID": -1
                    },
                    "textStyle": -1
                },
                {
                    "type": "CARD",
                    "subType": "greenCard",
                    "classes": [],
                    "content": [
                        "Breathe Deep",
                        "A horse’s large lungs and heart pump oxygen-rich blood around its body. The oxygen provides energy for running fast over long distances. "
                    ],
                    "x": 2.54,
                    "y": 4.8,
                    "w": 45,
                    "h": 30,
                    "eid": "instance2",
                    "extras": {
                        "alpha": 100,
                        "rotation": 0,
                        "flipH": false,
                        "flipV": false,
                        "orientation": 0,
                        "skewX": 0,
                        "skewY": 0,
                        "borderColor": "#000000",
                        "borderThick": 0,
                        "fontSize": 65,
                        "fontColor": "#000000",
                        "fontName": "Arial",
                        "backgroundPosX": 0,
                        "backgroundPosY": 0,
                        "backgroundSizeW": 100,
                        "backgroundSizeH": 100,
                        "popupID": -1
                    },
                    "textStyle": -1
                }
            ],
            "zoom": {
                "x1": 0,
                "y1": 0,
                "x2": 100,
                "y2": 100
            },
            "audio": "born3.mp3",
            "audioName": "born3.mp3",
            "backgroundAudioName": "backgroundMusic/OldJazzRag.mp3",
            "backgroundAudio": "OldJazzRag.mp3",
            "label": "4"
        },
        {
            "id": 4,
            "elements": [
                {
                    "type": "IMAGE",
                    "subType": "none",
                    "classes": [],
                    "content": [
                        "horse.jpg"
                    ],
                    "x": -1.62,
                    "y": -17.96,
                    "w": 124,
                    "h": 0,
                    "eid": "instance1",
                    "extras": {
                        "alpha": 100,
                        "rotation": 0,
                        "flipH": false,
                        "flipV": false,
                        "orientation": 0,
                        "skewX": 0,
                        "skewY": 0,
                        "borderColor": "#000000",
                        "borderThick": 0,
                        "fontSize": 16,
                        "fontColor": "#000000",
                        "fontName": "Arial",
                        "backgroundPosX": 0,
                        "backgroundPosY": 0,
                        "backgroundSizeW": 100,
                        "backgroundSizeH": 100,
                        "popupID": -1
                    },
                    "textStyle": -1
                },
                {
                    "type": "LINE",
                    "subType": "none",
                    "classes": [],
                    "content": [],
                    "x": 28.04,
                    "y": 44.63,
                    "w": 40.23999999999994,
                    "h": 69.46000000000012,
                    "eid": "instance3",
                    "extras": {
                        "alpha": 100,
                        "rotation": 0,
                        "flipH": false,
                        "flipV": false,
                        "orientation": 0,
                        "skewX": 0,
                        "skewY": 0,
                        "borderColor": "#e7cc23",
                        "borderThick": 5,
                        "fontSize": 16,
                        "fontColor": "#000000",
                        "fontName": "Arial",
                        "backgroundPosX": 0,
                        "backgroundPosY": 0,
                        "backgroundSizeW": 100,
                        "backgroundSizeH": 100,
                        "popupID": -1
                    },
                    "textStyle": -1
                },
                {
                    "type": "CARD",
                    "subType": "greenCard",
                    "classes": [],
                    "content": [
                        "Standing Naps",
                        "Can you sleep standing up? A horse can! Its legs can lock into a standing position when it naps. That way it is always ready to run."
                    ],
                    "x": 10.67,
                    "y": 25.62,
                    "w": 26,
                    "h": 28,
                    "eid": "instance2",
                    "extras": {
                        "alpha": 100,
                        "rotation": 0,
                        "flipH": false,
                        "flipV": false,
                        "orientation": 0,
                        "skewX": 0,
                        "skewY": 0,
                        "borderColor": "#000000",
                        "borderThick": 0,
                        "fontSize": 44,
                        "fontColor": "#000000",
                        "fontName": "Arial",
                        "backgroundPosX": 0,
                        "backgroundPosY": 0,
                        "backgroundSizeW": 100,
                        "backgroundSizeH": 100,
                        "popupID": -1
                    },
                    "textStyle": -1
                }
            ],
            "zoom": {
                "x1": 6.759999999999977,
                "y1": 25.39000000000001,
                "x2": 82.78000000000023,
                "y2": 92.83000000000006
            },
            "audio": "born4.mp3",
            "audioName": "born4.mp3",
            "backgroundAudioName": "backgroundMusic/OldJazzRag.mp3",
            "backgroundAudio": "OldJazzRag.mp3",
            "label": "5"
        }
    ],
    "pageW": 480,
    "pageH": 270
}