<svg xmlns="http://www.w3.org/2000/svg" width="700" height="672.039" viewBox="0 0 700 672.039">
  <g id="Yes" transform="translate(-10592.96 -3920.388)" opacity="0.25" style="mix-blend-mode: multiply;isolation: isolate">
    <path id="Path_4974" data-name="Path 4974" d="M11250.311,4156.54c-11.023-33.951-3.605-77.616-24.17-105.875-20.771-28.543-64.736-34.891-93.277-55.661-28.26-20.571-47.764-60.532-81.715-71.557-32.76-10.637-71.877,9.879-108.182,9.879s-75.434-20.516-108.187-9.879c-33.951,11.025-53.459,50.986-81.719,71.553-28.543,20.772-72.5,27.12-93.273,55.66-20.568,28.258-13.152,71.927-24.176,105.878-10.637,32.76-42.65,63.564-42.65,99.87s32.014,67.109,42.65,99.867c11.023,33.951,3.607,77.619,24.176,105.875,20.771,28.543,64.73,34.891,93.273,55.662,28.26,20.569,47.768,60.53,81.719,71.555,32.76,10.638,71.877-9.877,108.188-9.877s75.422,20.515,108.182,9.877c33.951-11.024,53.455-50.985,81.719-71.553,28.545-20.773,72.492-27.117,93.264-55.659,20.57-28.261,13.156-71.927,24.18-105.88,10.637-32.758,42.65-63.562,42.65-99.867S11260.947,4189.3,11250.311,4156.54Zm-307.344,401.321c-166.494,0-301.461-134.955-301.461-301.453s134.967-301.454,301.461-301.454c166.479,0,301.461,134.962,301.461,301.454S11109.445,4557.861,10942.967,4557.861Z" transform="translate(-0.001 0)" fill="#009444"/>
    <g id="Group_336" data-name="Group 336" transform="translate(10652.053 3965.497)">
      <path id="Path_4975" data-name="Path 4975" d="M10916.474,4527.1c-160.416,0-290.914-130.5-290.914-290.914s130.5-290.909,290.914-290.909,290.912,130.5,290.912,290.909S11076.884,4527.1,10916.474,4527.1Zm0-579.029c-158.869,0-288.119,129.247-288.119,288.115s129.25,288.119,288.119,288.119,288.117-129.249,288.117-288.119S11075.339,3948.068,10916.474,3948.068Z" transform="translate(-10625.56 -3945.273)" fill="#009444"/>
    </g>
    <g id="Group_337" data-name="Group 337" transform="translate(10683.352 4117.672)">
      <path id="Path_4976" data-name="Path 4976" d="M10643.276,4096.661l-.449-3.665,468.088-63.773.451,3.666Z" transform="translate(-10642.827 -4029.223)" fill="#009444"/>
    </g>
    <g id="Group_338" data-name="Group 338" transform="translate(10683.352 4107.572)">
      <path id="Path_4977" data-name="Path 4977" d="M10643.276,4091.089l-.449-3.665,468.088-63.773.451,3.665Z" transform="translate(-10642.827 -4023.651)" fill="#009444"/>
    </g>
    <g id="Group_339" data-name="Group 339" transform="translate(10725.646 4325.331)">
      <path id="Path_4978" data-name="Path 4978" d="M10666.577,4207.291l-.418-3.669,468.607-59.841.422,3.67Z" transform="translate(-10666.159 -4143.781)" fill="#009444"/>
    </g>
    <g id="Group_340" data-name="Group 340" transform="translate(10725.646 4333.877)">
      <path id="Path_4979" data-name="Path 4979" d="M10666.577,4212.006l-.418-3.669,468.607-59.841.422,3.669Z" transform="translate(-10666.159 -4148.496)" fill="#009444"/>
    </g>
    <g id="Group_341" data-name="Group 341" transform="translate(10689.165 4151.551)">
      <path id="Path_4980" data-name="Path 4980" d="M10834.1,4065.85a5.963,5.963,0,0,1,6.191,2.586,5.628,5.628,0,0,1-.053,6.563l-57.506,90.817,7.111,55.515a5.667,5.667,0,0,1-1.23,4.331,5.908,5.908,0,0,1-4.078,2.309l-43.785,5.611a6.058,6.058,0,0,1-6.615-5.112l-7.113-55.516-78.738-73.361q-3.146-2.77-1.9-6.315a5.961,5.961,0,0,1,5.342-4.06l50.625-6.488a6.849,6.849,0,0,1,2.631.36,5.382,5.382,0,0,1,2.338,1.193l45.969,43.979,29.928-53.308a3.851,3.851,0,0,1,1.924-2.036,7.509,7.509,0,0,1,2.633-1.133Z" transform="translate(-10646.034 -4033.397)" fill="#009444"/>
      <path id="Path_4981" data-name="Path 4981" d="M10783.275,4224.162a6.06,6.06,0,0,1-6.615-5.111l-18.133-141.528a6.069,6.069,0,0,1,5.111-6.617l113.967-14.6a6.067,6.067,0,0,1,6.613,5.114l3.656,28.542a5.881,5.881,0,0,1-1.209,4.522,5.669,5.669,0,0,1-3.879,2.287l-65.682,8.415,2,15.638,56.105-7.189a6.06,6.06,0,0,1,6.615,5.116l3.605,28.146a5.893,5.893,0,0,1-1.209,4.525,5.679,5.679,0,0,1-3.877,2.286l-56.078,7.383,2.1,16.421,70.961-9.093a5.578,5.578,0,0,1,4.426,1.223,6.09,6.09,0,0,1,2.215,4.087l3.656,28.541a5.85,5.85,0,0,1-1.135,4.317,5.589,5.589,0,0,1-3.977,2.3Z" transform="translate(-10554.652 -4041.133)" fill="#009444"/>
      <path id="Path_4982" data-name="Path 4982" d="M10978.063,4169.979a44.768,44.768,0,0,1-11.605,17.977,64.564,64.564,0,0,1-20.42,12.749,112.667,112.667,0,0,1-28.395,7.112q-8.6,1.1-17.2,1.51t-17.168.114q-2-.141-3.5-.15a26.808,26.808,0,0,1-3.107-.2l.027.2q-5.8-.252-9.916-.619t-6.318-.481a5.815,5.815,0,0,1-3.377-1.553,6.032,6.032,0,0,1-1.99-3.124l-7.889-36.739a5.554,5.554,0,0,1,1.637-5.873,5.818,5.818,0,0,1,6.02-1.07,267.24,267.24,0,0,0,27.965,7.346q18.34,3.611,32.609,1.782,8.8-1.126,13.9-3.965t4.574-6.942q-.27-2.152-3.678-3.9-5.487-2.476-23.918-3.691-34.7-2.506-49.193-11.777-15.773-9.9-18.479-31.013-3.152-24.626,12.713-39.578t47.145-18.952a168.722,168.722,0,0,1,29.475-1q7.6.416,13.324.874t9.588,1.155a5.458,5.458,0,0,1,3.086,1.594,6.326,6.326,0,0,1,1.865,2.938l8.291,33.708a5.982,5.982,0,0,1-1.607,6.067,5.313,5.313,0,0,1-6.021,1.071q-6.439-2.156-13.41-3.848t-14.479-2.912a97.172,97.172,0,0,0-26.52-.774q-8.8,1.129-13.416,3.111t-4.186,5.3q.4,3.13,5.514,4.259,4.693,1,11.387,2.02a152.423,152.423,0,0,0,15.682,1.47q32.47,2.2,45.7,12.42,14.7,10.838,17.205,30.381A50.271,50.271,0,0,1,10978.063,4169.979Z" transform="translate(-10489.923 -4047.913)" fill="#009444"/>
    </g>
    <path id="Path_4983" data-name="Path 4983" d="M10816.011,4211.277l12.129,18.6,22.2.556-13.945,17.285,6.334,21.286-20.748-7.921-18.289,12.6,1.121-22.181-17.635-13.5,21.439-5.787Z" transform="translate(157.84 236.402)" fill="#009444"/>
    <path id="Path_4984" data-name="Path 4984" d="M10746.8,4217.684l7.354,11.276,13.457.336-8.453,10.477,3.838,12.9-12.574-4.8-11.086,7.639.68-13.445-10.687-8.182,12.994-3.507Z" transform="translate(110.827 241.61)" fill="#009444"/>
    <path id="Path_4985" data-name="Path 4985" d="M10873.838,4199.238l7.352,11.276,13.457.337-8.453,10.477,3.84,12.9-12.576-4.8-11.084,7.639.68-13.445-10.691-8.182,13-3.508Z" transform="translate(214.064 226.619)" fill="#009444"/>
    <path id="Path_4986" data-name="Path 4986" d="M10775.512,3967.688l12.225,18.541,22.205.44-13.855,17.357,6.443,21.254-20.789-7.814-18.223,12.7,1.008-22.187-17.707-13.408,21.412-5.9Z" transform="translate(125.039 38.439)" fill="#009444"/>
    <path id="Path_4987" data-name="Path 4987" d="M10709.61,3990.646l7.41,11.238,13.459.267-8.4,10.521,3.9,12.882-12.6-4.736-11.047,7.695.611-13.448-10.73-8.126,12.977-3.575Z" transform="translate(80.666 57.097)" fill="#009444"/>
    <path id="Path_4988" data-name="Path 4988" d="M10836.561,3972.188l7.41,11.238,13.459.267-8.4,10.521,3.9,12.883-12.6-4.736-11.045,7.7.609-13.448-10.73-8.127,12.977-3.575Z" transform="translate(183.837 42.097)" fill="#009444"/>
  </g>
</svg>
