{
  "sents": [
    {
      "template": "I live in a big _",
      "correct": "house",
      "words": ["car", "fish", "street", "tree"]
    },
    {
      "template": "I want to drive a _ around town",
      "correct": "car",
      "words": ["carrot", "bird", "jump", "flower"]
    },
    {
      "template": "I like to eat _ after school",
      "correct": "candy",
      "words": ["cars", "houses", "flowers", "breakfast"]
    },
    {
      "template": "The _ turn bright yellow before they shed after fall frosts.",
      "correct": "leaves",
      "words": ["lights", "seasons", "bikes", "lemons"]
    },
    {
      "template": "This is the more _ ski resort so you should be prepared for the cost.",
      "correct": "expensive",
      "words": ["beautiful", "lengthy", "experienced", "tasty"]
    }
  ]
}
