{
    "page": { "id": 4 },
    "elements": [
        {
          "type": "IMAGE",
          "subtype": "none",
          "classes": [],
          "content": ["test3.jpg"],
          "x": 11.62,
          "y": 11.57,
          "w": 81,
          "h": 0,
          "linkID": "",
          "extras": {
            "alpha": 100,
            "rotation": 0,
            "flipH": false,
            "flipV": false,
            "orientation": 0,
            "skewX": 0,
            "skewY": 0,
            "borderColor": "#000000",
            "borderThick": 5,
            "fontSize": 16,
            "fontColor": "#000000",
            "fontName": "Arial",
            "backgroundPosX": 0,
            "backgroundPosY": 0,
            "backgroundSizeW": 100,
            "backgroundSizeH": 100,
            "popupID": -1
          }
        },
        {
          "type": "TEXT",
          "subtype": "none",
          "classes": [],
          "content": [
            "Say something about the picture above to let the reader know what it is about!"
          ],
          "x": 47.5,
          "y": 65.33,
          "w": 53,
          "h": 0,
          "linkID": "",
          "extras": {
            "alpha": 100,
            "rotation": 0,
            "flipH": false,
            "flipV": false,
            "orientation": 4,
            "skewX": 0,
            "skewY": 0,
            "borderColor": "#000000",
            "borderThick": 0,
            "fontSize": 16,
            "fontColor": "#000000",
            "fontName": "Arial",
            "backgroundPosX": 0,
            "backgroundPosY": 0,
            "backgroundSizeW": 100,
            "backgroundSizeH": 100,
            "popupID": -1
          }
        }
      ]
}