{
	"textures": [
		{
			"image": "story1.png",
			"format": "RGBA8888",
			"size": {
				"w": 1383,
				"h": 836
			},
			"scale": 0.25,
			"frames": [
				{
					"filename": "1.jpg",
					"rotated": false,
					"trimmed": false,
					"sourceSize": {
						"w": 459,
						"h": 416
					},
					"spriteSourceSize": {
						"x": 0,
						"y": 0,
						"w": 459,
						"h": 416
					},
					"frame": {
						"x": 1,
						"y": 1,
						"w": 459,
						"h": 416
					}
				},
				{
					"filename": "2.jpg",
					"rotated": false,
					"trimmed": false,
					"sourceSize": {
						"w": 459,
						"h": 416
					},
					"spriteSourceSize": {
						"x": 0,
						"y": 0,
						"w": 459,
						"h": 416
					},
					"frame": {
						"x": 1,
						"y": 419,
						"w": 459,
						"h": 416
					}
				},
				{
					"filename": "3.jpg",
					"rotated": false,
					"trimmed": false,
					"sourceSize": {
						"w": 459,
						"h": 416
					},
					"spriteSourceSize": {
						"x": 0,
						"y": 0,
						"w": 459,
						"h": 416
					},
					"frame": {
						"x": 462,
						"y": 1,
						"w": 459,
						"h": 416
					}
				},
				{
					"filename": "4.jpg",
					"rotated": false,
					"trimmed": false,
					"sourceSize": {
						"w": 459,
						"h": 416
					},
					"spriteSourceSize": {
						"x": 0,
						"y": 0,
						"w": 459,
						"h": 416
					},
					"frame": {
						"x": 462,
						"y": 419,
						"w": 459,
						"h": 416
					}
				},
				{
					"filename": "5.jpg",
					"rotated": false,
					"trimmed": false,
					"sourceSize": {
						"w": 459,
						"h": 416
					},
					"spriteSourceSize": {
						"x": 0,
						"y": 0,
						"w": 459,
						"h": 416
					},
					"frame": {
						"x": 923,
						"y": 1,
						"w": 459,
						"h": 416
					}
				},
				{
					"filename": "6.jpg",
					"rotated": false,
					"trimmed": false,
					"sourceSize": {
						"w": 459,
						"h": 416
					},
					"spriteSourceSize": {
						"x": 0,
						"y": 0,
						"w": 459,
						"h": 416
					},
					"frame": {
						"x": 923,
						"y": 419,
						"w": 459,
						"h": 416
					}
				}
			]
		}
	],
	"meta": {
		"app": "https://www.codeandweb.com/texturepacker",
		"version": "3.0",
		"smartupdate": "$TexturePacker:SmartUpdate:2a43f331026bc58ef7e6ea22d2233a74:d4a56a0237283f3661296976ef102fb8:59aac6e4b22d6207eb55b774a8b1e712$"
	}
}
