{
  "data": [
    {
      "dragwords": "spicy,city,pencil,price,face,cider",
      "twords": "sweet, sour, salty",
      "correct": "spicy",
      "hint":"",
      "wrong":""
    },
    {
      "dragwords": "spicy,city,pencil,price,face,cider",
      "twords": "lemonade, fruit punch, juice",
      "correct": "cider"
    },
    {
      "dragwords": "spicy,city,pencil,price,face,cider",
      "twords": "town, village",
      "correct": "city"
    },
    {
      "dragwords": "spicy,city,pencil,price,face,cider",
      "twords": "neck, head, ear",
      "correct": "face"
    }
  ]
}
