{
  "textStyles": [
    { "id": 0, "name": "Shadow", "type": "", "classes": ["baseStyle","shadow1"] },
    { "id": 1, "name": "dang", "type": "", "classes": ["baseStyle","dang"] },
    { "id": 2, "name": "tomato", "type": "", "classes": ["baseStyle","tomato"] },
    { "id": 3, "name": "retro", "type": "", "classes": ["baseStyle","retro"] },
    { "id": 4, "name": "Neon 1", "type": "", "classes": ["baseStyle","neonbase", "neon1"] },
    { "id": 5, "name": "Neon 2", "type": "", "classes": ["baseStyle","neonbase", "neon2"] },
    { "id": 6, "name": "3D Text", "type": "", "classes": ["baseStyle","css-3d-text"] },
    { "id": 7, "name": "3D Text Blue", "type": "", "classes": ["baseStyle","blue3D"] },
    { "id": 8, "name": "Comic", "type": "", "classes": ["baseStyle","comic"] },
    { "id": 9, "name": "Blocks", "type": "", "classes": ["baseStyle","blocks"] }

  ]
}
