{
	"textures": [
		{
			"image": "icons.png",
			"format": "RGBA8888",
			"size": {
				"w": 238,
				"h": 547
			},
			"scale": 1,
			"frames": [
				{
					"filename": "11.png",
					"rotated": false,
					"trimmed": false,
					"sourceSize": {
						"w": 127,
						"h": 87
					},
					"spriteSourceSize": {
						"x": 0,
						"y": 0,
						"w": 127,
						"h": 87
					},
					"frame": {
						"x": 1,
						"y": 1,
						"w": 127,
						"h": 87
					}
				},
				{
					"filename": "5.png",
					"rotated": false,
					"trimmed": false,
					"sourceSize": {
						"w": 107,
						"h": 107
					},
					"spriteSourceSize": {
						"x": 0,
						"y": 0,
						"w": 107,
						"h": 107
					},
					"frame": {
						"x": 130,
						"y": 1,
						"w": 107,
						"h": 107
					}
				},
				{
					"filename": "2.png",
					"rotated": false,
					"trimmed": false,
					"sourceSize": {
						"w": 120,
						"h": 115
					},
					"spriteSourceSize": {
						"x": 0,
						"y": 0,
						"w": 120,
						"h": 115
					},
					"frame": {
						"x": 1,
						"y": 90,
						"w": 120,
						"h": 115
					}
				},
				{
					"filename": "1.png",
					"rotated": false,
					"trimmed": false,
					"sourceSize": {
						"w": 106,
						"h": 95
					},
					"spriteSourceSize": {
						"x": 0,
						"y": 0,
						"w": 106,
						"h": 95
					},
					"frame": {
						"x": 123,
						"y": 110,
						"w": 106,
						"h": 95
					}
				},
				{
					"filename": "9.png",
					"rotated": false,
					"trimmed": false,
					"sourceSize": {
						"w": 117,
						"h": 112
					},
					"spriteSourceSize": {
						"x": 0,
						"y": 0,
						"w": 117,
						"h": 112
					},
					"frame": {
						"x": 1,
						"y": 207,
						"w": 117,
						"h": 112
					}
				},
				{
					"filename": "4.png",
					"rotated": false,
					"trimmed": false,
					"sourceSize": {
						"w": 100,
						"h": 90
					},
					"spriteSourceSize": {
						"x": 0,
						"y": 0,
						"w": 100,
						"h": 90
					},
					"frame": {
						"x": 120,
						"y": 207,
						"w": 100,
						"h": 90
					}
				},
				{
					"filename": "10.png",
					"rotated": false,
					"trimmed": false,
					"sourceSize": {
						"w": 94,
						"h": 93
					},
					"spriteSourceSize": {
						"x": 0,
						"y": 0,
						"w": 94,
						"h": 93
					},
					"frame": {
						"x": 120,
						"y": 299,
						"w": 94,
						"h": 93
					}
				},
				{
					"filename": "8.png",
					"rotated": false,
					"trimmed": false,
					"sourceSize": {
						"w": 92,
						"h": 97
					},
					"spriteSourceSize": {
						"x": 0,
						"y": 0,
						"w": 92,
						"h": 97
					},
					"frame": {
						"x": 1,
						"y": 321,
						"w": 92,
						"h": 97
					}
				},
				{
					"filename": "6.png",
					"rotated": false,
					"trimmed": false,
					"sourceSize": {
						"w": 91,
						"h": 126
					},
					"spriteSourceSize": {
						"x": 0,
						"y": 0,
						"w": 91,
						"h": 126
					},
					"frame": {
						"x": 1,
						"y": 420,
						"w": 91,
						"h": 126
					}
				},
				{
					"filename": "7.png",
					"rotated": false,
					"trimmed": false,
					"sourceSize": {
						"w": 72,
						"h": 143
					},
					"spriteSourceSize": {
						"x": 0,
						"y": 0,
						"w": 72,
						"h": 143
					},
					"frame": {
						"x": 95,
						"y": 394,
						"w": 72,
						"h": 143
					}
				},
				{
					"filename": "3.png",
					"rotated": false,
					"trimmed": false,
					"sourceSize": {
						"w": 68,
						"h": 99
					},
					"spriteSourceSize": {
						"x": 0,
						"y": 0,
						"w": 68,
						"h": 99
					},
					"frame": {
						"x": 169,
						"y": 394,
						"w": 68,
						"h": 99
					}
				}
			]
		}
	],
	"meta": {
		"app": "https://www.codeandweb.com/texturepacker",
		"version": "3.0",
		"smartupdate": "$TexturePacker:SmartUpdate:20a5638a244151642252fbbd57474e22:19e1e45a8dab82ac6c467117f72ca6a4:b5c5bd7252d2048fecbb1bda1760f9ef$"
	}
}
