{
  "steps": [
    {
      "id": 0,
      "elements": [
        {
          "type": "SHAPE",
          "subType": "none",
          "classes": [],
          "content": [
            " M -50 -50 L 50 -50 L 50 50 L -50 50 L -50 -50 Z ",
            "square"
          ],
          "x": 50.2,
          "y": 49.62,
          "w": 70,
          "h": 50,
          "eid": "shape1",
          "extras": {
            "alpha": 100,
            "rotation": 0,
            "flipH": false,
            "flipV": false,
            "orientation": 0,
            "skewX": -1,
            "skewY": 0,
            "fade": 0,
            "borderColor": "#ff0000",
            "borderThick": 0,
            "borderRadius": 0,
            "borderStyle": { "label": "None", "params": [""] },
            "fontSize": 16,
            "fontColor": "#000000",
            "fontName": "Arial",
            "backgroundPosX": 0,
            "backgroundPosY": 0,
            "backgroundSizeW": 100,
            "backgroundSizeH": 100,
            "textCurve": { "label": "None", "path": "", "anchorX": "0" },
            "shapeStyle": {
              "styleName": "default",
              "strokeColor": "#ff0000",
              "strokeWidth": 0,
              "fillColor": "#bde180"
            },
            "popupID": -1,
            "backgroundColor": "#bde180"
          },
          "textStyle": -1
        },
        {
          "type": "IMAGE",
          "subType": "none",
          "classes": [],
          "content": [
            "https://research.teachingtextbooksapp.com/r/customTrackAdmin/presFiles/dashed.png"
          ],
          "x": 5.76,
          "y": -17.7,
          "w": 10,
          "h": 0,
          "eid": "image2",
          "extras": {
            "alpha": 100,
            "rotation": 0,
            "flipH": false,
            "flipV": false,
            "orientation": 0,
            "skewX": 0,
            "skewY": 0,
            "fade": 0,
            "borderColor": "#000000",
            "borderThick": 0,
            "borderRadius": 0,
            "borderStyle": { "label": "None", "params": [""] },
            "fontSize": 16,
            "fontColor": "#000000",
            "fontName": "Arial",
            "backgroundPosX": 0,
            "backgroundPosY": 0,
            "backgroundSizeW": 100,
            "backgroundSizeH": 100,
            "textCurve": { "label": "None", "path": "", "anchorX": "0" },
            "shapeStyle": {
              "styleName": "default",
              "strokeColor": "#ff0000",
              "strokeWidth": 1,
              "fillColor": "#ffffff"
            },
            "popupID": -1,
            "backgroundColor": "#ff00ff"
          },
          "textStyle": -1
        },
        {
          "type": "IMAGE",
          "subType": "none",
          "classes": [],
          "content": [
            "https://research.teachingtextbooksapp.com/r/customTrackAdmin/presFiles/dashed.png"
          ],
          "x": 82.85,
          "y": -23.85,
          "w": 10,
          "h": 0,
          "eid": "image2",
          "extras": {
            "alpha": 100,
            "rotation": 0,
            "flipH": false,
            "flipV": false,
            "orientation": 0,
            "skewX": 0,
            "skewY": 0,
            "fade": 0,
            "borderColor": "#000000",
            "borderThick": 0,
            "borderRadius": 0,
            "borderStyle": { "label": "None", "params": [""] },
            "fontSize": 16,
            "fontColor": "#000000",
            "fontName": "Arial",
            "backgroundPosX": 0,
            "backgroundPosY": 0,
            "backgroundSizeW": 100,
            "backgroundSizeH": 100,
            "textCurve": { "label": "None", "path": "", "anchorX": "0" },
            "shapeStyle": {
              "styleName": "default",
              "strokeColor": "#ff0000",
              "strokeWidth": 1,
              "fillColor": "#ffffff"
            },
            "popupID": -1,
            "backgroundColor": "#ff00ff"
          },
          "textStyle": -1
        },
        {
          "type": "IMAGE",
          "subType": "none",
          "classes": [],
          "content": [
            "https://research.teachingtextbooksapp.com/r/customTrackAdmin/presFiles/LichensCover.png"
          ],
          "x": 34.17,
          "y": 30.45,
          "w": 30,
          "h": 0,
          "eid": "image3",
          "extras": {
            "alpha": 100,
            "rotation": 0,
            "flipH": false,
            "flipV": false,
            "orientation": 0,
            "skewX": 0,
            "skewY": 0,
            "fade": 0,
            "borderColor": "#000000",
            "borderThick": 0,
            "borderRadius": 0,
            "borderStyle": { "label": "None", "params": [""] },
            "fontSize": 16,
            "fontColor": "#000000",
            "fontName": "Arial",
            "backgroundPosX": 0,
            "backgroundPosY": 0,
            "backgroundSizeW": 100,
            "backgroundSizeH": 100,
            "textCurve": { "label": "None", "path": "", "anchorX": "0" },
            "shapeStyle": {
              "styleName": "default",
              "strokeColor": "#ff0000",
              "strokeWidth": 1,
              "fillColor": "#ffffff"
            },
            "popupID": -1,
            "backgroundColor": "#ff00ff"
          },
          "textStyle": -1
        },
        {
          "type": "TEXT",
          "subType": "none",
          "classes": [],
          "content": ["A Liking For"],
          "x": 45.63,
          "y": 58.59,
          "w": 38,
          "h": 0,
          "eid": "text4",
          "extras": {
            "alpha": 100,
            "rotation": -7,
            "flipH": false,
            "flipV": false,
            "orientation": 4,
            "skewX": 0,
            "skewY": 0,
            "fade": 0,
            "borderColor": "#000000",
            "borderThick": 0,
            "borderRadius": 0,
            "borderStyle": { "label": "None", "params": [""] },
            "fontSize": 64,
            "fontColor": "#000000",
            "fontName": "Andika",
            "backgroundPosX": 0,
            "backgroundPosY": 0,
            "backgroundSizeW": 100,
            "backgroundSizeH": 100,
            "textCurve": {
              "label": "Curve",
              "path": "M73.2,148.6c4-6.1,65.5-96.8,178.6-95.6c111.3,1.2,170.8,90.3,175.1,97",
              "anchorX": "210"
            },
            "shapeStyle": {
              "styleName": "default",
              "strokeColor": "#ff0000",
              "strokeWidth": 1,
              "fillColor": "#ffffff"
            },
            "popupID": -1,
            "backgroundColor": "#ff00ff"
          },
          "textStyle": -1
        },
        {
          "type": "TEXT",
          "subType": "none",
          "classes": [],
          "content": ["Lichens"],
          "x": 57.46,
          "y": 87.87,
          "w": 32,
          "h": 0,
          "eid": "text5",
          "extras": {
            "alpha": 100,
            "rotation": -7,
            "flipH": false,
            "flipV": false,
            "orientation": 4,
            "skewX": 0,
            "skewY": 0,
            "fade": 0,
            "borderColor": "#000000",
            "borderThick": 0,
            "borderRadius": 0,
            "borderStyle": { "label": "None", "params": [""] },
            "fontSize": 70,
            "fontColor": "#000000",
            "fontName": "Andika",
            "backgroundPosX": 0,
            "backgroundPosY": 0,
            "backgroundSizeW": 100,
            "backgroundSizeH": 100,
            "textCurve": {
              "label": "Curve-Down",
              "path": "M 0 0 C 37.5 56.25 306.25 156.25 612.5 -37.5",
              "anchorX": "250"
            },
            "shapeStyle": {
              "styleName": "default",
              "strokeColor": "#ff0000",
              "strokeWidth": 1,
              "fillColor": "#ffffff"
            },
            "popupID": -1,
            "backgroundColor": "#ff00ff"
          },
          "textStyle": -1
        },
        {
          "type": "TEXT",
          "subType": "none",
          "classes": [],
          "content": ["By Lisa Spencer"],
          "x": 60.14,
          "y": 91.06,
          "w": 28,
          "h": 0,
          "eid": "text6",
          "extras": {
            "alpha": 100,
            "rotation": 0,
            "flipH": false,
            "flipV": false,
            "orientation": 4,
            "skewX": 0,
            "skewY": 0,
            "fade": 0,
            "borderColor": "#000000",
            "borderThick": 0,
            "borderRadius": 0,
            "borderStyle": { "label": "None", "params": [""] },
            "fontSize": 8,
            "fontColor": "#000000",
            "fontName": "Arial",
            "backgroundPosX": 0,
            "backgroundPosY": 0,
            "backgroundSizeW": 100,
            "backgroundSizeH": 100,
            "textCurve": { "label": "None", "path": "", "anchorX": "0" },
            "shapeStyle": {
              "styleName": "default",
              "strokeColor": "#ff0000",
              "strokeWidth": 1,
              "fillColor": "#ffffff"
            },
            "popupID": -1,
            "backgroundColor": "#ff00ff"
          },
          "textStyle": -1
        }
      ],
      "zoom": { "x1": 0, "y1": 0, "x2": 100, "y2": 100 },
      "audio": "",
      "audioName": "",
      "backgroundAudioName": "",
      "backgroundAudio": "",
      "label": "0"
    },
    {
      "id": 2,
      "elements": [
        {
          "type": "SHAPE",
          "subType": "none",
          "classes": [],
          "content": [
            " M -50 -50 L 50 -50 L 50 50 L -50 50 L -50 -50 Z ",
            "square"
          ],
          "x": 50.2,
          "y": 49.62,
          "w": 70,
          "h": 50,
          "eid": "shape1",
          "extras": {
            "alpha": 100,
            "rotation": 0,
            "flipH": false,
            "flipV": false,
            "orientation": 0,
            "skewX": -1,
            "skewY": 0,
            "fade": 0,
            "borderColor": "#ff0000",
            "borderThick": 0,
            "borderRadius": 0,
            "borderStyle": { "label": "None", "params": [""] },
            "fontSize": 16,
            "fontColor": "#000000",
            "fontName": "Arial",
            "backgroundPosX": 0,
            "backgroundPosY": 0,
            "backgroundSizeW": 100,
            "backgroundSizeH": 100,
            "textCurve": { "label": "None", "path": "", "anchorX": "0" },
            "shapeStyle": {
              "styleName": "default",
              "strokeColor": "#ff0000",
              "strokeWidth": 0,
              "fillColor": "#bde180"
            },
            "popupID": -1,
            "backgroundColor": "#bde180"
          },
          "textStyle": -1
        },
        {
          "type": "IMAGE",
          "subType": "none",
          "classes": [],
          "content": [
            "https://research.teachingtextbooksapp.com/r/customTrackAdmin/presFiles/dashed.png"
          ],
          "x": 5.76,
          "y": -17.7,
          "w": 10,
          "h": 0,
          "eid": "image2",
          "extras": {
            "alpha": 100,
            "rotation": 0,
            "flipH": false,
            "flipV": false,
            "orientation": 0,
            "skewX": 0,
            "skewY": 0,
            "fade": 0,
            "borderColor": "#000000",
            "borderThick": 0,
            "borderRadius": 0,
            "borderStyle": { "label": "None", "params": [""] },
            "fontSize": 16,
            "fontColor": "#000000",
            "fontName": "Arial",
            "backgroundPosX": 0,
            "backgroundPosY": 0,
            "backgroundSizeW": 100,
            "backgroundSizeH": 100,
            "textCurve": { "label": "None", "path": "", "anchorX": "0" },
            "shapeStyle": {
              "styleName": "default",
              "strokeColor": "#ff0000",
              "strokeWidth": 1,
              "fillColor": "#ffffff"
            },
            "popupID": -1,
            "backgroundColor": "#ff00ff"
          },
          "textStyle": -1
        },
        {
          "type": "IMAGE",
          "subType": "none",
          "classes": [],
          "content": [
            "https://research.teachingtextbooksapp.com/r/customTrackAdmin/presFiles/LichensCover.png"
          ],
          "x": 66.15,
          "y": 20.62,
          "w": 30,
          "h": 0,
          "eid": "image3",
          "extras": {
            "alpha": 100,
            "rotation": 0,
            "flipH": false,
            "flipV": false,
            "orientation": 0,
            "skewX": 0,
            "skewY": 0,
            "fade": 0,
            "borderColor": "#000000",
            "borderThick": 0,
            "borderRadius": 0,
            "borderStyle": { "label": "None", "params": [""] },
            "fontSize": 16,
            "fontColor": "#000000",
            "fontName": "Arial",
            "backgroundPosX": 0,
            "backgroundPosY": 0,
            "backgroundSizeW": 100,
            "backgroundSizeH": 100,
            "textCurve": { "label": "None", "path": "", "anchorX": "0" },
            "shapeStyle": {
              "styleName": "default",
              "strokeColor": "#ff0000",
              "strokeWidth": 1,
              "fillColor": "#ffffff"
            },
            "popupID": -1,
            "backgroundColor": "#ff00ff"
          },
          "textStyle": -1
        },
        {
          "type": "TEXT",
          "subType": "none",
          "classes": [],
          "content": ["Lichens"],
          "x": 79.98,
          "y": 32.03,
          "w": 32,
          "h": 0,
          "eid": "text5",
          "extras": {
            "alpha": 100,
            "rotation": -7,
            "flipH": false,
            "flipV": false,
            "orientation": 4,
            "skewX": 0,
            "skewY": 0,
            "fade": 0,
            "borderColor": "#000000",
            "borderThick": 0,
            "borderRadius": 0,
            "borderStyle": { "label": "None", "params": [""] },
            "fontSize": 70,
            "fontColor": "#000000",
            "fontName": "Andika",
            "backgroundPosX": 0,
            "backgroundPosY": 0,
            "backgroundSizeW": 100,
            "backgroundSizeH": 100,
            "textCurve": {
              "label": "Curve-Down",
              "path": "M 0 0 C 37.5 56.25 306.25 156.25 612.5 -37.5",
              "anchorX": "250"
            },
            "shapeStyle": {
              "styleName": "default",
              "strokeColor": "#ff0000",
              "strokeWidth": 1,
              "fillColor": "#ffffff"
            },
            "popupID": -1,
            "backgroundColor": "#ff00ff"
          },
          "textStyle": -1
        }
      ],
      "zoom": { "x1": 0, "y1": 0, "x2": 100, "y2": 100 },
      "audio": "",
      "audioName": "",
      "backgroundAudioName": "",
      "backgroundAudio": "",
      "label": "2"
    }
  ],
  "pageW": 480,
  "pageH": 270,
  "attribution": "",
  "bgColor": "#5ea453"
}
