<svg xmlns="http://www.w3.org/2000/svg" xmlns:xlink="http://www.w3.org/1999/xlink" width="64" height="349" viewBox="0 0 64 349">
  <defs>
    <filter id="Rectangle_91" x="0" y="13" width="64" height="332" filterUnits="userSpaceOnUse">
      <feOffset dx="2" dy="3" input="SourceAlpha"/>
      <feGaussianBlur stdDeviation="1" result="blur"/>
      <feFlood flood-opacity="0.4"/>
      <feComposite operator="in" in2="blur"/>
      <feComposite in="SourceGraphic"/>
    </filter>
    <filter id="slide">
      <feOffset dx="5" dy="5" input="SourceAlpha"/>
      <feGaussianBlur stdDeviation="5" result="blur-2"/>
      <feFlood flood-opacity="0.702" result="color"/>
      <feComposite operator="out" in="SourceGraphic" in2="blur-2"/>
      <feComposite operator="in" in="color"/>
      <feComposite operator="in" in2="SourceGraphic"/>
    </filter>
  </defs>
  <g id="Voice_Slider_Frame" data-name="Voice Slider Frame" transform="translate(-1874 -1649)">
    <g transform="matrix(1, 0, 0, 1, 1874, 1649)" filter="url(#Rectangle_91)">
      <rect id="Rectangle_91-2" data-name="Rectangle 91" width="58" height="326" rx="29" transform="translate(1 13)" fill="#3a5e88"/>
    </g>
    <g data-type="innerShadowGroup">
      <rect id="slide-2" data-name="slide" width="260" height="30" rx="15" transform="translate(1919 1698) rotate(90)" fill="#fff"/>
      <g transform="matrix(1, 0, 0, 1, 1874, 1649)" filter="url(#slide)">
        <rect id="slide-3" data-name="slide" width="260" height="30" rx="15" transform="translate(45 49) rotate(90)" fill="#fff"/>
      </g>
    </g>
    <text id="_" data-name="+" transform="translate(1904 1692)" fill="#fff" font-size="35" font-family="AndikaNewBasic-Regular, Andika New Basic"><tspan x="-10.254" y="0">+</tspan></text>
    <text id="_-" data-name="-" transform="translate(1904 1984)" fill="#fff" font-size="35" font-family="AndikaNewBasic-Regular, Andika New Basic"><tspan x="-7.349" y="0">-</tspan></text>
  </g>
</svg>
