[
  {
    "title": "Fresh and Cool",
    "image": "backgroundMusic/FreshAndCool.mp3",
    "tags": []
  },
  {
    "title": "March Hauser",
    "image": "backgroundMusic/March-Hauser.mp3",
    "tags": []
  },
  {
    "title": "Medieval Dance",
    "image": "backgroundMusic/MedievalDance.mp3",
    "tags": []
  },
  {
    "title": "Old Jazz Rag",
    "image": "backgroundMusic/OldJazzRag.mp3",
    "tags": []
  },
  {
    "title": "Old Tyme Fun",
    "image": "backgroundMusic/OldTymeFun.mp3",
    "tags": []
  },
  { "title": "Progress", "image": "backgroundMusic/Progress.mp3", "tags": [] },
  {"title":"Stars","image":"backgroundMusic/ObservingTheStar.mp3","tags":[]}
]