<svg xmlns="http://www.w3.org/2000/svg" xmlns:xlink="http://www.w3.org/1999/xlink" width="88" height="88" viewBox="0 0 88 88">
  <defs>
    <radialGradient id="radial-gradient" cx="0.5" cy="0.5" r="0.5" gradientUnits="objectBoundingBox">
      <stop offset="0" stop-color="#ffd980"/>
      <stop offset="1" stop-color="#be7800"/>
    </radialGradient>
    <filter id="Ellipse_1" x="0" y="0" width="88" height="88" filterUnits="userSpaceOnUse">
      <feOffset dx="5" dy="5" input="SourceAlpha"/>
      <feGaussianBlur stdDeviation="3" result="blur"/>
      <feFlood flood-opacity="0.4"/>
      <feComposite operator="in" in2="blur"/>
      <feComposite in="SourceGraphic"/>
    </filter>
  </defs>
  <g id="Go_to_End_sownstate" data-name="Go to End sownstate" transform="translate(-1431 -237)">
    <g transform="matrix(1, 0, 0, 1, 1431, 237)" filter="url(#Ellipse_1)">
      <g id="Ellipse_1-2" data-name="Ellipse 1" transform="translate(4 4)" stroke="#fff" stroke-width="5" fill="url(#radial-gradient)">
        <circle cx="35" cy="35" r="35" stroke="none"/>
        <circle cx="35" cy="35" r="32.5" fill="none"/>
      </g>
    </g>
    <g id="SKip_forward_symbol" data-name="SKip forward symbol" transform="translate(-0.2 -1)">
      <path id="Polygon_2" data-name="Polygon 2" d="M15.75,0,31.5,27H0Z" transform="translate(1480.2 261) rotate(90)" fill="#fff"/>
      <line id="Line_7" data-name="Line 7" y2="27" transform="translate(1486.5 263.5)" fill="none" stroke="#fff" stroke-linecap="round" stroke-width="4"/>
    </g>
  </g>
</svg>
