<svg xmlns="http://www.w3.org/2000/svg" xmlns:xlink="http://www.w3.org/1999/xlink" width="1938" height="188" viewBox="0 0 1938 188">
  <defs>
    <filter id="Top_Menu_Bar" x="0" y="0" width="1938" height="188" filterUnits="userSpaceOnUse">
      <feOffset dx="5" dy="5" input="SourceAlpha"/>
      <feGaussianBlur stdDeviation="3" result="blur"/>
      <feFlood flood-opacity="0.4"/>
      <feComposite operator="in" in2="blur"/>
      <feComposite in="SourceGraphic"/>
    </filter>
  </defs>
  <g id="Top_Menu_Up" data-name="Top Menu Up" transform="translate(-2905 -2090)">
    <g transform="matrix(1, 0, 0, 1, 2905, 2090)" filter="url(#Top_Menu_Bar)">
      <path id="Top_Menu_Bar-2" data-name="Top Menu Bar" d="M137,170a20,20,0,0,1-20-20V110H227v40a20,20,0,0,1-20,20ZM0,110V0H1920V110Z" transform="translate(4 4)" fill="#dbaa37"/>
    </g>
    <g id="Up_Down_arrow" data-name="Up/Down arrow" transform="translate(3052.876 2214.939)">
      <g id="Line_1" data-name="Line 1" transform="translate(0 0.011)" fill="none" stroke-linecap="round">
        <path d="M27.611,7.05,7.05,31.05" stroke="none"/>
        <path d="M 27.61353874206543 2.049957275390625 C 27.26114654541016 2.049957275390625 26.90929794311523 2.086999893188477 26.56429290771484 2.160602569580078 C 26.21928977966309 2.234203338623047 25.88113021850586 2.344362258911133 25.55611419677734 2.490596771240234 C 25.23109817504883 2.636831283569336 24.91922569274902 2.819141387939453 24.62679672241211 3.037040710449219 C 24.33436584472656 3.254940032958984 24.06137847900391 3.508432388305664 23.81413269042969 3.797029495239258 L 3.252962112426758 27.79702949523926 C 2.803814888000488 28.32129669189453 2.482177734375 28.91177368164062 2.285134792327881 29.53066253662109 C 2.088091850280762 30.14955139160156 2.015642642974854 30.79685020446777 2.064870834350586 31.43476104736328 C 2.114099025726318 32.07266998291016 2.285004615783691 32.70119094848633 2.574670314788818 33.28252029418945 C 2.864336013793945 33.86384963989258 3.272762298583984 34.39798736572266 3.797032117843628 34.84713745117188 C 4.032702922821045 35.04904174804688 4.281764984130859 35.22518157958984 4.540778636932373 35.37582015991211 C 4.799792289733887 35.52645874023438 5.0687575340271 35.65159606933594 5.344234943389893 35.75149536132812 C 5.619712352752686 35.85139465332031 5.901701927185059 35.92605590820312 6.186763286590576 35.97574234008789 C 6.471825122833252 36.02542877197266 6.759959697723389 36.05014038085938 7.047726631164551 36.05014038085938 C 7.400118827819824 36.05014038085938 7.751966953277588 36.01309967041016 8.096970558166504 35.93949508666992 C 8.441974639892578 35.86589431762695 8.780134201049805 35.75573348999023 9.10515022277832 35.60950088500977 C 9.430167198181152 35.46326446533203 9.742039680480957 35.28095626831055 10.03446960449219 35.06305694580078 C 10.32690048217773 34.84515762329102 10.59988784790039 34.59166717529297 10.84713172912598 34.30307006835938 L 31.40830230712891 10.30306816101074 C 31.85745048522949 9.778800964355469 32.1790885925293 9.188323974609375 32.37612915039062 8.569435119628906 C 32.57317352294922 7.950546264648438 32.64562225341797 7.303245544433594 32.59639358520508 6.665336608886719 C 32.54716491699219 6.027427673339844 32.37625885009766 5.398908615112305 32.08659362792969 4.817577362060547 C 31.79693031311035 4.236248016357422 31.38850402832031 3.702108383178711 30.86423301696777 3.252958297729492 C 30.62856292724609 3.051055908203125 30.37950134277344 2.874917984008789 30.12048721313477 2.724281311035156 C 29.86147308349609 2.573642730712891 29.59250640869141 2.448505401611328 29.31702995300293 2.348606109619141 C 29.04155349731445 2.248706817626953 28.75956344604492 2.174043655395508 28.47450256347656 2.124355316162109 C 28.18943977355957 2.074668884277344 27.90130615234375 2.049957275390625 27.61353874206543 2.049957275390625 Z" stroke="none" fill="#fff"/>
      </g>
      <g id="Line_2" data-name="Line 2" transform="translate(20.55)" fill="none" stroke-linecap="round">
        <path d="M7.061,7.061l21.589,24" stroke="none"/>
        <path d="M 7.059648513793945 2.061235427856445 C 6.761809825897217 2.061235427856445 6.463714599609375 2.087688446044922 6.169177055358887 2.140798568725586 C 5.874639511108398 2.19390869140625 5.583659648895264 2.273674011230469 5.300051689147949 2.380300521850586 C 5.016443729400635 2.486927032470703 4.740207672119141 2.620410919189453 4.475157737731934 2.780956268310547 C 4.210107803344727 2.941501617431641 3.956244230270386 3.129108428955078 3.717381238937378 3.343978881835938 C 3.204128742218018 3.805675506591797 2.808740615844727 4.349536895751953 2.533218860626221 4.937702178955078 C 2.257697105407715 5.52586555480957 2.102042198181152 6.158332824707031 2.068256378173828 6.797245025634766 C 2.034470081329346 7.4361572265625 2.122552871704102 8.081514358520508 2.334506034851074 8.695457458496094 C 2.546459674835205 9.309398651123047 2.882284164428711 9.891925811767578 3.343981266021729 10.40517997741699 L 24.93320083618164 34.40517807006836 C 25.18002700805664 34.67956924438477 25.45034027099609 34.92027282714844 25.73835372924805 35.12698364257812 C 26.0263671875 35.33369445800781 26.33208084106445 35.50641250610352 26.64970779418945 35.64483642578125 C 26.96733474731445 35.78325653076172 27.296875 35.88737869262695 27.63254165649414 35.95689392089844 C 27.96820831298828 36.02641296386719 28.31000137329102 36.06132507324219 28.65213394165039 36.06132507324219 C 28.94997215270996 36.06132507324219 29.24806594848633 36.03487014770508 29.54260444641113 35.98175811767578 C 29.83714294433594 35.92864990234375 30.12812423706055 35.84888458251953 30.4117317199707 35.74225616455078 C 30.69533920288086 35.6356315612793 30.9715747833252 35.50214767456055 31.23662567138672 35.34160232543945 C 31.50167465209961 35.18105697631836 31.75553894042969 34.99345016479492 31.9944019317627 34.77857971191406 C 32.50765228271484 34.3168830871582 32.90304183959961 33.77302169799805 33.17856597900391 33.18485641479492 C 33.45408630371094 32.5966911315918 33.6097412109375 31.96422386169434 33.64352416992188 31.3253116607666 C 33.67731094360352 30.68639945983887 33.58922958374023 30.04104232788086 33.37727737426758 29.42710113525391 C 33.16532135009766 28.81315803527832 32.82949829101562 28.23063278198242 32.36780166625977 27.71737861633301 L 10.7785816192627 3.717378616333008 C 10.53175449371338 3.442989349365234 10.26144123077393 3.202285766601562 9.973427772521973 2.995574951171875 C 9.685415267944336 2.788864135742188 9.379701614379883 2.616146087646484 9.062074661254883 2.477724075317383 C 8.744447708129883 2.339302062988281 8.414908409118652 2.235179901123047 8.079241752624512 2.16566276550293 C 7.743575096130371 2.096145629882812 7.401781558990479 2.061235427856445 7.059648513793945 2.061235427856445 Z" stroke="none" fill="#fff"/>
      </g>
    </g>
  </g>
</svg>
