<svg xmlns="http://www.w3.org/2000/svg" xmlns:xlink="http://www.w3.org/1999/xlink" width="106" height="413" viewBox="0 0 106 413">
  <defs>
    <filter id="Union_5" x="0" y="0" width="106" height="413" filterUnits="userSpaceOnUse">
      <feOffset dx="2" dy="5" input="SourceAlpha"/>
      <feGaussianBlur stdDeviation="1" result="blur"/>
      <feFlood flood-opacity="0.4"/>
      <feComposite operator="in" in2="blur"/>
      <feComposite in="SourceGraphic"/>
    </filter>
  </defs>
  <g id="Voice_Slider_BG" data-name="Voice Slider BG" transform="translate(-3025 -4806)">
    <g transform="matrix(1, 0, 0, 1, 3025, 4806)" filter="url(#Union_5)">
      <path id="Union_5-2" data-name="Union 5" d="M38.511,440.326a151.226,151.226,0,0,0-18.848-13.874q-.716-.423-1.412-.875l-.126-.076h.009A39.966,39.966,0,0,1,0,392V96A40,40,0,0,1,40,56H60a40,40,0,0,1,40,40V392a39.966,39.966,0,0,1-18.134,33.5h.009s-11.832,7.789-20.608,14.826S53.663,461,50,461,47.189,448.114,38.511,440.326Z" transform="translate(1 -56)" fill="#fff"/>
    </g>
  </g>
</svg>
