{
  "words": [
    {
      "startword":"rib",
      "endword": "bib",
      "letters": "sbt"
    },
    {
      "startword":"pip",
      "endword": "rip",
      "letters": "rst"
    },
    {
      "startword":"car",
      "endword": "cat",
      "letters": "ept"
    },
    {
      "startword":"oil",
      "endword": "owl",
      "letters": "two"
    }
  ]
}
