{
    "steps": [
        {
            "id": 0,
            "elements": [
                {
                    "type": "IMAGE",
                    "subType": "none",
                    "classes": [],
                    "content": [
                        "cheetah.svg"
                    ],
                    "x": 3.67,
                    "y": 12.67,
                    "w": 20,
                    "h": 0,
                    "eid": "image1",
                    "extras": {
                        "alpha": 100,
                        "rotation": 0,
                        "flipH": false,
                        "flipV": false,
                        "orientation": 0,
                        "skewX": 0,
                        "skewY": 0,
                        "borderColor": "#000000",
                        "borderThick": 0,
                        "fontSize": 16,
                        "fontColor": "#000000",
                        "fontName": "Arial",
                        "backgroundPosX": 0,
                        "backgroundPosY": 0,
                        "backgroundSizeW": 100,
                        "backgroundSizeH": 100,
                        "shapeStyle": {
                            "styleName": "default",
                            "strokeColor": "#ff0000",
                            "strokeWidth": 1,
                            "fillColor": "#ffffff"
                        },
                        "popupID": -1,
                        "backgroundColor": "#ff00ff"
                    },
                    "textStyle": -1
                },
                {
                    "type": "SHAPE",
                    "subType": "none",
                    "classes": [],
                    "content": [
                        " M -44.223 0.508 L 0.338 50 L 44.102 0.508 C 44.102 0.508 44.102 0.508 44.102 0.505 C 52.789 -11.897 51.779 -29.499 41.739 -40.594 C 31.703 -51.686 15.77 -52.816 4.534 -43.227 C 1.824 -40.916 0.336 -39.642 0.336 -39.642 C 0.336 -39.642 -1.168 -40.943 -3.896 -43.301 C -15.175 -53.055 -31.254 -52.057 -41.472 -40.963 C -51.687 -29.873 -52.871 -12.133 -44.237 0.492 C -44.231 0.503 -44.227 0.508 -44.227 0.508 L -44.223 0.508 Z ",
                        "heart"
                    ],
                    "x": 13.84,
                    "y": 56.96,
                    "w": 100,
                    "h": 50,
                    "eid": "shape2",
                    "extras": {
                        "alpha": 20,
                        "rotation": -20,
                        "flipH": false,
                        "flipV": false,
                        "orientation": 0,
                        "skewX": 0,
                        "skewY": 0,
                        "borderColor": "blue",
                        "borderThick": 1,
                        "fontSize": 16,
                        "fontColor": "#000000",
                        "fontName": "Arial",
                        "backgroundPosX": 0,
                        "backgroundPosY": 0,
                        "backgroundSizeW": 100,
                        "backgroundSizeH": 100,
                        "shapeStyle": {
                            "styleName": "default",
                            "strokeColor": "#ff0000",
                            "strokeWidth": 1,
                            "fillColor": "#ffffff"
                        },
                        "popupID": -1,
                        "backgroundColor": "red"
                    },
                    "textStyle": -1
                }
            ],
            "zoom": {
                "x1": 0,
                "y1": 0,
                "x2": 100,
                "y2": 100
            },
            "audio": "",
            "audioName": "",
            "backgroundAudioName": "",
            "backgroundAudio": "",
            "label": "0"
        },
        {
            "id": 1,
            "elements": [
                {
                    "type": "IMAGE",
                    "subType": "none",
                    "classes": [],
                    "content": [
                        "cheetah.svg"
                    ],
                    "x": 69.7,
                    "y": 13.25,
                    "w": 20,
                    "h": 0,
                    "eid": "image1",
                    "extras": {
                        "alpha": 100,
                        "rotation": 0,
                        "flipH": false,
                        "flipV": false,
                        "orientation": 0,
                        "skewX": 0,
                        "skewY": 0,
                        "borderColor": "#000000",
                        "borderThick": 0,
                        "fontSize": 16,
                        "fontColor": "#000000",
                        "fontName": "Arial",
                        "backgroundPosX": 0,
                        "backgroundPosY": 0,
                        "backgroundSizeW": 100,
                        "backgroundSizeH": 100,
                        "shapeStyle": {
                            "styleName": "default",
                            "strokeColor": "#ff0000",
                            "strokeWidth": 1,
                            "fillColor": "#ffffff"
                        },
                        "popupID": -1,
                        "backgroundColor": "#ff00ff"
                    },
                    "textStyle": -1
                },
                {
                    "type": "SHAPE",
                    "subType": "none",
                    "classes": [],
                    "content": [
                        " M -44.223 0.508 L 0.338 50 L 44.102 0.508 C 44.102 0.508 44.102 0.508 44.102 0.505 C 52.789 -11.897 51.779 -29.499 41.739 -40.594 C 31.703 -51.686 15.77 -52.816 4.534 -43.227 C 1.824 -40.916 0.336 -39.642 0.336 -39.642 C 0.336 -39.642 -1.168 -40.943 -3.896 -43.301 C -15.175 -53.055 -31.254 -52.057 -41.472 -40.963 C -51.687 -29.873 -52.871 -12.133 -44.237 0.492 C -44.231 0.503 -44.227 0.508 -44.227 0.508 L -44.223 0.508 Z ",
                        "heart"
                    ],
                    "x": 79.54,
                    "y": 66.18,
                    "w": 100,
                    "h": 50,
                    "eid": "shape2",
                    "extras": {
                        "alpha": 100,
                        "rotation": 20,
                        "flipH": false,
                        "flipV": false,
                        "orientation": 0,
                        "skewX": 0,
                        "skewY": 0,
                        "borderColor": "blue",
                        "borderThick": 1,
                        "fontSize": 16,
                        "fontColor": "#000000",
                        "fontName": "Arial",
                        "backgroundPosX": 0,
                        "backgroundPosY": 0,
                        "backgroundSizeW": 100,
                        "backgroundSizeH": 100,
                        "shapeStyle": {
                            "styleName": "default",
                            "strokeColor": "#ffffff",
                            "strokeWidth": 2,
                            "fillColor": "#ff0000"
                        },
                        "popupID": -1,
                        "backgroundColor": "red"
                    },
                    "textStyle": -1
                }
            ],
            "zoom": {
                "x1": 0,
                "y1": 0,
                "x2": 100,
                "y2": 100
            },
            "audio": "",
            "audioName": "",
            "backgroundAudioName": "",
            "backgroundAudio": "",
            "label": "1"
        }
    ],
    "pageW": 480,
    "pageH": 270,
    "attribution": "",
    "bgColor": "#cccccc"
}