{
    "steps": [
        {
            "id": 0,
            "elements": [
                {
                    "type": "SHAPE",
                    "subType": "none",
                    "classes": [],
                    "content": [
                        " M 31.1 49.781 L 0.143 32.827 L -30.703 50 L -24.918 13.838 L -50 -11.668 L -15.468 -17.063 L -0.122 -50 L 15.434 -17.173 L 50 -12.022 L 25.082 13.661 L 31.1 49.781 Z ",
                        "star"
                    ],
                    "x": 50,
                    "y": 45.37,
                    "w": 23,
                    "h": 50,
                    "eid": "shape1",
                    "extras": {
                        "alpha": 100,
                        "rotation": 0,
                        "flipH": false,
                        "flipV": false,
                        "orientation": 0,
                        "skewX": 0,
                        "skewY": 0,
                        "borderColor": "#0000ff",
                        "borderThick": 3,
                        "fontSize": 16,
                        "fontColor": "#000000",
                        "fontName": "Arial",
                        "backgroundPosX": 0,
                        "backgroundPosY": 0,
                        "backgroundSizeW": 100,
                        "backgroundSizeH": 100,
                        "popupID": -1,
                        "backgroundColor": "#ff8000"
                    },
                    "textStyle": -1
                }
            ],
            "zoom": {
                "x1": 0,
                "y1": 0,
                "x2": 100,
                "y2": 100
            },
            "audio": "",
            "audioName": "",
            "backgroundAudioName": "",
            "backgroundAudio": "",
            "label": "0"
        }
    ],
    "pageW": 480,
    "pageH": 270,
    "attribution": "",
    "bgColor": "#cccccc"
}