<svg xmlns="http://www.w3.org/2000/svg" xmlns:xlink="http://www.w3.org/1999/xlink" width="1938" height="188" viewBox="0 0 1938 188">
  <defs>
    <filter id="Top_Menu_Bar" x="0" y="0" width="1938" height="188" filterUnits="userSpaceOnUse">
      <feOffset dx="5" dy="5" input="SourceAlpha"/>
      <feGaussianBlur stdDeviation="3" result="blur"/>
      <feFlood flood-opacity="0.4"/>
      <feComposite operator="in" in2="blur"/>
      <feComposite in="SourceGraphic"/>
    </filter>
  </defs>
  <g id="Top_Menu_Down" data-name="Top Menu Down" transform="translate(-2905 -1835)">
    <g transform="matrix(1, 0, 0, 1, 2905, 1835)" filter="url(#Top_Menu_Bar)">
      <path id="Top_Menu_Bar-2" data-name="Top Menu Bar" d="M137,170a20,20,0,0,1-20-20V110H227v40a20,20,0,0,1-20,20ZM0,110V0H1920V110Z" transform="translate(4 4)" fill="#dbaa37"/>
    </g>
    <g id="Up_Down_arrow" data-name="Up/Down arrow" transform="translate(3052.865 1959.939)">
      <g id="Line_1" data-name="Line 1" transform="translate(21.6 0.011)" fill="none" stroke-linecap="round">
        <path d="M7.05,31.05l20.561-24" stroke="none"/>
        <path d="M 7.04783821105957 36.05014038085938 C 7.400230407714844 36.05014038085938 7.752079010009766 36.01309967041016 8.097084045410156 35.93949508666992 C 8.442087173461914 35.86589431762695 8.780246734619141 35.7557373046875 9.105262756347656 35.60950088500977 C 9.430278778076172 35.46326446533203 9.742151260375977 35.28095626831055 10.03458023071289 35.06305694580078 C 10.32701110839844 34.84515762329102 10.59999847412109 34.59166717529297 10.84724426269531 34.30307006835938 L 31.40841484069824 10.30306911468506 C 31.85756301879883 9.778800964355469 32.17919921875 9.188323020935059 32.37624359130859 8.569435119628906 C 32.57328414916992 7.950546264648438 32.64573287963867 7.303246974945068 32.59650421142578 6.665337562561035 C 32.54727935791016 6.027428150177002 32.37637329101562 5.398908615112305 32.08670806884766 4.817578792572021 C 31.79704093933105 4.236248970031738 31.38861465454102 3.702108860015869 30.86434555053711 3.25295877456665 C 30.6286735534668 3.051056146621704 30.37961196899414 2.874917030334473 30.12059783935547 2.724278926849365 C 29.8615837097168 2.573640823364258 29.59261894226074 2.448503494262695 29.31714248657227 2.348604202270508 C 29.04166412353516 2.24870491027832 28.75967597961426 2.17404317855835 28.47461318969727 2.124356269836426 C 28.18955230712891 2.074669361114502 27.90141677856445 2.049957275390625 27.61365127563477 2.049957275390625 C 27.26125717163086 2.049957275390625 26.90941047668457 2.086999893188477 26.56440544128418 2.160601615905762 C 26.21940231323242 2.234203338623047 25.8812427520752 2.344363212585449 25.55622673034668 2.490598201751709 C 25.23121070861816 2.636833190917969 24.91933822631836 2.81914234161377 24.62690734863281 3.037042140960693 C 24.33447647094727 3.254941701889038 24.06148910522461 3.508431911468506 23.81424522399902 3.797028779983521 L 3.253074645996094 27.79702949523926 C 2.803926467895508 28.32129669189453 2.482288360595703 28.91177368164062 2.285245895385742 29.53066253662109 C 2.088203430175781 30.14955139160156 2.015754699707031 30.79685211181641 2.064983367919922 31.43476104736328 C 2.114212036132812 32.07266998291016 2.285116195678711 32.70118713378906 2.57478141784668 33.28252029418945 C 2.864446640014648 33.86384963989258 3.272872924804688 34.39798736572266 3.797143936157227 34.84713745117188 C 4.032814025878906 35.04904174804688 4.281875610351562 35.22518157958984 4.540889739990234 35.37581634521484 C 4.799903869628906 35.52645492553711 5.068870544433594 35.65159225463867 5.34434700012207 35.75149154663086 C 5.619823455810547 35.85139083862305 5.901813507080078 35.92605590820312 6.186874389648438 35.97574234008789 C 6.47193717956543 36.02542877197266 6.76007080078125 36.05014038085938 7.04783821105957 36.05014038085938 Z" stroke="none" fill="#fff"/>
      </g>
      <g id="Line_2" data-name="Line 2" fill="none" stroke-linecap="round">
        <path d="M28.65,31.061l-21.589-24" stroke="none"/>
        <path d="M 28.65202140808105 36.06120300292969 C 28.94985961914062 36.06120300292969 29.24795532226562 36.03474807739258 29.5424919128418 35.98163604736328 C 29.8370304107666 35.92852783203125 30.12800979614258 35.84876251220703 30.41161727905273 35.74213409423828 C 30.69522666931152 35.6355094909668 30.97146224975586 35.50202560424805 31.23651123046875 35.34148025512695 C 31.50156211853027 35.18093490600586 31.75542640686035 34.99332809448242 31.99428939819336 34.77845764160156 C 32.50754165649414 34.3167610168457 32.90293121337891 33.77289962768555 33.17845153808594 33.18473434448242 C 33.45397186279297 32.59657287597656 33.60962677001953 31.96410369873047 33.64341354370117 31.32519149780273 C 33.67720031738281 30.686279296875 33.58911895751953 30.04092216491699 33.37716293334961 29.42697906494141 C 33.16521072387695 28.81303787231445 32.82938385009766 28.23051071166992 32.3676872253418 27.71725654602051 L 10.77846908569336 3.717257261276245 C 10.53164291381836 3.442868709564209 10.26132965087891 3.202165365219116 9.973316192626953 2.995453834533691 C 9.685302734375 2.788742542266846 9.379589080810547 2.616023063659668 9.061962127685547 2.477602005004883 C 8.744335174560547 2.339180946350098 8.414794921875 2.235058784484863 8.079128265380859 2.165541648864746 C 7.743461608886719 2.096024513244629 7.401668548583984 2.061112403869629 7.059535980224609 2.061112403869629 C 6.761697769165039 2.061112403869629 6.463603973388672 2.087566375732422 6.169065475463867 2.140676498413086 C 5.874526977539062 2.19378662109375 5.583545684814453 2.273552894592285 5.299938201904297 2.380178451538086 C 5.016330718994141 2.486804008483887 4.740095138549805 2.620288372039795 4.475044250488281 2.780834197998047 C 4.209995269775391 2.941379547119141 3.956130981445312 3.128986597061157 3.717267990112305 3.343857288360596 C 3.204015731811523 3.805554866790771 2.808628082275391 4.349415302276611 2.533105850219727 4.93757963180542 C 2.257583618164062 5.525743961334229 2.1019287109375 6.158212184906006 2.068143844604492 6.797124862670898 C 2.034358978271484 7.436037063598633 2.122440338134766 8.081394195556641 2.334392547607422 8.695335388183594 C 2.546346664428711 9.309277534484863 2.882171630859375 9.891804695129395 3.343868255615234 10.40505695343018 L 24.9330883026123 34.40505981445312 C 25.17991638183594 34.67944717407227 25.45022964477539 34.92015075683594 25.73824119567871 35.12686157226562 C 26.02625465393066 35.33357238769531 26.33196830749512 35.50629043579102 26.64959526062012 35.64471435546875 C 26.96722221374512 35.78313446044922 27.29676246643066 35.88725662231445 27.6324291229248 35.95677185058594 C 27.96809577941895 36.02629089355469 28.30988883972168 36.06120300292969 28.65202140808105 36.06120300292969 Z" stroke="none" fill="#fff"/>
      </g>
    </g>
  </g>
</svg>
