<svg xmlns="http://www.w3.org/2000/svg" xmlns:xlink="http://www.w3.org/1999/xlink" width="106" height="413" viewBox="0 0 106 413">
  <defs>
    <filter id="Union_5" x="0" y="0" width="106" height="413" filterUnits="userSpaceOnUse">
      <feOffset dx="2" dy="5" input="SourceAlpha"/>
      <feGaussianBlur stdDeviation="1" result="blur"/>
      <feFlood flood-opacity="0.4"/>
      <feComposite operator="in" in2="blur"/>
      <feComposite in="SourceGraphic"/>
    </filter>
    <filter id="Rectangle_91" x="21" y="25" width="64" height="332" filterUnits="userSpaceOnUse">
      <feOffset dx="2" dy="3" input="SourceAlpha"/>
      <feGaussianBlur stdDeviation="1" result="blur-2"/>
      <feFlood flood-opacity="0.4"/>
      <feComposite operator="in" in2="blur-2"/>
      <feComposite in="SourceGraphic"/>
    </filter>
    <filter id="slide">
      <feOffset dx="5" dy="5" input="SourceAlpha"/>
      <feGaussianBlur stdDeviation="5" result="blur-3"/>
      <feFlood flood-opacity="0.702" result="color"/>
      <feComposite operator="out" in="SourceGraphic" in2="blur-3"/>
      <feComposite operator="in" in="color"/>
      <feComposite operator="in" in2="SourceGraphic"/>
    </filter>
    <filter id="blue_line">
      <feOffset dx="5" dy="5" input="SourceAlpha"/>
      <feGaussianBlur stdDeviation="5" result="blur-4"/>
      <feFlood flood-opacity="0.702" result="color-2"/>
      <feComposite operator="out" in="SourceGraphic" in2="blur-4"/>
      <feComposite operator="in" in="color-2"/>
      <feComposite operator="in" in2="SourceGraphic"/>
    </filter>
    <radialGradient id="radial-gradient" cx="0.5" cy="0.5" r="0.5" gradientUnits="objectBoundingBox">
      <stop offset="0" stop-color="#5c90ce"/>
      <stop offset="1" stop-color="#375982"/>
    </radialGradient>
    <filter id="handle" x="22" y="187" width="68" height="68" filterUnits="userSpaceOnUse">
      <feOffset dx="5" dy="5" input="SourceAlpha"/>
      <feGaussianBlur stdDeviation="3" result="blur-5"/>
      <feFlood flood-opacity="0.4"/>
      <feComposite operator="in" in2="blur-5"/>
      <feComposite in="SourceGraphic"/>
    </filter>
  </defs>
  <g id="Voice_Menu" data-name="Voice Menu" transform="translate(-391 -575)">
    <g id="Group_212" data-name="Group 212" transform="translate(-2634 -4231)">
      <g transform="matrix(1, 0, 0, 1, 3025, 4806)" filter="url(#Union_5)">
        <path id="Union_5-2" data-name="Union 5" d="M38.511,440.326a151.226,151.226,0,0,0-18.848-13.874q-.716-.423-1.412-.875l-.126-.076h.009A39.966,39.966,0,0,1,0,392V96A40,40,0,0,1,40,56H60a40,40,0,0,1,40,40V392a39.966,39.966,0,0,1-18.134,33.5h.009s-11.832,7.789-20.608,14.826S53.663,461,50,461,47.189,448.114,38.511,440.326Z" transform="translate(1 -56)" fill="#fff"/>
      </g>
    </g>
    <g id="Slider" transform="translate(-3373 -3752)">
      <g transform="matrix(1, 0, 0, 1, 3764, 4327)" filter="url(#Rectangle_91)">
        <rect id="Rectangle_91-2" data-name="Rectangle 91" width="58" height="326" rx="29" transform="translate(22 25)" fill="#3a5e88"/>
      </g>
      <g data-type="innerShadowGroup">
        <rect id="slide-2" data-name="slide" width="260" height="30" rx="15" transform="translate(3830 4388) rotate(90)" fill="#fff"/>
        <g transform="matrix(1, 0, 0, 1, 3764, 4327)" filter="url(#slide)">
          <rect id="slide-3" data-name="slide" width="260" height="30" rx="15" transform="translate(66 61) rotate(90)" fill="#fff"/>
        </g>
      </g>
      <g data-type="innerShadowGroup">
        <rect id="blue_line-2" data-name="blue line" width="122" height="30" rx="15" transform="translate(3830 4526) rotate(90)" fill="#7dade8"/>
        <g transform="matrix(1, 0, 0, 1, 3764, 4327)" filter="url(#blue_line)">
          <rect id="blue_line-3" data-name="blue line" width="122" height="30" rx="15" transform="translate(66 199) rotate(90)" fill="#fff"/>
        </g>
      </g>
      <g transform="matrix(1, 0, 0, 1, 3764, 4327)" filter="url(#handle)">
        <g id="handle-2" data-name="handle" transform="translate(26 191)" stroke="#fff" stroke-width="5" fill="url(#radial-gradient)">
          <circle cx="25" cy="25" r="25" stroke="none"/>
          <circle cx="25" cy="25" r="22.5" fill="none"/>
        </g>
      </g>
      <text id="_" data-name="+" transform="translate(3815 4382)" fill="#fff" font-size="35" font-family="AndikaNewBasic-Regular, Andika New Basic"><tspan x="-10.254" y="0">+</tspan></text>
      <text id="_-" data-name="-" transform="translate(3815 4674)" fill="#fff" font-size="35" font-family="AndikaNewBasic-Regular, Andika New Basic"><tspan x="-7.349" y="0">-</tspan></text>
    </g>
  </g>
</svg>
