<svg xmlns="http://www.w3.org/2000/svg" xmlns:xlink="http://www.w3.org/1999/xlink" width="1938" height="128" viewBox="0 0 1938 128">
  <defs>
    <filter id="Top_Bar" x="0" y="0" width="1938" height="128" filterUnits="userSpaceOnUse">
      <feOffset dx="5" dy="5" input="SourceAlpha"/>
      <feGaussianBlur stdDeviation="3" result="blur"/>
      <feFlood flood-opacity="0.4"/>
      <feComposite operator="in" in2="blur"/>
      <feComposite in="SourceGraphic"/>
    </filter>
  </defs>
  <g transform="matrix(1, 0, 0, 1, 0, 0)" filter="url(#Top_Bar)">
    <rect id="Top_Bar-2" data-name="Top Bar" width="1920" height="110" transform="translate(4 4)" fill="#dbaa37"/>
  </g>
</svg>
