{"page": {
  "title": "Page 1",
  "backgroundImage": "",
  "backgroundMusic": "rag",
  "statics":[],
  "keyframes": [
    {
      "itemName": "paudio1",
      "start": -1,
      "cssClass": "",
      "highlights": [],
      "active": true,
      "eventType": "playAudio",
      "useTween": false
    },
          {
      "itemName": "title1",
      "start": 1000,
      "atts": {
        "x": 26,
        "y": 3,
        "textKey": "History is full<br/>of [interesting] stories",
        "angle": 90,
        "scale": 1,
        "type": "h",
        "alpha": 1,
        "color": 16777215,
        "col": -1,
        "loadEffect": 0,
        "tint": -1,
        "background":""
      },
      "cssClass": "title1",
      "cssSize":"fs1",
      "highlights": [
        {
          "cssClass": "green",
          "effectName": "sliceRight",
          "duration": 1000,
          "scanned": ""
        }
      ],
      "active": true,
      "eventType": "update",
      "useTween": false
    },
    {
      "itemName": "text1",
      "start": 2000,
      "atts": {
        "x": 24,
        "y": 15,
        "textKey": "Here are a few facts you might not know!",
        "angle": 90,
        "scale": 1,
        "type": "h",
        "alpha": 1,
        "color": 16777215,
        "col": -1,
        "loadEffect": 0,
        "tint": -1,
        "background":""
      },
      "cssClass": "bookText",
      "cssSize":"fs2",
      "highlights": [
        {
          "cssClass": "blue",
          "effectName": "noEffect",
          "duration": 3000,
          "scanned": ""
        }
      ],
      "active": true,
      "eventType": "update",
      "useTween": false
    }, {
      "itemName": "odd1s",
      "start": 2000,
      "atts": {
        "x": 14,
        "y": 10,
        "textKey": "pimage1",
        "angle": 90,
        "scale": 0.5,
        "type": "im",
        "alpha": 1,
        "color": 16777215,
        "col": -1,
        "loadEffect": 1,
        "tint": -1,
        "maskKey":"้holder"
      },
      "cssClass": "",
      "highlights": [],
      "active": true,
      "eventType": "update",
      "useTween": false
    },
    {
      "itemName": "page2",
      "eventType": "page",
      "start": 7000
    }
  ]
}
}
