{"page": {
  "title": "Page 1",
  "backgroundImage": "bg1",
  "backgroundMusic": "rag",
  "statics":[{
      "x": 28,
      "y": -1,
      "textKey": "holder",
      "angle": 90,
      "scale": 1,
      "type": "s",
      "alpha": 1,
      "color": 16777215,
      "col": -1,
      "loadEffect": 0,
      "tint": 998239,
      "origin":0
    },{
      "x": 26,
      "y": 0.5,
      "textKey": "rect",
      "angle": 90,
      "scale":-1,
      "w":20,
      "h":15,
      "type": "s",
      "alpha": 1,
      "color": 16777215,
      "col": -1,
      "loadEffect": 0,
      "tint": 13408082,
      "origin":0
    }],
  "keyframes": [
    {
      "itemName": "paudio9",
      "start": -1,
      "cssClass": "",
      "highlights": [],
      "active": true,
      "eventType": "playAudio",
      "useTween": false
    },
          {
      "itemName": "title1",
      "start": 1000,
      "atts": {
        "x": 29,
        "y": 3,
        "textKey": "Snake Island",
        "angle": 90,
        "scale": 1,
        "type": "h",
        "alpha": 1,
        "color": 16777215,
        "col": -1,
        "loadEffect": 0,
        "tint": -1,
        "background":""
      },
      "cssClass": "title1",
      "cssSize":"fs1",
      "highlights": [
        {
          "cssClass": "green",
          "effectName": "noEffect",
          "duration": 1000,
          "scanned": ""
        }
      ],
      "active": true,
      "eventType": "update",
      "useTween": false
    },
    {
      "itemName": "text1",
      "start": 1000,
      "atts": {
        "x": 30,
        "y": 15,
        "textKey": "Snake Island in Brazil is home to the [Golden Lancehead], a very deadly snake. It is estimated to have around 430,000 snakes on the small island. There used to be people on the island who lived in the lighthouse. It had to be abandoned as the number of snakes became too many.",
        "angle": 90,
        "scale": 1,
        "type": "h",
        "alpha": 1,
        "color": 16777215,
        "col": -1,
        "loadEffect": 0,
        "tint": 998239,
        "background":""
      },
      "cssClass": "bookText",
      "cssSize":"fs2",
      "highlights": [
        {
          "cssClass": "green",
          "effectName": "fly",
          "duration": 3000,
          "scanned": ""
        }
      ],
      "active": true,
      "eventType": "update",
      "useTween": false
    }, {
      "itemName": "odd1s",
      "start": 2000,
      "atts": {
        "x": 14,
        "y": 10,
        "textKey": "pimage9",
        "angle": 90,
        "scale": 0.5,
        "type": "im",
        "alpha": 1,
        "color": 16777215,
        "col": -1,
        "loadEffect": 2,
        "tint": -1,
        "maskKey":"holder",
        "effectParams": {
            "duration": 6000,
            "startY": 55,
            "endY": 55,
            "startX": 50,
            "endX": 30,
            "zoomStart": 1,            
            "zoomEnd": 1.5
          }
      },
      "cssClass": "",
      "highlights": [],
      "active": true,
      "eventType": "update",
      "useTween": false
    },
    {
      "itemName": "page10",
      "eventType": "page",
      "start": 20000
    }
  ]
}
}
