{"page": {
  "title": "Page 1",
  "backgroundImage": "bg1",
  "backgroundMusic": "rag",
  "statics":[{
      "x": 28,
      "y": -1,
      "textKey": "holder",
      "angle": 90,
      "scale": 1,
      "type": "s",
      "alpha": 1,
      "color": 16777215,
      "col": -1,
      "loadEffect": 0,
      "tint": 998239,
      "origin":0
    },{
      "x": 26,
      "y": 0.5,
      "textKey": "rect",
      "angle": 90,
      "scale":-1,
      "w":20,
      "h":15,
      "type": "s",
      "alpha": 1,
      "color": 16777215,
      "col": -1,
      "loadEffect": 0,
      "tint": 13408082,
      "origin":0
    }],
  "keyframes": [
    {
      "itemName": "paudio11",
      "start": -1,
      "cssClass": "",
      "highlights": [],
      "active": true,
      "eventType": "playAudio",
      "useTween": false
    },
          {
      "itemName": "title1",
      "start": 1000,
      "atts": {
        "x": 29,
        "y": 3,
        "textKey": "Aogashima",
        "angle": 90,
        "scale": 1,
        "type": "h",
        "alpha": 1,
        "color": 16777215,
        "col": -1,
        "loadEffect": 0,
        "tint": -1,
        "background":""
      },
      "cssClass": "title1",
      "cssSize":"fs1",
      "highlights": [
        {
          "cssClass": "green",
          "effectName": "noEffect",
          "duration": 1000,
          "scanned": ""
        }
      ],
      "active": true,
      "eventType": "update",
      "useTween": false
    },
    {
      "itemName": "text1",
      "start": 4000,
      "atts": {
        "x": 30,
        "y": 15,
        "textKey": "Aogashima is a village in Japan inside a [volcano]. The volcano takes up an entire island, and contains a second volcano inside! It is Japan's smallest village.",
        "angle": 90,
        "scale": 1,
        "type": "h",
        "alpha": 1,
        "color": 16777215,
        "col": -1,
        "loadEffect": 0,
        "tint": 998239,
        "background":""
      },
      "cssClass": "bookText",
      "cssSize":"fs2",
      "highlights": [
        {
          "cssClass": "blue",
          "effectName": "bob",
          "duration": 3000,
          "scanned": ""
        }
      ],
      "active": true,
      "eventType": "update",
      "useTween": false
    }, {
      "itemName": "odd1s",
      "start": 2000,
      "atts": {
        "x": 14,
        "y": 10,
        "textKey": "pimage11",
        "angle": 90,
        "scale": 0.5,
        "type": "im",
        "alpha": 1,
        "color": 16777215,
        "col": -1,
        "loadEffect": 2,
        "tint": -1,
        "maskKey":"holder",
        "effectParams": {
            "duration": 6000,
            "startY": 55,
            "endY": 55,
            "startX": 60,
            "endX": 40,
            "zoomStart": 1,            
            "zoomEnd": 1.4
          }
      },
      "cssClass": "",
      "highlights": [],
      "active": true,
      "eventType": "update",
      "useTween": false
    },
    {
      "itemName": "page12",
      "eventType": "page",
      "start": 17000    
    }
  ]
}
}
