{
	"textures": [
		{
			"image": "bg.png",
			"format": "RGBA8888",
			"size": {
				"w": 2034,
				"h": 1314
			},
			"scale": 1,
			"frames": [
				{
					"filename": "bg3.jpg",
					"rotated": false,
					"trimmed": false,
					"sourceSize": {
						"w": 1012,
						"h": 574
					},
					"spriteSourceSize": {
						"x": 0,
						"y": 0,
						"w": 1012,
						"h": 574
					},
					"frame": {
						"x": 1,
						"y": 1,
						"w": 1012,
						"h": 574
					}
				},
				{
					"filename": "bg2.jpg",
					"rotated": false,
					"trimmed": false,
					"sourceSize": {
						"w": 1010,
						"h": 635
					},
					"spriteSourceSize": {
						"x": 0,
						"y": 0,
						"w": 1010,
						"h": 635
					},
					"frame": {
						"x": 1015,
						"y": 1,
						"w": 1010,
						"h": 635
					}
				},
				{
					"filename": "bg4.jpg",
					"rotated": false,
					"trimmed": false,
					"sourceSize": {
						"w": 1000,
						"h": 706
					},
					"spriteSourceSize": {
						"x": 0,
						"y": 0,
						"w": 1000,
						"h": 706
					},
					"frame": {
						"x": 1,
						"y": 577,
						"w": 1000,
						"h": 706
					}
				},
				{
					"filename": "bg1.jpg",
					"rotated": false,
					"trimmed": false,
					"sourceSize": {
						"w": 1030,
						"h": 675
					},
					"spriteSourceSize": {
						"x": 0,
						"y": 0,
						"w": 1030,
						"h": 675
					},
					"frame": {
						"x": 1003,
						"y": 638,
						"w": 1030,
						"h": 675
					}
				}
			]
		}
	],
	"meta": {
		"app": "https://www.codeandweb.com/texturepacker",
		"version": "3.0",
		"smartupdate": "$TexturePacker:SmartUpdate:885738ba16ab0ed8e57e1877f1070f2e:18b252fa70fee257321dd4a83a5ac091:fda475f1469833f402cd7f3119be2bc2$"
	}
}
