{
	"textures": [
		{
			"image": "words.png",
			"format": "RGBA8888",
			"size": {
				"w": 1482,
				"h": 246
			},
			"scale": 1,
			"frames": [
				{
					"filename": "A.png",
					"rotated": false,
					"trimmed": false,
					"sourceSize": {
						"w": 112,
						"h": 121
					},
					"spriteSourceSize": {
						"x": 0,
						"y": 0,
						"w": 112,
						"h": 121
					},
					"frame": {
						"x": 1,
						"y": 1,
						"w": 112,
						"h": 121
					}
				},
				{
					"filename": "B.png",
					"rotated": false,
					"trimmed": false,
					"sourceSize": {
						"w": 112,
						"h": 121
					},
					"spriteSourceSize": {
						"x": 0,
						"y": 0,
						"w": 112,
						"h": 121
					},
					"frame": {
						"x": 1,
						"y": 124,
						"w": 112,
						"h": 121
					}
				},
				{
					"filename": "C.png",
					"rotated": false,
					"trimmed": false,
					"sourceSize": {
						"w": 112,
						"h": 121
					},
					"spriteSourceSize": {
						"x": 0,
						"y": 0,
						"w": 112,
						"h": 121
					},
					"frame": {
						"x": 115,
						"y": 1,
						"w": 112,
						"h": 121
					}
				},
				{
					"filename": "D.png",
					"rotated": false,
					"trimmed": false,
					"sourceSize": {
						"w": 112,
						"h": 121
					},
					"spriteSourceSize": {
						"x": 0,
						"y": 0,
						"w": 112,
						"h": 121
					},
					"frame": {
						"x": 115,
						"y": 124,
						"w": 112,
						"h": 121
					}
				},
				{
					"filename": "E.png",
					"rotated": false,
					"trimmed": false,
					"sourceSize": {
						"w": 112,
						"h": 121
					},
					"spriteSourceSize": {
						"x": 0,
						"y": 0,
						"w": 112,
						"h": 121
					},
					"frame": {
						"x": 229,
						"y": 1,
						"w": 112,
						"h": 121
					}
				},
				{
					"filename": "F.png",
					"rotated": false,
					"trimmed": false,
					"sourceSize": {
						"w": 112,
						"h": 121
					},
					"spriteSourceSize": {
						"x": 0,
						"y": 0,
						"w": 112,
						"h": 121
					},
					"frame": {
						"x": 229,
						"y": 124,
						"w": 112,
						"h": 121
					}
				},
				{
					"filename": "G.png",
					"rotated": false,
					"trimmed": false,
					"sourceSize": {
						"w": 112,
						"h": 121
					},
					"spriteSourceSize": {
						"x": 0,
						"y": 0,
						"w": 112,
						"h": 121
					},
					"frame": {
						"x": 343,
						"y": 1,
						"w": 112,
						"h": 121
					}
				},
				{
					"filename": "H.png",
					"rotated": false,
					"trimmed": false,
					"sourceSize": {
						"w": 112,
						"h": 121
					},
					"spriteSourceSize": {
						"x": 0,
						"y": 0,
						"w": 112,
						"h": 121
					},
					"frame": {
						"x": 343,
						"y": 124,
						"w": 112,
						"h": 121
					}
				},
				{
					"filename": "I.png",
					"rotated": false,
					"trimmed": false,
					"sourceSize": {
						"w": 112,
						"h": 121
					},
					"spriteSourceSize": {
						"x": 0,
						"y": 0,
						"w": 112,
						"h": 121
					},
					"frame": {
						"x": 457,
						"y": 1,
						"w": 112,
						"h": 121
					}
				},
				{
					"filename": "J.png",
					"rotated": false,
					"trimmed": false,
					"sourceSize": {
						"w": 112,
						"h": 121
					},
					"spriteSourceSize": {
						"x": 0,
						"y": 0,
						"w": 112,
						"h": 121
					},
					"frame": {
						"x": 457,
						"y": 124,
						"w": 112,
						"h": 121
					}
				},
				{
					"filename": "K.png",
					"rotated": false,
					"trimmed": false,
					"sourceSize": {
						"w": 112,
						"h": 121
					},
					"spriteSourceSize": {
						"x": 0,
						"y": 0,
						"w": 112,
						"h": 121
					},
					"frame": {
						"x": 571,
						"y": 1,
						"w": 112,
						"h": 121
					}
				},
				{
					"filename": "L.png",
					"rotated": false,
					"trimmed": false,
					"sourceSize": {
						"w": 112,
						"h": 121
					},
					"spriteSourceSize": {
						"x": 0,
						"y": 0,
						"w": 112,
						"h": 121
					},
					"frame": {
						"x": 571,
						"y": 124,
						"w": 112,
						"h": 121
					}
				},
				{
					"filename": "M.png",
					"rotated": false,
					"trimmed": false,
					"sourceSize": {
						"w": 112,
						"h": 121
					},
					"spriteSourceSize": {
						"x": 0,
						"y": 0,
						"w": 112,
						"h": 121
					},
					"frame": {
						"x": 685,
						"y": 1,
						"w": 112,
						"h": 121
					}
				},
				{
					"filename": "N.png",
					"rotated": false,
					"trimmed": false,
					"sourceSize": {
						"w": 112,
						"h": 121
					},
					"spriteSourceSize": {
						"x": 0,
						"y": 0,
						"w": 112,
						"h": 121
					},
					"frame": {
						"x": 685,
						"y": 124,
						"w": 112,
						"h": 121
					}
				},
				{
					"filename": "O.png",
					"rotated": false,
					"trimmed": false,
					"sourceSize": {
						"w": 112,
						"h": 121
					},
					"spriteSourceSize": {
						"x": 0,
						"y": 0,
						"w": 112,
						"h": 121
					},
					"frame": {
						"x": 799,
						"y": 1,
						"w": 112,
						"h": 121
					}
				},
				{
					"filename": "P.png",
					"rotated": false,
					"trimmed": false,
					"sourceSize": {
						"w": 112,
						"h": 121
					},
					"spriteSourceSize": {
						"x": 0,
						"y": 0,
						"w": 112,
						"h": 121
					},
					"frame": {
						"x": 799,
						"y": 124,
						"w": 112,
						"h": 121
					}
				},
				{
					"filename": "Q.png",
					"rotated": false,
					"trimmed": false,
					"sourceSize": {
						"w": 112,
						"h": 121
					},
					"spriteSourceSize": {
						"x": 0,
						"y": 0,
						"w": 112,
						"h": 121
					},
					"frame": {
						"x": 913,
						"y": 1,
						"w": 112,
						"h": 121
					}
				},
				{
					"filename": "R.png",
					"rotated": false,
					"trimmed": false,
					"sourceSize": {
						"w": 112,
						"h": 121
					},
					"spriteSourceSize": {
						"x": 0,
						"y": 0,
						"w": 112,
						"h": 121
					},
					"frame": {
						"x": 913,
						"y": 124,
						"w": 112,
						"h": 121
					}
				},
				{
					"filename": "S.png",
					"rotated": false,
					"trimmed": false,
					"sourceSize": {
						"w": 112,
						"h": 121
					},
					"spriteSourceSize": {
						"x": 0,
						"y": 0,
						"w": 112,
						"h": 121
					},
					"frame": {
						"x": 1027,
						"y": 1,
						"w": 112,
						"h": 121
					}
				},
				{
					"filename": "T.png",
					"rotated": false,
					"trimmed": false,
					"sourceSize": {
						"w": 112,
						"h": 121
					},
					"spriteSourceSize": {
						"x": 0,
						"y": 0,
						"w": 112,
						"h": 121
					},
					"frame": {
						"x": 1027,
						"y": 124,
						"w": 112,
						"h": 121
					}
				},
				{
					"filename": "U.png",
					"rotated": false,
					"trimmed": false,
					"sourceSize": {
						"w": 112,
						"h": 121
					},
					"spriteSourceSize": {
						"x": 0,
						"y": 0,
						"w": 112,
						"h": 121
					},
					"frame": {
						"x": 1141,
						"y": 1,
						"w": 112,
						"h": 121
					}
				},
				{
					"filename": "V.png",
					"rotated": false,
					"trimmed": false,
					"sourceSize": {
						"w": 112,
						"h": 121
					},
					"spriteSourceSize": {
						"x": 0,
						"y": 0,
						"w": 112,
						"h": 121
					},
					"frame": {
						"x": 1141,
						"y": 124,
						"w": 112,
						"h": 121
					}
				},
				{
					"filename": "W.png",
					"rotated": false,
					"trimmed": false,
					"sourceSize": {
						"w": 112,
						"h": 121
					},
					"spriteSourceSize": {
						"x": 0,
						"y": 0,
						"w": 112,
						"h": 121
					},
					"frame": {
						"x": 1255,
						"y": 1,
						"w": 112,
						"h": 121
					}
				},
				{
					"filename": "X.png",
					"rotated": false,
					"trimmed": false,
					"sourceSize": {
						"w": 112,
						"h": 121
					},
					"spriteSourceSize": {
						"x": 0,
						"y": 0,
						"w": 112,
						"h": 121
					},
					"frame": {
						"x": 1255,
						"y": 124,
						"w": 112,
						"h": 121
					}
				},
				{
					"filename": "Y.png",
					"rotated": false,
					"trimmed": false,
					"sourceSize": {
						"w": 112,
						"h": 121
					},
					"spriteSourceSize": {
						"x": 0,
						"y": 0,
						"w": 112,
						"h": 121
					},
					"frame": {
						"x": 1369,
						"y": 1,
						"w": 112,
						"h": 121
					}
				},
				{
					"filename": "Z.png",
					"rotated": false,
					"trimmed": false,
					"sourceSize": {
						"w": 112,
						"h": 121
					},
					"spriteSourceSize": {
						"x": 0,
						"y": 0,
						"w": 112,
						"h": 121
					},
					"frame": {
						"x": 1369,
						"y": 124,
						"w": 112,
						"h": 121
					}
				}
			]
		}
	],
	"meta": {
		"app": "https://www.codeandweb.com/texturepacker",
		"version": "3.0",
		"smartupdate": "$TexturePacker:SmartUpdate:f2bc0235818a0f56382a1d6225ce932d:df233cb599f9d56eff68e72a4e7ff08b:1b15c8ea7ba697f2d18004049ffb9a3c$"
	}
}
