{
	"textures": [
		{
			"image": "starburst.png",
			"format": "RGBA8888",
			"size": {
				"w": 895,
				"h": 457
			},
			"scale": 1,
			"frames": [
				{
					"filename": "Starburst0024.png",
					"rotated": false,
					"trimmed": true,
					"sourceSize": {
						"w": 188,
						"h": 188
					},
					"spriteSourceSize": {
						"x": 2,
						"y": 2,
						"w": 183,
						"h": 183
					},
					"frame": {
						"x": 1,
						"y": 1,
						"w": 183,
						"h": 183
					}
				},
				{
					"filename": "Starburst0023.png",
					"rotated": false,
					"trimmed": true,
					"sourceSize": {
						"w": 188,
						"h": 188
					},
					"spriteSourceSize": {
						"x": 6,
						"y": 6,
						"w": 176,
						"h": 176
					},
					"frame": {
						"x": 186,
						"y": 1,
						"w": 176,
						"h": 176
					}
				},
				{
					"filename": "Starburst0022.png",
					"rotated": false,
					"trimmed": true,
					"sourceSize": {
						"w": 188,
						"h": 188
					},
					"spriteSourceSize": {
						"x": 10,
						"y": 10,
						"w": 168,
						"h": 168
					},
					"frame": {
						"x": 364,
						"y": 1,
						"w": 168,
						"h": 168
					}
				},
				{
					"filename": "Starburst0021.png",
					"rotated": false,
					"trimmed": true,
					"sourceSize": {
						"w": 188,
						"h": 188
					},
					"spriteSourceSize": {
						"x": 13,
						"y": 14,
						"w": 161,
						"h": 160
					},
					"frame": {
						"x": 534,
						"y": 1,
						"w": 161,
						"h": 160
					}
				},
				{
					"filename": "Starburst0020.png",
					"rotated": false,
					"trimmed": true,
					"sourceSize": {
						"w": 188,
						"h": 188
					},
					"spriteSourceSize": {
						"x": 17,
						"y": 17,
						"w": 161,
						"h": 153
					},
					"frame": {
						"x": 534,
						"y": 163,
						"w": 161,
						"h": 153
					}
				},
				{
					"filename": "Starburst0019.png",
					"rotated": false,
					"trimmed": true,
					"sourceSize": {
						"w": 188,
						"h": 188
					},
					"spriteSourceSize": {
						"x": 17,
						"y": 17,
						"w": 158,
						"h": 153
					},
					"frame": {
						"x": 364,
						"y": 171,
						"w": 158,
						"h": 153
					}
				},
				{
					"filename": "Starburst0018.png",
					"rotated": false,
					"trimmed": true,
					"sourceSize": {
						"w": 188,
						"h": 188
					},
					"spriteSourceSize": {
						"x": 20,
						"y": 20,
						"w": 153,
						"h": 147
					},
					"frame": {
						"x": 186,
						"y": 179,
						"w": 153,
						"h": 147
					}
				},
				{
					"filename": "Starburst0017.png",
					"rotated": false,
					"trimmed": true,
					"sourceSize": {
						"w": 188,
						"h": 188
					},
					"spriteSourceSize": {
						"x": 23,
						"y": 23,
						"w": 147,
						"h": 142
					},
					"frame": {
						"x": 1,
						"y": 186,
						"w": 147,
						"h": 142
					}
				},
				{
					"filename": "Starburst0016.png",
					"rotated": false,
					"trimmed": true,
					"sourceSize": {
						"w": 188,
						"h": 188
					},
					"spriteSourceSize": {
						"x": 26,
						"y": 26,
						"w": 141,
						"h": 136
					},
					"frame": {
						"x": 524,
						"y": 318,
						"w": 141,
						"h": 136
					}
				},
				{
					"filename": "Starburst0015.png",
					"rotated": false,
					"trimmed": true,
					"sourceSize": {
						"w": 188,
						"h": 188
					},
					"spriteSourceSize": {
						"x": 29,
						"y": 29,
						"w": 137,
						"h": 130
					},
					"frame": {
						"x": 341,
						"y": 326,
						"w": 137,
						"h": 130
					}
				},
				{
					"filename": "Starburst0014.png",
					"rotated": false,
					"trimmed": true,
					"sourceSize": {
						"w": 188,
						"h": 188
					},
					"spriteSourceSize": {
						"x": 32,
						"y": 31,
						"w": 124,
						"h": 125
					},
					"frame": {
						"x": 150,
						"y": 328,
						"w": 124,
						"h": 125
					}
				},
				{
					"filename": "Starburst0013.png",
					"rotated": false,
					"trimmed": true,
					"sourceSize": {
						"w": 188,
						"h": 188
					},
					"spriteSourceSize": {
						"x": 35,
						"y": 33,
						"w": 118,
						"h": 120
					},
					"frame": {
						"x": 1,
						"y": 330,
						"w": 118,
						"h": 120
					}
				},
				{
					"filename": "Starburst0004.png",
					"rotated": false,
					"trimmed": true,
					"sourceSize": {
						"w": 188,
						"h": 188
					},
					"spriteSourceSize": {
						"x": 63,
						"y": 63,
						"w": 62,
						"h": 62
					},
					"frame": {
						"x": 276,
						"y": 328,
						"w": 62,
						"h": 62
					}
				},
				{
					"filename": "Starburst0003.png",
					"rotated": false,
					"trimmed": true,
					"sourceSize": {
						"w": 188,
						"h": 188
					},
					"spriteSourceSize": {
						"x": 71,
						"y": 71,
						"w": 45,
						"h": 45
					},
					"frame": {
						"x": 276,
						"y": 392,
						"w": 45,
						"h": 45
					}
				},
				{
					"filename": "Starburst0025.png",
					"rotated": false,
					"trimmed": true,
					"sourceSize": {
						"w": 188,
						"h": 188
					},
					"spriteSourceSize": {
						"x": 168,
						"y": 35,
						"w": 4,
						"h": 4
					},
					"frame": {
						"x": 276,
						"y": 439,
						"w": 4,
						"h": 4
					}
				},
				{
					"filename": "Starburst0012.png",
					"rotated": false,
					"trimmed": true,
					"sourceSize": {
						"w": 188,
						"h": 188
					},
					"spriteSourceSize": {
						"x": 36,
						"y": 35,
						"w": 114,
						"h": 124
					},
					"frame": {
						"x": 667,
						"y": 318,
						"w": 114,
						"h": 124
					}
				},
				{
					"filename": "Starburst0011.png",
					"rotated": false,
					"trimmed": true,
					"sourceSize": {
						"w": 188,
						"h": 188
					},
					"spriteSourceSize": {
						"x": 38,
						"y": 36,
						"w": 109,
						"h": 119
					},
					"frame": {
						"x": 697,
						"y": 1,
						"w": 109,
						"h": 119
					}
				},
				{
					"filename": "Starburst0010.png",
					"rotated": false,
					"trimmed": true,
					"sourceSize": {
						"w": 188,
						"h": 188
					},
					"spriteSourceSize": {
						"x": 40,
						"y": 43,
						"w": 104,
						"h": 110
					},
					"frame": {
						"x": 697,
						"y": 122,
						"w": 104,
						"h": 110
					}
				},
				{
					"filename": "Starburst0009.png",
					"rotated": false,
					"trimmed": true,
					"sourceSize": {
						"w": 188,
						"h": 188
					},
					"spriteSourceSize": {
						"x": 42,
						"y": 46,
						"w": 99,
						"h": 104
					},
					"frame": {
						"x": 783,
						"y": 234,
						"w": 99,
						"h": 104
					}
				},
				{
					"filename": "Starburst0006.png",
					"rotated": false,
					"trimmed": true,
					"sourceSize": {
						"w": 188,
						"h": 188
					},
					"spriteSourceSize": {
						"x": 55,
						"y": 55,
						"w": 78,
						"h": 80
					},
					"frame": {
						"x": 697,
						"y": 234,
						"w": 78,
						"h": 80
					}
				},
				{
					"filename": "Starburst0007.png",
					"rotated": false,
					"trimmed": true,
					"sourceSize": {
						"w": 188,
						"h": 188
					},
					"spriteSourceSize": {
						"x": 45,
						"y": 52,
						"w": 91,
						"h": 93
					},
					"frame": {
						"x": 803,
						"y": 122,
						"w": 91,
						"h": 93
					}
				},
				{
					"filename": "Starburst0008.png",
					"rotated": false,
					"trimmed": true,
					"sourceSize": {
						"w": 188,
						"h": 188
					},
					"spriteSourceSize": {
						"x": 43,
						"y": 49,
						"w": 96,
						"h": 99
					},
					"frame": {
						"x": 783,
						"y": 340,
						"w": 96,
						"h": 99
					}
				},
				{
					"filename": "Starburst0005.png",
					"rotated": false,
					"trimmed": true,
					"sourceSize": {
						"w": 188,
						"h": 188
					},
					"spriteSourceSize": {
						"x": 55,
						"y": 55,
						"w": 78,
						"h": 78
					},
					"frame": {
						"x": 808,
						"y": 1,
						"w": 78,
						"h": 78
					}
				}
			]
		}
	],
	"meta": {
		"app": "https://www.codeandweb.com/texturepacker",
		"version": "3.0",
		"smartupdate": "$TexturePacker:SmartUpdate:cd19dc4a16e227e33451736833115523:85d201677fc6fb96a1d4d75fe3d29e22:a22071ce791cc530e0703ebda04c72b5$"
	}
}
