<?xml version="1.0" encoding="utf-8"?>
<?xml-stylesheet href="../css/boardbooksvg.css" type="text/css"?>
<!DOCTYPE svg PUBLIC "-//W3C//DTD SVG 1.1//EN" "http://www.w3.org/Graphics/SVG/1.1/DTD/svg11.dtd">
<svg version="1.1" xmlns="http://www.w3.org/2000/svg" xmlns:xlink="http://www.w3.org/1999/xlink"
	x="0px" y="0px" width="200px" height="100px" viewBox="0 0 200 100">
	<defs>
		<style type="text/css">
			.red {fill: hsl(0, 100%, 30%);}
			.green {fill: hsl(110, 100%, 23%);}
			.st2{fill:none;stroke:#000000;stroke-linecap:round;stroke-linejoin:round;stroke-miterlimit:10;}
			.st3{fill:#FFFFFF;stroke:#000000;stroke-linecap:round;stroke-linejoin:round;stroke-miterlimit:10;}
		</style>
	</defs>
	<path class="red" d="M150,30h36.1c-7.5-12-20.8-20-36.1-20s-28.5,8-36.1,20H150z"/>
	<path class="red" d="M150,75h-36.1c7.5,12,20.8,20,36.1,20s28.5-8,36.1-20H150z"/>
	<path class="green" d="M50,30h36.1C78.5,18,65.2,10,50,10s-28.5,8-36.1,20H50z"/>
	<path class="green" d="M50,75H13.9C21.5,87,34.8,95,50,95s28.5-8,36.1-20H50z"/>
	<polygon class="st2" points="50,30 5,30 5,75 50,75 95,75 95,30 	"/>
	<polygon class="st3" points="73.7,62 50,75 50,30 73.7,17 	"/>
	<polygon class="st2" points="150,30 105,30 105,75 150,75 195,75 195,30 	"/>
	<path class="st3" d="M164.3,23.3c-1.9,4.5-11.5,2.8-14.2,6.7v44.9c4.5-5,23.2-4.2,22-10.4
		c-0.3-1.1-7.6-46.9-8.5-46.9C163.3,16.4,164.3,23.4,164.3,23.3"/>
	<path class="st2" d="M164.3,23.3l4.9,36.9c0,0,1.3,0.5,2.6,3.1"/>
</svg>
