<svg xmlns="http://www.w3.org/2000/svg" xmlns:xlink="http://www.w3.org/1999/xlink" width="80.648" height="85.263" viewBox="0 0 80.648 85.263">
  <defs>
    <filter id="Path_4967" x="0" y="3.752" width="80.648" height="81.511" filterUnits="userSpaceOnUse">
      <feOffset dx="5" dy="5" input="SourceAlpha"/>
      <feGaussianBlur stdDeviation="1" result="blur"/>
      <feFlood flood-opacity="0.4"/>
      <feComposite operator="in" in2="blur"/>
      <feComposite in="SourceGraphic"/>
    </filter>
  </defs>
  <g id="Home_Icon" data-name="Home Icon" transform="translate(-1091.325 -969.868)">
    <g transform="matrix(1, 0, 0, 1, 1091.33, 969.87)" filter="url(#Path_4967)">
      <path id="Path_4967-2" data-name="Path 4967" d="M15-2.248l38.675-1c8.284,0,18.973,9.964,18.973,18.248l-.99,41.188c0,8.284-9.7,14.074-17.983,14.074H15a15,15,0,0,1-15-15V15C0,6.716,6.716-2.248,15-2.248Z" transform="translate(0 7)" fill="#375982"/>
    </g>
    <g id="Rectangle_29" data-name="Rectangle 29" transform="translate(1096.325 969.868)" fill="#5a82b9" stroke="#fff" stroke-width="3">
      <rect width="68.675" height="70.263" rx="15" stroke="none"/>
      <rect x="1.5" y="1.5" width="65.675" height="67.263" rx="13.5" fill="none"/>
    </g>
    <path id="Union_1" data-name="Union 1" d="M-1584.135-10412v-17.456H-1597.1V-10412h-6.442a5.006,5.006,0,0,1-5-5v-20.044h-3.932a3,3,0,0,1-1.793-5.405l21.475-16.022a3,3,0,0,1,3.588,0l21.475,16.022a3,3,0,0,1-1.793,5.405h-3.932V-10417a5.005,5.005,0,0,1-5,5Z" transform="translate(2721.663 11440.533)" fill="#fff"/>
  </g>
</svg>
