{
    "ltiCode": "tt",
    "fileName": "tt",
    "expression": "64*57",
    "maxSize": 161,
    "sizes": [
        54,
        93,
        93,
        93,
        106,
        132,
        132,
        161,
        161,
        161,
        161
    ],
    "data": [
        {
            "top": [],
            "rows": [
                [
                    {
                        "classArray": [
                            ""
                        ],
                        "text": "6"
                    },
                    {
                        "classArray": [
                            ""
                        ],
                        "text": "4"
                    }
                ],
                [
                    {
                        "classArray": [
                            "red","blink"
                        ],
                        "text": "5"
                    },
                    {
                        "classArray": [
                            ""
                        ],
                        "text": "7"
                    }
                ]
            ],
            "products": [],
            "carryRows": [],
            "operator": "*",
            "answer": []
        },
        {
            "top": [
                [
                    {
                        "classArray": [],
                        "text": "2"
                    },
                    {
                        "classArray": [
                            "hid"
                        ],
                        "text": "0"
                    }
                ]
            ],
            "rows": [
                [
                    {
                        "classArray": [
                            ""
                        ],
                        "text": "6"
                    },
                    {
                        "classArray": [
                            ""
                        ],
                        "text": "4"
                    }
                ],
                [
                    {
                        "classArray": [
                            ""
                        ],
                        "text": "5"
                    },
                    {
                        "classArray": [
                            ""
                        ],
                        "text": "7"
                    }
                ]
            ],
            "products": [
                [
                    {
                        "classArray": [],
                        "text": "8"
                    }
                ]
            ],
            "carryRows": [],
            "operator": "*",
            "answer": []
        },
        {
            "top": [
                [
                    {
                        "classArray": [],
                        "text": "4"
                    },
                    {
                        "classArray": [],
                        "text": "2"
                    },
                    {
                        "classArray": [
                            "hid"
                        ],
                        "text": "0"
                    }
                ]
            ],
            "rows": [
                [
                    {
                        "classArray": [
                            ""
                        ],
                        "text": "6"
                    },
                    {
                        "classArray": [
                            ""
                        ],
                        "text": "4"
                    }
                ],
                [
                    {
                        "classArray": [
                            ""
                        ],
                        "text": "5"
                    },
                    {
                        "classArray": [
                            ""
                        ],
                        "text": "7"
                    }
                ]
            ],
            "products": [
                [
                    {
                        "classArray": [],
                        "text": "4"
                    },
                    {
                        "classArray": [],
                        "text": "8"
                    }
                ]
            ],
            "carryRows": [],
            "operator": "*",
            "answer": []
        },
        {
            "top": [
                [
                    {
                        "classArray": [],
                        "text": "2"
                    },
                    {
                        "classArray": [
                            "hid"
                        ],
                        "text": "0"
                    }
                ]
            ],
            "rows": [
                [
                    {
                        "classArray": [
                            ""
                        ],
                        "text": "6"
                    },
                    {
                        "classArray": [
                            ""
                        ],
                        "text": "4"
                    }
                ],
                [
                    {
                        "classArray": [
                            ""
                        ],
                        "text": "5"
                    },
                    {
                        "classArray": [
                            ""
                        ],
                        "text": "7"
                    }
                ]
            ],
            "products": [
                [
                    {
                        "classArray": [],
                        "text": "4"
                    },
                    {
                        "classArray": [],
                        "text": "4"
                    },
                    {
                        "classArray": [],
                        "text": "8"
                    }
                ]
            ],
            "carryRows": [],
            "operator": "*",
            "answer": []
        },
        {
            "top": [
                [
                    {
                        "classArray": [],
                        "text": "2"
                    },
                    {
                        "classArray": [
                            "hid"
                        ],
                        "text": "0"
                    }
                ],
                [
                    {
                        "classArray": [],
                        "text": "2"
                    },
                    {
                        "classArray": [
                            "hid"
                        ],
                        "text": "0"
                    }
                ]
            ],
            "rows": [
                [
                    {
                        "classArray": [
                            ""
                        ],
                        "text": "6"
                    },
                    {
                        "classArray": [
                            ""
                        ],
                        "text": "4"
                    }
                ],
                [
                    {
                        "classArray": [
                            ""
                        ],
                        "text": "5"
                    },
                    {
                        "classArray": [
                            ""
                        ],
                        "text": "7"
                    }
                ]
            ],
            "products": [
                [
                    {
                        "classArray": [],
                        "text": "4"
                    },
                    {
                        "classArray": [],
                        "text": "4"
                    },
                    {
                        "classArray": [],
                        "text": "8"
                    }
                ]
            ],
            "carryRows": [],
            "operator": "*",
            "answer": []
        },
        {
            "top": [
                [
                    {
                        "classArray": [],
                        "text": "2"
                    },
                    {
                        "classArray": [
                            "hid"
                        ],
                        "text": "0"
                    }
                ],
                [
                    {
                        "classArray": [],
                        "text": "3"
                    },
                    {
                        "classArray": [],
                        "text": "2"
                    },
                    {
                        "classArray": [
                            "hid"
                        ],
                        "text": "0"
                    }
                ]
            ],
            "rows": [
                [
                    {
                        "classArray": [
                            ""
                        ],
                        "text": "6"
                    },
                    {
                        "classArray": [
                            ""
                        ],
                        "text": "4"
                    }
                ],
                [
                    {
                        "classArray": [
                            ""
                        ],
                        "text": "5"
                    },
                    {
                        "classArray": [
                            ""
                        ],
                        "text": "7"
                    }
                ]
            ],
            "products": [
                [
                    {
                        "classArray": [],
                        "text": "4"
                    },
                    {
                        "classArray": [],
                        "text": "4"
                    },
                    {
                        "classArray": [],
                        "text": "8"
                    }
                ],
                [
                    {
                        "classArray": [],
                        "text": "2"
                    },
                    {
                        "classArray": [],
                        "text": "0"
                    },
                    {
                        "classArray": [],
                        "text": "0"
                    }
                ]
            ],
            "carryRows": [],
            "operator": "*",
            "answer": []
        },
        {
            "top": [
                [
                    {
                        "classArray": [],
                        "text": "2"
                    },
                    {
                        "classArray": [
                            "hid"
                        ],
                        "text": "0"
                    }
                ],
                [
                    {
                        "classArray": [],
                        "text": "2"
                    },
                    {
                        "classArray": [
                            "hid"
                        ],
                        "text": "0"
                    }
                ]
            ],
            "rows": [
                [
                    {
                        "classArray": [
                            ""
                        ],
                        "text": "6"
                    },
                    {
                        "classArray": [
                            ""
                        ],
                        "text": "4"
                    }
                ],
                [
                    {
                        "classArray": [
                            ""
                        ],
                        "text": "5"
                    },
                    {
                        "classArray": [
                            ""
                        ],
                        "text": "7"
                    }
                ]
            ],
            "products": [
                [
                    {
                        "classArray": [],
                        "text": "4"
                    },
                    {
                        "classArray": [],
                        "text": "4"
                    },
                    {
                        "classArray": [],
                        "text": "8"
                    }
                ],
                [
                    {
                        "classArray": [],
                        "text": "3"
                    },
                    {
                        "classArray": [],
                        "text": "2"
                    },
                    {
                        "classArray": [],
                        "text": "0"
                    },
                    {
                        "classArray": [],
                        "text": "0"
                    }
                ]
            ],
            "carryRows": [],
            "operator": "*",
            "answer": []
        },
        {
            "top": [
                [
                    {
                        "classArray": [],
                        "text": "2"
                    },
                    {
                        "classArray": [
                            "hid"
                        ],
                        "text": "0"
                    }
                ],
                [
                    {
                        "classArray": [],
                        "text": "2"
                    },
                    {
                        "classArray": [
                            "hid"
                        ],
                        "text": "0"
                    }
                ]
            ],
            "rows": [
                [
                    {
                        "classArray": [
                            ""
                        ],
                        "text": "6"
                    },
                    {
                        "classArray": [
                            ""
                        ],
                        "text": "4"
                    }
                ],
                [
                    {
                        "classArray": [
                            ""
                        ],
                        "text": "5"
                    },
                    {
                        "classArray": [
                            ""
                        ],
                        "text": "7"
                    }
                ]
            ],
            "products": [
                [
                    {
                        "classArray": [],
                        "text": "4"
                    },
                    {
                        "classArray": [],
                        "text": "4"
                    },
                    {
                        "classArray": [],
                        "text": "8"
                    }
                ],
                [
                    {
                        "classArray": [],
                        "text": "3"
                    },
                    {
                        "classArray": [],
                        "text": "2"
                    },
                    {
                        "classArray": [],
                        "text": "0"
                    },
                    {
                        "classArray": [],
                        "text": "0"
                    }
                ]
            ],
            "carryRows": [],
            "operator": "*",
            "answer": [
                {
                    "classArray": [],
                    "text": "8"
                }
            ]
        },
        {
            "top": [
                [
                    {
                        "classArray": [],
                        "text": "2"
                    },
                    {
                        "classArray": [
                            "hid"
                        ],
                        "text": "0"
                    }
                ],
                [
                    {
                        "classArray": [],
                        "text": "2"
                    },
                    {
                        "classArray": [
                            "hid"
                        ],
                        "text": "0"
                    }
                ]
            ],
            "rows": [
                [
                    {
                        "classArray": [
                            ""
                        ],
                        "text": "6"
                    },
                    {
                        "classArray": [
                            ""
                        ],
                        "text": "4"
                    }
                ],
                [
                    {
                        "classArray": [
                            ""
                        ],
                        "text": "5"
                    },
                    {
                        "classArray": [
                            ""
                        ],
                        "text": "7"
                    }
                ]
            ],
            "products": [
                [
                    {
                        "classArray": [],
                        "text": "4"
                    },
                    {
                        "classArray": [],
                        "text": "4"
                    },
                    {
                        "classArray": [],
                        "text": "8"
                    }
                ],
                [
                    {
                        "classArray": [],
                        "text": "3"
                    },
                    {
                        "classArray": [],
                        "text": "2"
                    },
                    {
                        "classArray": [],
                        "text": "0"
                    },
                    {
                        "classArray": [],
                        "text": "0"
                    }
                ]
            ],
            "carryRows": [],
            "operator": "*",
            "answer": [
                {
                    "classArray": [],
                    "text": "4"
                },
                {
                    "classArray": [],
                    "text": "8"
                }
            ]
        },
        {
            "top": [
                [
                    {
                        "classArray": [],
                        "text": "2"
                    },
                    {
                        "classArray": [
                            "hid"
                        ],
                        "text": "0"
                    }
                ],
                [
                    {
                        "classArray": [],
                        "text": "2"
                    },
                    {
                        "classArray": [
                            "hid"
                        ],
                        "text": "0"
                    }
                ]
            ],
            "rows": [
                [
                    {
                        "classArray": [
                            ""
                        ],
                        "text": "6"
                    },
                    {
                        "classArray": [
                            ""
                        ],
                        "text": "4"
                    }
                ],
                [
                    {
                        "classArray": [
                            ""
                        ],
                        "text": "5"
                    },
                    {
                        "classArray": [
                            ""
                        ],
                        "text": "7"
                    }
                ]
            ],
            "products": [
                [
                    {
                        "classArray": [],
                        "text": "4"
                    },
                    {
                        "classArray": [],
                        "text": "4"
                    },
                    {
                        "classArray": [],
                        "text": "8"
                    }
                ],
                [
                    {
                        "classArray": [],
                        "text": "3"
                    },
                    {
                        "classArray": [],
                        "text": "2"
                    },
                    {
                        "classArray": [],
                        "text": "0"
                    },
                    {
                        "classArray": [],
                        "text": "0"
                    }
                ]
            ],
            "carryRows": [],
            "operator": "*",
            "answer": [
                {
                    "classArray": [],
                    "text": "6"
                },
                {
                    "classArray": [],
                    "text": "4"
                },
                {
                    "classArray": [],
                    "text": "8"
                }
            ]
        },
        {
            "top": [
                [
                    {
                        "classArray": [],
                        "text": "2"
                    },
                    {
                        "classArray": [
                            "hid"
                        ],
                        "text": "0"
                    }
                ],
                [
                    {
                        "classArray": [],
                        "text": "2"
                    },
                    {
                        "classArray": [
                            "hid"
                        ],
                        "text": "0"
                    }
                ]
            ],
            "rows": [
                [
                    {
                        "classArray": [
                            ""
                        ],
                        "text": "6"
                    },
                    {
                        "classArray": [
                            ""
                        ],
                        "text": "4"
                    }
                ],
                [
                    {
                        "classArray": [
                            ""
                        ],
                        "text": "5"
                    },
                    {
                        "classArray": [
                            ""
                        ],
                        "text": "7"
                    }
                ]
            ],
            "products": [
                [
                    {
                        "classArray": [],
                        "text": "4"
                    },
                    {
                        "classArray": [],
                        "text": "4"
                    },
                    {
                        "classArray": [],
                        "text": "8"
                    }
                ],
                [
                    {
                        "classArray": [],
                        "text": "3"
                    },
                    {
                        "classArray": [],
                        "text": "2"
                    },
                    {
                        "classArray": [],
                        "text": "0"
                    },
                    {
                        "classArray": [],
                        "text": "0"
                    }
                ]
            ],
            "carryRows": [],
            "operator": "*",
            "answer": [
                {
                    "classArray": [],
                    "text": "3"
                },
                {
                    "classArray": [],
                    "text": "6"
                },
                {
                    "classArray": [],
                    "text": "4"
                },
                {
                    "classArray": [],
                    "text": "8"
                }
            ]
        }
    ]
}