{
	"textures": [
		{
			"image": "cutters.png",
			"format": "RGBA8888",
			"size": {
				"w": 1166,
				"h": 357
			},
			"scale": 1,
			"frames": [
				{
					"filename": "2.png",
					"rotated": false,
					"trimmed": false,
					"sourceSize": {
						"w": 276,
						"h": 355
					},
					"spriteSourceSize": {
						"x": 0,
						"y": 0,
						"w": 276,
						"h": 355
					},
					"frame": {
						"x": 1,
						"y": 1,
						"w": 276,
						"h": 355
					}
				},
				{
					"filename": "1.png",
					"rotated": false,
					"trimmed": false,
					"sourceSize": {
						"w": 352,
						"h": 352
					},
					"spriteSourceSize": {
						"x": 0,
						"y": 0,
						"w": 352,
						"h": 352
					},
					"frame": {
						"x": 279,
						"y": 1,
						"w": 352,
						"h": 352
					}
				},
				{
					"filename": "0.png",
					"rotated": false,
					"trimmed": false,
					"sourceSize": {
						"w": 193,
						"h": 346
					},
					"spriteSourceSize": {
						"x": 0,
						"y": 0,
						"w": 193,
						"h": 346
					},
					"frame": {
						"x": 633,
						"y": 1,
						"w": 193,
						"h": 346
					}
				},
				{
					"filename": "3.png",
					"rotated": false,
					"trimmed": false,
					"sourceSize": {
						"w": 337,
						"h": 336
					},
					"spriteSourceSize": {
						"x": 0,
						"y": 0,
						"w": 337,
						"h": 336
					},
					"frame": {
						"x": 828,
						"y": 1,
						"w": 337,
						"h": 336
					}
				}
			]
		}
	],
	"meta": {
		"app": "https://www.codeandweb.com/texturepacker",
		"version": "3.0",
		"smartupdate": "$TexturePacker:SmartUpdate:e6161c487dd8052831dd6c4a15b7d145:4826d2d1fcd081def501cab0d446aac3:6e904f001865d5c75e3e37942bc15042$"
	}
}
