{
	"textures": [
		{
			"image": "trash.png",
			"format": "RGBA8888",
			"size": {
				"w": 142,
				"h": 112
			},
			"scale": 0.25,
			"frames": [
				{
					"filename": "2.png",
					"rotated": false,
					"trimmed": false,
					"sourceSize": {
						"w": 44,
						"h": 57
					},
					"spriteSourceSize": {
						"x": 0,
						"y": 0,
						"w": 44,
						"h": 57
					},
					"frame": {
						"x": 1,
						"y": 1,
						"w": 44,
						"h": 57
					}
				},
				{
					"filename": "4.png",
					"rotated": false,
					"trimmed": false,
					"sourceSize": {
						"w": 86,
						"h": 49
					},
					"spriteSourceSize": {
						"x": 0,
						"y": 0,
						"w": 86,
						"h": 49
					},
					"frame": {
						"x": 1,
						"y": 60,
						"w": 86,
						"h": 49
					}
				},
				{
					"filename": "1.png",
					"rotated": false,
					"trimmed": false,
					"sourceSize": {
						"w": 83,
						"h": 46
					},
					"spriteSourceSize": {
						"x": 0,
						"y": 0,
						"w": 83,
						"h": 46
					},
					"frame": {
						"x": 47,
						"y": 1,
						"w": 83,
						"h": 46
					}
				},
				{
					"filename": "5.png",
					"rotated": false,
					"trimmed": false,
					"sourceSize": {
						"w": 50,
						"h": 39
					},
					"spriteSourceSize": {
						"x": 0,
						"y": 0,
						"w": 50,
						"h": 39
					},
					"frame": {
						"x": 89,
						"y": 49,
						"w": 50,
						"h": 39
					}
				},
				{
					"filename": "3.png",
					"rotated": false,
					"trimmed": false,
					"sourceSize": {
						"w": 52,
						"h": 21
					},
					"spriteSourceSize": {
						"x": 0,
						"y": 0,
						"w": 52,
						"h": 21
					},
					"frame": {
						"x": 89,
						"y": 90,
						"w": 52,
						"h": 21
					}
				}
			]
		}
	],
	"meta": {
		"app": "https://www.codeandweb.com/texturepacker",
		"version": "3.0",
		"smartupdate": "$TexturePacker:SmartUpdate:1fee395bdd1ff72eea909310956f73e1:1fac8fe9650ae156b1af42c21375ad1b:fed2d4d826b5ccc56796f850839e5048$"
	}
}
