<svg xmlns="http://www.w3.org/2000/svg" style="display: none;">
    <symbol id="bluebox" viewBox="0 0 128 128">
        <rect fill="blue" stroke="white" stroke-width="12" width="100%" height="100%" rx="16"></rect>
    </symbol>
    <symbol id="uiWindow">
        <rect class="uiWindow" fill="white" stroke="#375982" stroke-width="10"></rect>
    </symbol>
    <symbol id="greenbox">
        <rect width="100" height="100" fill="white" stroke="green" stroke-width="2px"></rect>
    </symbol>
    <symbol id="redbox">
        <rect width="100" height="100" fill="white" stroke="red " stroke-width="2px"></rect>
    </symbol>
     <symbol id="yellowbox">
        <rect width="100" height="100" fill="white" stroke="yellow " stroke-width="2px"></rect>
    </symbol>
    <symbol id="redstar">
        <path fill="red"
            d="M12 .587l3.668 7.568 8.332 1.151-6.064 5.828 1.48 8.279-7.416-3.967-7.417 3.967 1.481-8.279-6.064-5.828 8.332-1.151z" />
    </symbol>
    <symbol id="bluestar">
       <rect width="100" height="100" fill="aliceblue" /> </symbol>
    <symbol id="greenstar">
        <path fill="green"
            d="M12 .587l3.668 7.568 8.332 1.151-6.064 5.828 1.48 8.279-7.416-3.967-7.417 3.967 1.481-8.279-6.064-5.828 8.332-1.151z" />
    </symbol>
    <symbol id="yellowstar">
        <path fill="yellow"
            d="M12 .587l3.668 7.568 8.332 1.151-6.064 5.828 1.48 8.279-7.416-3.967-7.417 3.967 1.481-8.279-6.064-5.828 8.332-1.151z" />
    </symbol>
    <symbol id="orangestar">
        <path fill="orange"
            d="M12 .587l3.668 7.568 8.332 1.151-6.064 5.828 1.48 8.279-7.416-3.967-7.417 3.967 1.481-8.279-6.064-5.828 8.332-1.151z" />
    </symbol>
</svg>