{
  "subs": [
    {
      "start": "00:00:00",
      "end": "00:00:02",
      "text": "A delicious history of ice cream"
    },
    {
      "start": "00:00:02",
      "end": "00:00:04",
      "text": "Who invented ice cream?"
    },
    {
      "start": "00:00:04",
      "end": "00:00:06",
      "text": "It all begins with snow."
    }
  ]
}
