{
  "book": {
    "pages": [
      {
        "audio": "1.mp3",
        "bgmusic": "ObservingTheStar",
        "image": "rover.jpg",
        "auto": 1,
        "effect": 7,
        "effectParams": {
          "duration": "6000",
          "startY": 50,
          "endY": 50,
          "startX": 0,
          "zoomStart": 2,
          "endX": 20,
          "zoomEnd": 3
        },
        "poppers": {},
        "title": "Interesting facts about Mars",
        "text": "What do you know about mars?"
      },

      {
        "audio": "2.mp3",
        "bgmusic": "ObservingTheStar",
        "image": "mars1.jpg",
        "auto": 0,
        "effect": 7,
        "effectParams": {
          "duration": "20000",
          "endY": 10,
          "startX": -10,
          "zoomStart": 2,
          "endX": 70,
          "zoomEnd": 5
        },
        "poppers": {},
        "title": "Mars and Earth have approximately the same landmass.",
        "text": "Even though Mars has only 15% of the Earth’s volume and just over 10% of the Earth’s mass, around two thirds of the Earth’s surface is covered in water. Martian surface gravity is only 37% of the Earth’s (meaning you could leap nearly three times higher on Mars)."
      },
      {
        "audio": "4.mp3",
        "bgmusic": "ObservingTheStar",
        "image": "mars3.jpg",
        "auto": 0,
        "effect": 7,
        "effectParams": {
          "duration": "12000",
          "endY": 50,
          "angleStart": 40,
          "angleEnd": 0,
          "startX": 30,
          "startY": 60,
          "zoomStart": 5,
          "endX": 50,
          "zoomEnd": 1
        },
        "poppers": {},
        "title": "There are signs of liquid water on Mars.",
        "text": "For years Mars has been known to have water in the form of ice. The first signs of trickling water are dark stripes or stains on crater wall and cliffs seen in satellite images. Due to Mars’ atmosphere this water would have to be salty to prevent it from freezing or vaporising."
      },
      {
        "audio": "3.mp3",
        "bgmusic": "ObservingTheStar",
        "image": "mons.jpg",
        "auto": 0,
        "effect": 7,
        "effectParams": {
          "duration": "6000",
          "endY": 20,
          "startX": 30,
          "startY": 60,
          "zoomStart": 5,
          "endX": 50,
          "zoomEnd": 2
        },
        "poppers": {},
        "title": "Mars is home to the tallest mountain in the solar system.",
        "text": "Olympus Mons, a shield volcano, is 21km high and 600km in diameter. Despite having formed over billions of years, evidence from volcanic lava flows is so recent many scientists believe it could still be active."
      }
    ]
  }
}
