{"page": {
    "title": "Page 1",
    "backgroundImage": "bg1",
    "backgroundMusic": "FreshAndCool",
    "statics":[{
        "x": 28,
        "y": -1,
        "textKey": "holder",
        "angle": 90,
        "scale": 1,
        "type": "s",
        "alpha": 1,
        "color": 16777215,
        "col": -1,
        "loadEffect": 0,
        "tint": 998239,
        "origin":0
      },{
        "x": 26,
        "y": 0.5,
        "textKey": "rect",
        "angle": 90,
        "scale":-1,
        "w":20,
        "h":10,
        "type": "s",
        "alpha": 1,
        "color": 16777215,
        "col": -1,
        "loadEffect": 0,
        "tint": 13408082,
        "origin":0
      }],
    "keyframes": [
            {
        "itemName": "title1",
        "start": 1000,
        "atts": {
          "x": 29,
          "y": 3,
          "textKey": "A delicious history of <br/>[Ice Cream.]",
          "angle": 90,
          "scale": 1,
          "type": "h",
          "alpha": 1,
          "color": 16777215,
          "col": -1,
          "loadEffect": 0,
          "tint": -1,
          "background":""
        },
        "cssClass": "title1",
        "cssSize":"fs1",
        "highlights": [
          {
            "cssClass": "green",
            "effectName": "noEffect",
            "duration": 1000,
            "scanned": ""
          }
        ],
        "active": true,
        "eventType": "update",
        "useTween": false
      },{
        "itemName": "icecream1",
        "start": 2000,
        "atts": {
          "x": 14,
          "y": 20,
          "textKey": "pimage1",
          "angle": 90,
          "scale": 0.5,
          "type": "im",
          "alpha": 1,
          "color": 16777215,
          "col": -1,
          "loadEffect": 4,
          "tint": -1
        },
        "cssClass": "",
        "highlights": [],
        "active": true,
        "eventType": "update",
        "useTween": false
      }   ]
  }
}
