{
	"textures": [
		{
			"image": "cookies.png",
			"format": "RGBA8888",
			"size": {
				"w": 1938,
				"h": 1022
			},
			"scale": 1,
			"frames": [
				{
					"filename": "cookie11@4x.png",
					"rotated": false,
					"trimmed": false,
					"sourceSize": {
						"w": 253,
						"h": 388
					},
					"spriteSourceSize": {
						"x": 0,
						"y": 0,
						"w": 253,
						"h": 388
					},
					"frame": {
						"x": 1,
						"y": 1,
						"w": 253,
						"h": 388
					}
				},
				{
					"filename": "cookie14@4x.png",
					"rotated": false,
					"trimmed": false,
					"sourceSize": {
						"w": 360,
						"h": 360
					},
					"spriteSourceSize": {
						"x": 0,
						"y": 0,
						"w": 360,
						"h": 360
					},
					"frame": {
						"x": 1,
						"y": 391,
						"w": 360,
						"h": 360
					}
				},
				{
					"filename": "cookie2@4x.png",
					"rotated": false,
					"trimmed": false,
					"sourceSize": {
						"w": 276,
						"h": 356
					},
					"spriteSourceSize": {
						"x": 0,
						"y": 0,
						"w": 276,
						"h": 356
					},
					"frame": {
						"x": 256,
						"y": 1,
						"w": 276,
						"h": 356
					}
				},
				{
					"filename": "cookie1@4x.png",
					"rotated": false,
					"trimmed": false,
					"sourceSize": {
						"w": 352,
						"h": 353
					},
					"spriteSourceSize": {
						"x": 0,
						"y": 0,
						"w": 352,
						"h": 353
					},
					"frame": {
						"x": 363,
						"y": 359,
						"w": 352,
						"h": 353
					}
				},
				{
					"filename": "cookie5@4x.png",
					"rotated": false,
					"trimmed": false,
					"sourceSize": {
						"w": 305,
						"h": 305
					},
					"spriteSourceSize": {
						"x": 0,
						"y": 0,
						"w": 305,
						"h": 305
					},
					"frame": {
						"x": 363,
						"y": 714,
						"w": 305,
						"h": 305
					}
				},
				{
					"filename": "cookie4@4x.png",
					"rotated": false,
					"trimmed": false,
					"sourceSize": {
						"w": 244,
						"h": 353
					},
					"spriteSourceSize": {
						"x": 0,
						"y": 0,
						"w": 244,
						"h": 353
					},
					"frame": {
						"x": 534,
						"y": 1,
						"w": 244,
						"h": 353
					}
				},
				{
					"filename": "cookie0@4x.png",
					"rotated": false,
					"trimmed": false,
					"sourceSize": {
						"w": 194,
						"h": 347
					},
					"spriteSourceSize": {
						"x": 0,
						"y": 0,
						"w": 194,
						"h": 347
					},
					"frame": {
						"x": 717,
						"y": 356,
						"w": 194,
						"h": 347
					}
				},
				{
					"filename": "cookie15@4x.png",
					"rotated": false,
					"trimmed": false,
					"sourceSize": {
						"w": 314,
						"h": 346
					},
					"spriteSourceSize": {
						"x": 0,
						"y": 0,
						"w": 314,
						"h": 346
					},
					"frame": {
						"x": 780,
						"y": 1,
						"w": 314,
						"h": 346
					}
				},
				{
					"filename": "cookie9@4x.png",
					"rotated": false,
					"trimmed": false,
					"sourceSize": {
						"w": 351,
						"h": 342
					},
					"spriteSourceSize": {
						"x": 0,
						"y": 0,
						"w": 351,
						"h": 342
					},
					"frame": {
						"x": 913,
						"y": 349,
						"w": 351,
						"h": 342
					}
				},
				{
					"filename": "cookie10@4x.png",
					"rotated": false,
					"trimmed": false,
					"sourceSize": {
						"w": 350,
						"h": 328
					},
					"spriteSourceSize": {
						"x": 0,
						"y": 0,
						"w": 350,
						"h": 328
					},
					"frame": {
						"x": 913,
						"y": 693,
						"w": 350,
						"h": 328
					}
				},
				{
					"filename": "cookie13@4x.png",
					"rotated": false,
					"trimmed": false,
					"sourceSize": {
						"w": 323,
						"h": 324
					},
					"spriteSourceSize": {
						"x": 0,
						"y": 0,
						"w": 323,
						"h": 324
					},
					"frame": {
						"x": 1265,
						"y": 693,
						"w": 323,
						"h": 324
					}
				},
				{
					"filename": "cookie3@4x.png",
					"rotated": false,
					"trimmed": false,
					"sourceSize": {
						"w": 338,
						"h": 338
					},
					"spriteSourceSize": {
						"x": 0,
						"y": 0,
						"w": 338,
						"h": 338
					},
					"frame": {
						"x": 1096,
						"y": 1,
						"w": 338,
						"h": 338
					}
				},
				{
					"filename": "cookie6@4x.png",
					"rotated": false,
					"trimmed": false,
					"sourceSize": {
						"w": 290,
						"h": 334
					},
					"spriteSourceSize": {
						"x": 0,
						"y": 0,
						"w": 290,
						"h": 334
					},
					"frame": {
						"x": 1266,
						"y": 341,
						"w": 290,
						"h": 334
					}
				},
				{
					"filename": "cookie7@4x.png",
					"rotated": false,
					"trimmed": false,
					"sourceSize": {
						"w": 333,
						"h": 333
					},
					"spriteSourceSize": {
						"x": 0,
						"y": 0,
						"w": 333,
						"h": 333
					},
					"frame": {
						"x": 1436,
						"y": 1,
						"w": 333,
						"h": 333
					}
				},
				{
					"filename": "cookie12@4x.png",
					"rotated": false,
					"trimmed": false,
					"sourceSize": {
						"w": 379,
						"h": 330
					},
					"spriteSourceSize": {
						"x": 0,
						"y": 0,
						"w": 379,
						"h": 330
					},
					"frame": {
						"x": 1558,
						"y": 336,
						"w": 379,
						"h": 330
					}
				},
				{
					"filename": "cookie8@4x.png",
					"rotated": false,
					"trimmed": false,
					"sourceSize": {
						"w": 330,
						"h": 330
					},
					"spriteSourceSize": {
						"x": 0,
						"y": 0,
						"w": 330,
						"h": 330
					},
					"frame": {
						"x": 1590,
						"y": 668,
						"w": 330,
						"h": 330
					}
				}
			]
		}
	],
	"meta": {
		"app": "https://www.codeandweb.com/texturepacker",
		"version": "3.0",
		"smartupdate": "$TexturePacker:SmartUpdate:e86fecae3bf4599ad1f0d8ba624260ad:59354beeed737330e42463a1448b31a2:ae370e4ced2fa26065b5597b285366ee$"
	}
}
