{
  "levels": [
    {
      "text":"My name <span class='high'>ends</span> with the letter <span class='high'>b</span> and you put warm soapy water in me so you can get clean. What am I?",
      "cards": [
        { "word":"glass","image": "glass.svg", "correct": false },
        { "word":"tub","image": "tub.svg", "correct": true }
      ]
    },
    {
      "text":"My name <span class='high'>ends</span> with the letter <span class='high'>w</span> and I eat grass and give milk. What am I?",
      "cards": [
        { "word":"crocodile","image": "croc.png", "correct": false },
        { "word":"cow","image": "cow.png", "correct": true }       
      ]
    },
    {
      "text":"My name <span class='high'>ends</span> with the letter <span class='high'>n</span> and you can see me in the sky at night. What am I?",
      "cards": [
        { "word":"sun","image": "sun.svg", "correct": false },
        { "word":"moon","image": "moon.svg", "correct": true }
      ]
    },
    {
      "text":"My name <span class='high'>ends</span> with the letter <span class='high'>h</span> and I move very slowly. What am I?",
      "cards": [
        { "word":"cat","image": "cat.svg", "correct": false },
        { "word":"sloth","image": "sloth.png", "correct": true }
      ]
    }
  ]
}
