<svg xmlns="http://www.w3.org/2000/svg" xmlns:xlink="http://www.w3.org/1999/xlink" width="80.648" height="85.263" viewBox="0 0 80.648 85.263">
  <defs>
    <filter id="Path_4967" x="0" y="3.752" width="80.648" height="81.511" filterUnits="userSpaceOnUse">
      <feOffset dx="5" dy="5" input="SourceAlpha"/>
      <feGaussianBlur stdDeviation="1" result="blur"/>
      <feFlood flood-opacity="0.4"/>
      <feComposite operator="in" in2="blur"/>
      <feComposite in="SourceGraphic"/>
    </filter>
  </defs>
  <g id="Menu_Icon" data-name="Menu Icon" transform="translate(-1091.325 -969.868)">
    <g transform="matrix(1, 0, 0, 1, 1091.33, 969.87)" filter="url(#Path_4967)">
      <path id="Path_4967-2" data-name="Path 4967" d="M15-2.248l38.675-1c8.284,0,18.973,9.964,18.973,18.248l-.99,41.188c0,8.284-9.7,14.074-17.983,14.074H15a15,15,0,0,1-15-15V15C0,6.716,6.716-2.248,15-2.248Z" transform="translate(0 7)" fill="#375982"/>
    </g>
    <g id="Rectangle_29" data-name="Rectangle 29" transform="translate(1096.325 969.868)" fill="#5a82b9" stroke="#fff" stroke-width="3">
      <rect width="68.675" height="70.263" rx="15" stroke="none"/>
      <rect x="1.5" y="1.5" width="65.675" height="67.263" rx="13.5" fill="none"/>
    </g>
    <g id="Group_326" data-name="Group 326" transform="translate(392.256 914)">
      <line id="Line_8" data-name="Line 8" x2="33.559" transform="translate(728.255 106.788)" fill="none" stroke="#000" stroke-linecap="round" stroke-width="5"/>
      <line id="Line_8-2" data-name="Line 8" x2="33.559" transform="translate(726.945 105.478)" fill="none" stroke="#fff" stroke-linecap="round" stroke-width="5"/>
      <ellipse id="Ellipse_12" data-name="Ellipse 12" cx="3.5" cy="3" rx="3.5" ry="3" transform="translate(715 104)"/>
      <circle id="Ellipse_11" data-name="Ellipse 11" cx="3.5" cy="3.5" r="3.5" transform="translate(714 102)" fill="#fff"/>
      <line id="Line_9" data-name="Line 9" x2="33.559" transform="translate(728.255 93.687)" fill="none" stroke="#000" stroke-linecap="round" stroke-width="5"/>
      <line id="Line_10" data-name="Line 10" x2="33.559" transform="translate(726.945 92.377)" fill="none" stroke="#fff" stroke-linecap="round" stroke-width="5"/>
      <circle id="Ellipse_13" data-name="Ellipse 13" cx="3.5" cy="3.5" r="3.5" transform="translate(715 90)"/>
      <circle id="Ellipse_14" data-name="Ellipse 14" cx="3.5" cy="3.5" r="3.5" transform="translate(714 89)" fill="#fff"/>
      <line id="Line_11" data-name="Line 11" x2="33.559" transform="translate(728.255 80.586)" fill="none" stroke="#000" stroke-linecap="round" stroke-width="5"/>
      <line id="Line_12" data-name="Line 12" x2="33.559" transform="translate(726.945 79.275)" fill="none" stroke="#fff" stroke-linecap="round" stroke-width="5"/>
      <circle id="Ellipse_15" data-name="Ellipse 15" cx="3.5" cy="3.5" r="3.5" transform="translate(715 77)"/>
      <circle id="Ellipse_16" data-name="Ellipse 16" cx="3.5" cy="3.5" r="3.5" transform="translate(714 76)" fill="#fff"/>
    </g>
  </g>
</svg>
