{
  "instructions": "Click the word that  goes with the picture",
  "levels": [
    {
      "letters": [
        { "letter": "Cat", "correct": true },
        { "letter": "Sat", "correct": false },
        { "letter": "Jam", "correct": false }
      ],
      "image": "cat.svg"
    },
    {
      "letters": [
        { "letter": "Cat", "correct": false },
        { "letter": "Hat", "correct": true },
        { "letter": "Jam", "correct": false }
      ],
      "image": "hat.svg"
    },
    {
      "letters": [
        { "letter": "Bear", "correct": false },
        { "letter": "Chair", "correct": true },
        { "letter": "Care", "correct": false }
      ],
      "image": "chair.svg"
    }
  ]
}
