{
  "files": {
    "main.css": "/static/css/main.1986d131.chunk.css",
    "main.js": "/static/js/main.2b2d31cd.chunk.js",
    "main.js.map": "/static/js/main.2b2d31cd.chunk.js.map",
    "runtime-main.js": "/static/js/runtime-main.297db765.js",
    "runtime-main.js.map": "/static/js/runtime-main.297db765.js.map",
    "static/css/2.150d169a.chunk.css": "/static/css/2.150d169a.chunk.css",
    "static/js/2.6cca2440.chunk.js": "/static/js/2.6cca2440.chunk.js",
    "static/js/2.6cca2440.chunk.js.map": "/static/js/2.6cca2440.chunk.js.map",
    "static/js/3.5115f5ca.chunk.js": "/static/js/3.5115f5ca.chunk.js",
    "static/js/3.5115f5ca.chunk.js.map": "/static/js/3.5115f5ca.chunk.js.map",
    "index.html": "/index.html",
    "static/css/2.150d169a.chunk.css.map": "/static/css/2.150d169a.chunk.css.map",
    "static/css/main.1986d131.chunk.css.map": "/static/css/main.1986d131.chunk.css.map",
    "static/js/2.6cca2440.chunk.js.LICENSE.txt": "/static/js/2.6cca2440.chunk.js.LICENSE.txt"
  },
  "entrypoints": [
    "static/js/runtime-main.297db765.js",
    "static/css/2.150d169a.chunk.css",
    "static/js/2.6cca2440.chunk.js",
    "static/css/main.1986d131.chunk.css",
    "static/js/main.2b2d31cd.chunk.js"
  ]
}