<svg id="Group_315" data-name="Group 315" xmlns="http://www.w3.org/2000/svg" xmlns:xlink="http://www.w3.org/1999/xlink" width="75.207" height="76.076" viewBox="0 0 75.207 76.076">
  <defs>
    <filter id="Path_4968" x="5.285" y="8.147" width="69.922" height="67.929" filterUnits="userSpaceOnUse">
      <feOffset dx="5" dy="5" input="SourceAlpha"/>
      <feGaussianBlur stdDeviation="1" result="blur"/>
      <feFlood flood-opacity="0.4"/>
      <feComposite operator="in" in2="blur"/>
      <feComposite in="SourceGraphic"/>
    </filter>
  </defs>
  <g transform="matrix(1, 0, 0, 1, 0, 0)" filter="url(#Path_4968)">
    <path id="Path_4968-2" data-name="Path 4968" d="M26.675,14.325c2.947-5.9,15.4-5.465,17.1,2.149L63.867,56.142c2.657,5.319-3.319,16.065-9.265,16.065H14.389C4.445,71.33,3.126,61.461,5.783,56.142Z" transform="translate(-5 72.66) rotate(-90)" fill="#375982"/>
  </g>
  <g id="Polygon_1" data-name="Polygon 1" transform="translate(0 67.664) rotate(-90)" fill="#5a82b9">
    <path d="M 54.72407150268555 66.21774291992188 L 12.93965339660645 66.21774291992188 C 10.67085361480713 66.21774291992188 8.604053497314453 65.06564331054688 7.410963535308838 63.1358757019043 C 6.217883586883545 61.20610809326172 6.110953330993652 58.84230804443359 7.124943256378174 56.81270599365234 L 28.01715278625488 14.99493598937988 C 29.14178276062012 12.74387645721436 31.31550407409668 11.3999662399292 33.83186340332031 11.3999662399292 C 36.34821319580078 11.3999662399292 38.52193450927734 12.74388599395752 39.64657211303711 14.99493598937988 L 60.53878402709961 56.81270599365234 C 61.55277252197266 58.84230804443359 61.44584274291992 61.20610809326172 60.25276184082031 63.1358757019043 C 59.05967330932617 65.06564331054688 56.99287414550781 66.21774291992188 54.72407150268555 66.21774291992188 Z" stroke="none"/>
    <path d="M 33.83186340332031 12.89995956420898 C 31.89619827270508 12.89995956420898 30.2241096496582 13.93373870849609 29.3590087890625 15.66533660888672 L 8.466796875 57.48309326171875 C 7.675163269042969 59.0676383972168 7.755352020263672 60.84048080444336 8.686817169189453 62.34708404541016 C 9.618274688720703 63.85366058349609 11.16837310791016 64.71773529052734 12.93965148925781 64.71773529052734 L 54.72407531738281 64.71773529052734 C 56.49535369873047 64.71773529052734 58.04545211791992 63.85366058349609 58.97690582275391 62.34706878662109 C 59.90836334228516 60.84048080444336 59.98855209350586 59.067626953125 59.19691848754883 57.48310470581055 L 38.30471038818359 15.66532516479492 C 37.43960571289062 13.93373870849609 35.76751708984375 12.89995956420898 33.83186340332031 12.89995956420898 M 33.83186340332031 9.89996337890625 C 36.67330169677734 9.89996337890625 39.51473617553711 11.37482452392578 40.98841857910156 14.32453918457031 L 61.88063049316406 56.14231491088867 C 64.53804016113281 61.46137237548828 60.67000579833984 67.71773529052734 54.72407531738281 67.71773529052734 L 12.93965148925781 67.71773529052734 C 6.993709564208984 67.71773529052734 3.125686645507812 61.46138000488281 5.783084869384766 56.14231491088867 L 26.67529678344727 14.32454681396484 C 28.14897918701172 11.37482452392578 30.99042129516602 9.89996337890625 33.83186340332031 9.89996337890625 Z" stroke="none" fill="#fff"/>
  </g>
</svg>
