<svg xmlns="http://www.w3.org/2000/svg" xmlns:xlink="http://www.w3.org/1999/xlink" width="108" height="108" viewBox="0 0 108 108">
  <defs>
    <radialGradient id="radial-gradient" cx="0.5" cy="0.5" r="0.5" gradientUnits="objectBoundingBox">
      <stop offset="0" stop-color="#5c90ce"/>
      <stop offset="1" stop-color="#375982"/>
    </radialGradient>
    <filter id="Ellipse_1" x="0" y="0" width="108" height="108" filterUnits="userSpaceOnUse">
      <feOffset dx="5" dy="5" input="SourceAlpha"/>
      <feGaussianBlur stdDeviation="3" result="blur"/>
      <feFlood flood-opacity="0.4"/>
      <feComposite operator="in" in2="blur"/>
      <feComposite in="SourceGraphic"/>
    </filter>
  </defs>
  <g id="Pause_Button" data-name="Pause Button" transform="translate(-2181 -7999)">
    <g transform="matrix(1, 0, 0, 1, 2181, 7999)" filter="url(#Ellipse_1)">
      <g id="Ellipse_1-2" data-name="Ellipse 1" transform="translate(4 4)" stroke="#fff" stroke-width="5" fill="url(#radial-gradient)">
        <circle cx="45" cy="45" r="45" stroke="none"/>
        <circle cx="45" cy="45" r="42.5" fill="none"/>
      </g>
    </g>
    <g id="Group_190" data-name="Group 190" transform="translate(2221 8028.714)">
      <line id="Line_3" data-name="Line 3" y2="38.571" transform="translate(0)" fill="none" stroke="#fff" stroke-linecap="round" stroke-width="6"/>
      <line id="Line_4" data-name="Line 4" y2="38.571" transform="translate(19.286)" fill="none" stroke="#fff" stroke-linecap="round" stroke-width="6"/>
    </g>
  </g>
</svg>
