<svg xmlns="http://www.w3.org/2000/svg" xmlns:xlink="http://www.w3.org/1999/xlink" width="80.648" height="85.263" viewBox="0 0 80.648 85.263">
  <defs>
    <filter id="Path_4967" x="0" y="3.752" width="80.648" height="81.511" filterUnits="userSpaceOnUse">
      <feOffset dx="5" dy="5" input="SourceAlpha"/>
      <feGaussianBlur stdDeviation="1" result="blur"/>
      <feFlood flood-opacity="0.4"/>
      <feComposite operator="in" in2="blur"/>
      <feComposite in="SourceGraphic"/>
    </filter>
    <filter id="_" x="24" y="7.263" width="28" height="64" filterUnits="userSpaceOnUse">
      <feOffset dx="2" dy="2" input="SourceAlpha"/>
      <feGaussianBlur result="blur-2"/>
      <feFlood flood-opacity="0.749"/>
      <feComposite operator="in" in2="blur-2"/>
      <feComposite in="SourceGraphic"/>
    </filter>
  </defs>
  <g id="Hint_" data-name="Hint (?)" transform="translate(-1091.325 -969.868)">
    <g transform="matrix(1, 0, 0, 1, 1091.33, 969.87)" filter="url(#Path_4967)">
      <path id="Path_4967-2" data-name="Path 4967" d="M15-2.248l38.675-1c8.284,0,18.973,9.964,18.973,18.248l-.99,41.188c0,8.284-9.7,14.074-17.983,14.074H15a15,15,0,0,1-15-15V15C0,6.716,6.716-2.248,15-2.248Z" transform="translate(0 7)" fill="#bc481b"/>
    </g>
    <g id="Rectangle_29" data-name="Rectangle 29" transform="translate(1096.325 969.868)" fill="#f26522" stroke="#fff" stroke-width="3">
      <rect width="68.675" height="70.263" rx="15" stroke="none"/>
      <rect x="1.5" y="1.5" width="65.675" height="67.263" rx="13.5" fill="none"/>
    </g>
    <g transform="matrix(1, 0, 0, 1, 1091.33, 969.87)" filter="url(#_)">
      <text id="_2" data-name="?" transform="translate(37 58.26)" fill="#fff" font-size="56.473" font-family="BarthowheelRegular, Barthowheel"><tspan x="-12.036" y="0">?</tspan></text>
    </g>
  </g>
</svg>
