<svg xmlns="http://www.w3.org/2000/svg" xmlns:xlink="http://www.w3.org/1999/xlink" width="431.999" height="342.038" viewBox="0 0 431.999 342.038">
    <defs>
      <filter id="Union_4" x="0" y="0" width="431.999" height="342.038" filterUnits="userSpaceOnUse">
        <feOffset input="SourceAlpha"/>
        <feGaussianBlur stdDeviation="7.5" result="blur"/>
        <feFlood flood-opacity="0.6"/>
        <feComposite operator="in" in2="blur"/>
        <feComposite in="SourceGraphic"/>
      </filter>
    </defs>
    <g transform="matrix(1, 0, 0, 1, 0, 0)" filter="url(#Union_4)">
      <path id="Union_4-2" data-name="Union 4" d="M149.747,473.436c-15.8-7.634-54.355-10.781-71.55-11.836H20a20,20,0,0,1-20-20V223a20,20,0,0,1,20-20H367a20,20,0,0,1,20,20V441.6a20,20,0,0,1-20,20H321.634c-16.221,1.432-65.322,6.125-82.209,11.836C219.075,480.318,201,498.968,193.5,500a4.806,4.806,0,0,1-.651.043C185.122,500.039,169.8,483.126,149.747,473.436Z" transform="translate(22.5 -180.5)" fill="#5788c4"/>
    </g>
  </svg>
  