{
    "page": { "id": 1 },
    "elements": [
        {
          "type": "IMAGE",
          "subtype": "none",
          "classes": [],
          "content": ["fairy3.svg"],
          "x": 25,
          "y": 65,
          "w": 44,
          "h": 0,
          "linkID": "",
          "extras": {
            "alpha": 100,
            "rotation": 0,
            "flipH": false,
            "flipV": false,
            "orientation": 4,
            "skewX": 0,
            "skewY": 0,
            "borderColor": "#000000",
            "borderThick": 0,
            "fontSize": 16,
            "fontColor": "#000000",
            "fontName": "Arial",
            "backgroundPosX": 0,
            "backgroundPosY": 0,
            "backgroundSizeW": 100,
            "backgroundSizeH": 100,
            "popupID": -1
          }
        },
        {
          "type": "TEXT",
          "subtype": "none",
          "classes": [],
          "content": [
            "Once upon a time there was a little girl who loved trees, and liked to talk to them whenever she could"
          ],
          "x": 53,
          "y": 17,
          "w": 32,
          "h": 0,
          "linkID": "",
          "extras": {
            "alpha": 100,
            "rotation": 0,
            "flipH": false,
            "flipV": false,
            "orientation": 0,
            "skewX": 0,
            "skewY": 0,
            "borderColor": "#000000",
            "borderThick": 0,
            "fontSize": 16,
            "fontColor": "#000000",
            "fontName": "Arial",
            "backgroundPosX": 0,
            "backgroundPosY": 0,
            "backgroundSizeW": 100,
            "backgroundSizeH": 100,
            "popupID": -1
          }
        }
      ]
}