<svg xmlns="http://www.w3.org/2000/svg" xmlns:xlink="http://www.w3.org/1999/xlink" width="66.315" height="103.911" viewBox="0 0 66.315 103.911">
  <defs>
    <filter id="Right_Arrow" x="0" y="0" width="66.315" height="103.911" filterUnits="userSpaceOnUse">
      <feOffset dx="5" dy="5" input="SourceAlpha"/>
      <feGaussianBlur stdDeviation="3" result="blur"/>
      <feFlood flood-opacity="0.4"/>
      <feComposite operator="in" in2="blur"/>
      <feComposite in="SourceGraphic"/>
    </filter>
  </defs>
  <g transform="matrix(1, 0, 0, 1, 0, 0)" filter="url(#Right_Arrow)">
    <g id="Right_Arrow-2" data-name="Right Arrow" transform="translate(87.36 67.24)" fill="#6384d2">
      <path d="M -77.96396636962891 21.67437362670898 C -79.1376953125 21.67437362670898 -80.24127197265625 21.21720886230469 -81.07139587402344 20.3870906829834 C -82.78440093994141 18.67407989501953 -82.78440093994141 15.88682079315186 -81.07139587402344 14.17380905151367 L -47.32364654541016 -19.57394409179688 L -46.61653900146484 -20.28104972839355 L -47.32364654541016 -20.98815536499023 L -81.07139587402344 -54.73590850830078 C -82.78427886962891 -56.44880294799805 -82.78421020507812 -59.23654556274414 -81.07124328613281 -60.95024871826172 C -80.24140930175781 -61.77972030639648 -79.13778686523438 -62.23669815063477 -77.96396636962891 -62.23669815063477 C -76.79022216796875 -62.23669815063477 -75.6868896484375 -61.77977752685547 -74.85720825195312 -60.95009613037109 L -37.32990264892578 -23.42279052734375 C -36.48085784912109 -22.57374382019043 -36.02392959594727 -21.44490814208984 -36.04328155517578 -20.24423789978027 L -36.04338836669922 -20.23789596557617 L -36.04339981079102 -20.2315673828125 C -36.04742050170898 -19.06367301940918 -36.50431442260742 -17.9658031463623 -37.32990264892578 -17.14020347595215 L -74.85720825195312 20.3870906829834 C -75.68703460693359 21.21725654602051 -76.79030609130859 21.67437362670898 -77.96396636962891 21.67437362670898 Z" stroke="none"/>
      <path d="M -77.96395874023438 20.67437362670898 C -77.05748748779297 20.67437362670898 -76.20538330078125 20.32133483886719 -75.56430816650391 19.67998504638672 L -38.03701019287109 -17.84731483459473 C -37.39938735961914 -18.48495292663574 -37.04651260375977 -19.33291435241699 -37.04339981079102 -20.23502731323242 L -37.04314804077148 -20.26035118103027 C -37.0282096862793 -21.18785285949707 -37.38116073608398 -22.05983924865723 -38.03701019287109 -22.71568870544434 L -75.56430816650391 -60.24298858642578 C -76.20512390136719 -60.8837890625 -77.05733489990234 -61.23670196533203 -77.96395874023438 -61.23670196533203 C -78.87075042724609 -61.23670196533203 -79.72331237792969 -60.88368988037109 -80.36398315429688 -60.24328994750977 C -81.68722534179688 -58.91949081420898 -81.68736267089844 -56.76609039306641 -80.36428833007812 -55.44301605224609 L -45.20232391357422 -20.28105163574219 L -80.36428833007812 14.88091087341309 C -81.68740081787109 16.20402336120605 -81.68740081787109 18.35687255859375 -80.36428833007812 19.67998504638672 C -79.72304534912109 20.32122230529785 -78.87058258056641 20.67437362670898 -77.96395874023438 20.67437362670898 M -77.96395874023438 22.67437362670898 C -79.34445190429688 22.67437362670898 -80.72505187988281 22.14764785766602 -81.77849578857422 21.09419822692871 C -83.88449859619141 18.98819732666016 -83.88449859619141 15.57269763946533 -81.77849578857422 13.46669769287109 L -48.0307502746582 -20.28105163574219 L -81.77849578857422 -54.02880096435547 C -83.88449859619141 -56.13480377197266 -83.88449859619141 -59.55030059814453 -81.77849578857422 -61.65720367431641 C -79.67160797119141 -63.76319122314453 -76.256103515625 -63.76320648193359 -74.15010070800781 -61.65720367431641 L -36.62279891967773 -24.12990188598633 C -35.54710006713867 -23.05420112609863 -35.02069854736328 -21.63761520385742 -35.04341125488281 -20.22812652587891 C -35.04814910888672 -18.85398864746094 -35.57456207275391 -17.4813404083252 -36.62279891967773 -16.43310165405273 L -74.15010070800781 21.09419822692871 C -75.20310211181641 22.14764785766602 -76.58347320556641 22.67437362670898 -77.96395874023438 22.67437362670898 Z" stroke="none" fill="#fff"/>
    </g>
  </g>
</svg>
