{
    "steps": [
        {
            "id": 0,
            "elements": [
                {
                    "type": "TEXT",
                    "subType": "none",
                    "classes": [],
                    "content": [
                        "Your Text Here Your Text Here Your Text Here Your Text Here"
                    ],
                    "x": 13.35,
                    "y": 14.43,
                    "w": 20,
                    "h": 0,
                    "eid": "text1",
                    "extras": {
                        "alpha": 100,
                        "rotation": 0,
                        "flipH": false,
                        "flipV": false,
                        "orientation": 4,
                        "skewX": 0,
                        "skewY": 0,
                        "fade": 0,
                        "borderColor": "#000000",
                        "borderThick": 0,
                        "borderRadius": 0,
                        "borderStyle": {
                            "label": "None",
                            "params": [
                                ""
                            ]
                        },
                        "fontSize": 16,
                        "fontColor": "#000000",
                        "fontName": "Arial",
                        "backgroundPosX": 0,
                        "backgroundPosY": 0,
                        "backgroundSizeW": 100,
                        "backgroundSizeH": 100,
                        "textCurve": {
                            "label": "None",
                            "pathIndex": 0,
                            "anchorX": "0"
                        },
                        "textSizeID": 0,
                        "textSizeName": "default",
                        "shapeStyle": {
                            "styleName": "default",
                            "strokeColor": "#ff0000",
                            "strokeWidth": 1,
                            "fillColor": "#ffffff"
                        },
                        "popupID": -1,
                        "backgroundColor": "#ff00ff"
                    },
                    "textStyle": 1
                }
            ],
            "zoom": {
                "x1": 0,
                "y1": 0,
                "x2": 100,
                "y2": 100
            },
            "audio": "",
            "audioName": "",
            "backgroundAudioName": "",
            "backgroundAudio": "",
            "label": "0"
        }
    ],
    "pageW": 480,
    "pageH": 270,
    "attribution": "",
    "bgColor": "#cccccc"
}