<svg xmlns="http://www.w3.org/2000/svg" xmlns:xlink="http://www.w3.org/1999/xlink" width="152" height="62" viewBox="0 0 152 62">
  <defs>
    <radialGradient id="radial-gradient" cx="0.5" cy="0.5" r="0.5" gradientUnits="objectBoundingBox">
      <stop offset="0" stop-color="#ffd980"/>
      <stop offset="1" stop-color="#be7800"/>
    </radialGradient>
    <filter id="Rectangle_37" x="0" y="0" width="152" height="62" filterUnits="userSpaceOnUse">
      <feOffset dx="2" dy="2" input="SourceAlpha"/>
      <feGaussianBlur result="blur"/>
      <feFlood flood-opacity="0.702"/>
      <feComposite operator="in" in2="blur"/>
      <feComposite in="SourceGraphic"/>
    </filter>
    <filter id="Cancel" x="20" y="0" width="112" height="59" filterUnits="userSpaceOnUse">
      <feOffset dx="2" dy="2" input="SourceAlpha"/>
      <feGaussianBlur result="blur-2"/>
      <feFlood/>
      <feComposite operator="in" in2="blur-2"/>
      <feComposite in="SourceGraphic"/>
    </filter>
  </defs>
  <g id="Cancel_button_downstate" data-name="Cancel button downstate" transform="translate(-321 -967)">
    <g transform="matrix(1, 0, 0, 1, 321, 967)" filter="url(#Rectangle_37)">
      <g id="Rectangle_37-2" data-name="Rectangle 37" stroke="#fcd073" stroke-width="1" fill="url(#radial-gradient)">
        <rect width="150" height="60" rx="30" stroke="none"/>
        <rect x="0.5" y="0.5" width="149" height="59" rx="29.5" fill="none"/>
      </g>
    </g>
    <g transform="matrix(1, 0, 0, 1, 321, 967)" filter="url(#Cancel)">
      <text id="Cancel-2" data-name="Cancel" transform="translate(75 43)" fill="#fff" font-size="35" font-family="AndikaNewBasic-Regular, Andika New Basic"><tspan x="-54.431" y="0">Cancel</tspan></text>
    </g>
  </g>
</svg>
