<svg xmlns="http://www.w3.org/2000/svg" xmlns:xlink="http://www.w3.org/1999/xlink" width="88" height="88" viewBox="0 0 88 88">
  <defs>
    <radialGradient id="radial-gradient" cx="0.5" cy="0.5" r="0.5" gradientUnits="objectBoundingBox">
      <stop offset="0" stop-color="#5c90ce"/>
      <stop offset="1" stop-color="#375982"/>
    </radialGradient>
    <filter id="Ellipse_2" x="0" y="0" width="88" height="88" filterUnits="userSpaceOnUse">
      <feOffset dx="5" dy="5" input="SourceAlpha"/>
      <feGaussianBlur stdDeviation="3" result="blur"/>
      <feFlood flood-opacity="0.4"/>
      <feComposite operator="in" in2="blur"/>
      <feComposite in="SourceGraphic"/>
    </filter>
  </defs>
  <g id="Copyright" transform="translate(-31 -16)">
    <g transform="matrix(1, 0, 0, 1, 31, 16)" filter="url(#Ellipse_2)">
      <g id="Ellipse_2-2" data-name="Ellipse 2" transform="translate(4 4)" stroke="#fff" stroke-width="5" fill="url(#radial-gradient)">
        <circle cx="35" cy="35" r="35" stroke="none"/>
        <circle cx="35" cy="35" r="32.5" fill="none"/>
      </g>
    </g>
    <path id="Path_4873" data-name="Path 4873" d="M-1763.688,9178.473c-.574-2.4-4.669-10.309-16.076-10.166s-18.039,9.512-17.916,18.9,8.59,17.609,17.916,17.609,14.358-5.216,16.076-8.406" transform="translate(1850.182 -9131.805)" fill="none" stroke="#fff" stroke-linecap="round" stroke-width="8"/>
  </g>
</svg>
