<svg xmlns="http://www.w3.org/2000/svg" xmlns:xlink="http://www.w3.org/1999/xlink" width="684.519" height="110" viewBox="0 0 684.519 110">
  <defs>
    <linearGradient id="linear-gradient" x1="0.273" y1="1970.799" x2="0.419" y2="704.057" gradientUnits="objectBoundingBox">
      <stop offset="0" stop-color="#f5f6f3"/>
      <stop offset="0.35" stop-color="#f7f7f6"/>
      <stop offset="0.66" stop-color="#e2e1da"/>
      <stop offset="1" stop-color="#f7f7f6"/>
    </linearGradient>
    <linearGradient id="linear-gradient-2" x1="0.416" y1="423.835" x2="0.47" y2="152.688" xlink:href="#linear-gradient"/>
    <linearGradient id="linear-gradient-3" x1="0.479" y1="155.534" x2="0.492" y2="56.748" xlink:href="#linear-gradient"/>
    <linearGradient id="linear-gradient-4" x1="0.5" y1="0.867" x2="0.501" y2="0.304" xlink:href="#linear-gradient"/>
    <linearGradient id="linear-gradient-5" x1="0.423" y1="-3.312" x2="0.423" y2="-31.451" gradientUnits="objectBoundingBox">
      <stop offset="0" stop-color="#f5f6f3"/>
      <stop offset="0.35" stop-color="#f7f7f6"/>
      <stop offset="0.76" stop-color="#fafbfa"/>
      <stop offset="1" stop-color="#ddddd6"/>
    </linearGradient>
    <linearGradient id="linear-gradient-6" y1="0.5" x2="1" y2="0.5" gradientUnits="objectBoundingBox">
      <stop offset="0" stop-color="#d1d3d4"/>
      <stop offset="0.35" stop-color="#f2f0ed"/>
      <stop offset="1" stop-color="#d1d3d4"/>
    </linearGradient>
    <filter id="Path_1522" x="54.398" y="21.381" width="489.154" height="16.462" filterUnits="userSpaceOnUse">
      <feOffset dx="-2" dy="2" input="SourceAlpha"/>
      <feGaussianBlur stdDeviation="1" result="blur"/>
      <feFlood/>
      <feComposite operator="in" in2="blur"/>
      <feComposite in="SourceGraphic"/>
    </filter>
    <filter id="Path_1523" x="54.398" y="21.381" width="489.154" height="16.462" filterUnits="userSpaceOnUse">
      <feOffset dx="-2" dy="2" input="SourceAlpha"/>
      <feGaussianBlur stdDeviation="1" result="blur-2"/>
      <feFlood/>
      <feComposite operator="in" in2="blur-2"/>
      <feComposite in="SourceGraphic"/>
    </filter>
  </defs>
  <g id="Playback" transform="translate(0 0)">
    <g id="Playback_tab" data-name="Playback tab" transform="translate(684.519 124.263) rotate(180)">
      <path id="Path_1510" data-name="Path 1510" d="M350.613,3.1c-.073,0-2.049,0-2.13,0-.414-.09-8.872-.959-9.855,0-4.794.01-2.649.1-7.458.115-1.885-.408-4.125.436-5.993.462-.72-.156-7.355-.187-8.389-.173-1.7-.369-14.049-1.334-15.837-.529-10.3.146-24.709.976-34.035,1.009a32.141,32.141,0,0,0-5.952-.187c-2.4-.52-4.248-.355-7.547-.308a14.864,14.864,0,0,0-3.485-.263c-1.422-.307-46.876-.787-51.017-.477-12.438.932-21.789.5-36.4.578-1.611-.555-3.515-.511-6.1-.475-1.866-.4-4.27-.09-6.865-.054-2.919-.586-11.469.152-17.955.3a7.854,7.854,0,0,0-3.262.4c-16.032.226-33.062.265-48.181.475C74.556,2.76,28.435,3.651,26.771,4.4c-9.2.064-17.953.09-26.771.143q.12-1.193.24-2.4c23.957-.164,70.121-.991,77.839-1.1,1.765.618,6.134.329,8.938.289,1.033.224,25.472.136,26.949-.529,6.045-.084,10.563.069,15.444-.622,4.74,2.085,9.155.8,20.421.639,2.593.561,5.279.34,9.073.287a20.363,20.363,0,0,0,5.06.241c5.361,1.159,30.23.4,31.213-.037,1.763-.025,5.964.044,6.809-.334,19.2-.258,38.455.1,57.653-.176,2.3.5,8.372.194,11.556.148a18.8,18.8,0,0,0,5.191.252C279.739,1.932,311.572.1,318.673,0a11.1,11.1,0,0,0,3.907.36s6.8.506,6.928.5c1.108.24,19.665.974,21.106.325.945-.014-1.535,0,0,0C350.414,1.4,350.8,2.885,350.613,3.1Z" transform="translate(164.547 15.459)" fill="#b3b3b3" fill-rule="evenodd"/>
      <g id="Group_88" data-name="Group 88" transform="translate(0 17.079)">
        <path id="Path_1511" data-name="Path 1511" d="M0,.007,6.987,0,5.045.048Z" transform="translate(390.435 0.222)" fill="url(#linear-gradient)"/>
        <path id="Path_1512" data-name="Path 1512" d="M9.067,0l9.839.2L0,.222Z" transform="translate(397.422 0)" fill="url(#linear-gradient-2)"/>
        <path id="Path_1513" data-name="Path 1513" d="M0,.081,76.359,0,37.1.61,18.553.463Z" transform="translate(416.329 0.122)" fill="url(#linear-gradient-3)"/>
        <path id="Path_1514" data-name="Path 1514" d="M684.519,106.915.787,106.333C4.569,92.691-2.2,70.059.787,52.317L165.1,51.3c.825-13.771-1.713-33.681-.4-49.649L293.312.193l55.962.941L395.48,0l39.4.315,12.073.248,6.47-.1L515.16.955l.155,49.635,137.331-.071-80.345.61-37.951-.148-19.034-.191v.117l19.034.074,24.707.249,13.244-.1,111.864.493Z" transform="translate(0 0.27)" fill="url(#linear-gradient-4)"/>
      </g>
      <path id="Path_1515" data-name="Path 1515" d="M.617,106.957c2.228-8.036-2.014-24.72,0-34.294C.281,65.713.617,60.056,0,55.944q.312-1.782.617-3.584l4.418-.024c.282-.108,65.781.021,159.778.068.275-8.729-1.13-22.184-.284-30.408-.165-6.95,0-12.607-.3-16.719q.152-1.781.3-3.584l2.158-.024c.291-.225,182.969.592,206.341-.5,0,0,85.5,1.473,112.712-1.165l29.25,1,.16,51.243c47.319-.02,97.923-.365,123.457-1.574l45.388,1,.354,55.293Z" transform="translate(0.17 16.724)" fill="#c1dcf4" fill-rule="evenodd" opacity="0.6" style="mix-blend-mode: multiply;isolation: isolate"/>
      <path id="Path_1516" data-name="Path 1516" d="M350.652,3.377c-2.647-.1-10.465-1.12-11.339.011-4.794.017-4.208.15-9.016.168-1.883-.544-2.815.156-5.278.2a17.839,17.839,0,0,0-5.059-.318,18.483,18.483,0,0,0-3.55.014c-1.7-.491-13.665-.557-15.458.518-10.3.2-24.713,1.315-34.039,1.364a24.032,24.032,0,0,0-5.951-.245c-2.4-.694-4.245-.472-7.545-.409a11.266,11.266,0,0,0-3.483-.349c-1.42-.409-46.871-1.026-51.013-.611-12.443,1.25-21.792.681-36.407.79-1.607-.739-3.512-.681-6.1-.631-1.863-.538-4.269-.118-6.864-.068-2.915-.781-11.47.209-17.957.407-1.715.033-2.457.057-3.264.54-16.033.31-33.062.369-48.183.658-5.579-1.612-51.705-.4-53.373.6-9.2.09-17.953.129-26.771.2C.084,5.164.171,4.1.254,3.027,24.211,2.8,70.38,1.669,78.1,1.521c1.761.823,6.132.436,8.936.381,1.031.3,25.471.169,26.952-.719,6.044-.117,10.561.085,15.447-.838,4.728,2.78,9.15,1.059,20.416.841,2.59.749,5.277.453,9.072.38a15.338,15.338,0,0,0,5.058.318c5.354,1.546,30.227.524,31.213-.065,1.762-.033,5.963.057,6.81-.449,19.2-.356,38.454.107,57.653-.265,2.292.662,8.37.254,11.554.193,1.981.532,2.44.387,5.19.333C279.748,2.6,311.591.137,318.692,0A8.468,8.468,0,0,0,322.6.479s6.8.672,6.925.669c1.106.32,19.658,1.289,21.1.423.687-.014-1.035,0,0,0C350.565,1.837,350.725,3.112,350.652,3.377Z" transform="translate(164.534 15.547)" fill-rule="evenodd" fill="url(#linear-gradient-5)"/>
      <g id="Group_94" data-name="Group 94" transform="translate(642.917 84.034)">
        <g id="Group_89" data-name="Group 89" transform="translate(1.56 0)" opacity="0.38" style="mix-blend-mode: multiply;isolation: isolate">
          <path id="Path_1517" data-name="Path 1517" d="M16.184,23.575a7.13,7.13,0,0,0,7.094-7.013l.031-9.55A6.942,6.942,0,0,0,16.369,0H7.125A7.128,7.128,0,0,0,.033,7.012L0,16.562a6.943,6.943,0,0,0,6.94,7.013Z" transform="translate(0 0)"/>
        </g>
        <path id="Path_1518" data-name="Path 1518" d="M18.811,2.458H9.568c-.223,0-.444.013-.663.034-.07.006-.14.018-.21.026-.148.019-.295.04-.441.068-.079.015-.156.033-.234.05-.136.031-.271.066-.4.1-.076.023-.152.045-.227.069-.138.045-.274.1-.408.15-.064.025-.129.048-.192.075-.185.08-.365.166-.542.261l-.029.014c-.185.1-.364.21-.539.326-.055.037-.108.077-.163.116-.111.078-.219.158-.325.241-.134.106-.262.219-.387.333-.057.052-.117.1-.172.155a7.066,7.066,0,0,0-.5.541c-.026.031-.047.065-.073.1-.12.149-.238.3-.347.46-.046.068-.086.141-.131.211-.08.127-.161.253-.233.384-.038.068-.069.14-.1.21-.075.148-.148.3-.213.451-.037.086-.067.176-.1.264-.054.142-.1.285-.149.431-.026.086-.047.173-.07.26q-.075.291-.126.591c-.014.082-.03.164-.041.247-.037.277-.062,7.262-.066,7.548L2.443,19.02c0,.224.009.445.027.664.006.07.017.139.025.209.017.148.036.3.063.441.014.078.03.156.047.233.03.137.063.272.1.4.021.075.042.151.066.225.044.14.095.277.148.414.024.061.045.123.071.183.082.194.171.384.269.568l.018.029c.094.174.2.343.3.508.038.056.078.111.117.166.073.1.149.207.227.307a6.871,6.871,0,0,0,.536.613L2.018,21.528a7.251,7.251,0,0,1-.535-.613c-.019-.025-.042-.046-.061-.071-.059-.076-.111-.158-.167-.237-.038-.055-.079-.109-.117-.166-.107-.164-.209-.331-.3-.5L.817,19.9c-.1-.184-.188-.373-.27-.567-.025-.061-.047-.123-.071-.184-.053-.137-.1-.274-.148-.414C.3,18.665.283,18.59.262,18.514c-.037-.133-.071-.267-.1-.4-.017-.077-.034-.155-.048-.234-.026-.145-.046-.293-.063-.441-.008-.07-.019-.138-.025-.209C.008,17.008,0,16.787,0,16.563l.031-9.55A6.908,6.908,0,0,1,.1,6.168c.011-.083.027-.165.04-.247.034-.2.076-.4.126-.59.013-.049.018-.1.032-.149s.027-.074.039-.112c.044-.146.095-.288.148-.43.033-.089.064-.178.1-.265.065-.153.138-.3.213-.45.03-.058.053-.119.084-.176.006-.012.014-.023.02-.034.072-.131.153-.256.233-.382.044-.071.085-.145.132-.214.108-.158.226-.31.346-.459.025-.03.046-.063.071-.093l0,0a7.135,7.135,0,0,1,.5-.54c.056-.055.116-.1.173-.156.126-.115.253-.227.386-.332.025-.02.048-.044.074-.064.081-.062.168-.119.252-.178.054-.038.107-.078.162-.115.175-.116.355-.226.54-.326L3.8.838c.177-.1.359-.181.543-.261C4.408.55,4.473.527,4.537.5c.135-.053.27-.1.408-.149C5.021.327,5.1.305,5.173.283c.133-.039.267-.073.4-.1.078-.018.156-.035.235-.05C5.956.1,6.1.08,6.252.061c.07-.009.139-.02.21-.027C6.68.013,6.9,0,7.125,0h9.243a6.917,6.917,0,0,1,4.921,2.048l2.443,2.458A6.918,6.918,0,0,0,18.811,2.458Z" transform="translate(0 1.442)" fill="#9e2020"/>
        <g id="Group_90" data-name="Group 90" transform="translate(2.443 3.9)">
          <path id="Path_1519" data-name="Path 1519" d="M16.184,23.575a7.13,7.13,0,0,0,7.094-7.013l.031-9.55A6.942,6.942,0,0,0,16.368,0H7.125A7.128,7.128,0,0,0,.032,7.012L0,16.562a6.943,6.943,0,0,0,6.94,7.013Z" transform="translate(0 0)" fill="#dd312c"/>
        </g>
        <g id="Group_93" data-name="Group 93" transform="translate(7.816 7.397)">
          <g id="Group_91" data-name="Group 91" transform="translate(0.663 0)">
            <path id="Path_1520" data-name="Path 1520" d="M.184,14.278,3.055,15.6q1.781-4.538,2.711-6.547,2.022,3.216,3.055,5.227L11.9,13.025q-2.9-3.71-4.319-5.4Q9.8,3.378,11.107,1.2L9.1,0Q7.238,3.159,5.605,5.663,3.963,2.344,2.826.161L0,1.356Q2.24,4.905,3.963,7.627A37.723,37.723,0,0,1,.184,14.278Z" transform="translate(0 0)"/>
          </g>
          <g id="Group_92" data-name="Group 92" transform="translate(0 0.212)">
            <path id="Path_1521" data-name="Path 1521" d="M.183,14.277,3.055,15.6q1.781-4.537,2.711-6.547,2.021,3.216,3.055,5.226L11.9,13.025Q9.005,9.314,7.58,7.626,9.8,3.377,11.107,1.194L9.1,0Q7.236,3.158,5.6,5.662,3.962,2.343,2.825.16L0,1.355Q2.239,4.9,3.962,7.626A37.591,37.591,0,0,1,.183,14.277Z" transform="translate(0 0)" fill="#fff"/>
          </g>
        </g>
      </g>
      <g id="Group_95" data-name="Group 95" transform="translate(140.306 89.759)">
        <rect id="Rectangle_6" data-name="Rectangle 6" width="484.816" height="12.123" rx="6.061" transform="translate(0 0)" fill="url(#linear-gradient-6)"/>
        <g transform="matrix(-1, 0, 0, -1, 544.21, 34.5)" filter="url(#Path_1522)">
          <path id="Path_1522-2" data-name="Path 1522" d="M477.093,10.462H4.4A6.044,6.044,0,0,1,0,8.567a6.041,6.041,0,0,0,4.166,1.661H476.859A6.06,6.06,0,0,0,481.259,0a6.041,6.041,0,0,1,1.9,4.4h0A6.061,6.061,0,0,1,477.093,10.462Z" transform="translate(542.55 32.84) rotate(180)" fill="#b3b3b3"/>
        </g>
        <g transform="matrix(-1, 0, 0, -1, 544.21, 34.5)" filter="url(#Path_1523)">
          <path id="Path_1523-2" data-name="Path 1523" d="M477.093,10.462H4.4A6.044,6.044,0,0,1,0,8.567a6.041,6.041,0,0,0,4.166,1.661H476.859A6.06,6.06,0,0,0,481.259,0a6.041,6.041,0,0,1,1.9,4.4h0A6.061,6.061,0,0,1,477.093,10.462Z" transform="translate(542.55 32.84) rotate(180)" fill="#b3b3b3"/>
        </g>
      </g>
      <g id="Group_102" data-name="Group 102" transform="translate(442.469 78.547)">
        <g id="Group_96" data-name="Group 96" transform="translate(3.196 0)" opacity="0.45" style="mix-blend-mode: multiply;isolation: isolate">
          <path id="Path_1524" data-name="Path 1524" d="M51.6,30.422c4.582,0,8.369-4.074,8.419-9.05l.037-12.323C60.11,4.073,56.4,0,51.823,0H8.458C3.875,0,.089,4.073.038,9.049L0,21.372c-.05,4.976,3.655,9.05,8.237,9.05Z"/>
        </g>
        <path id="Path_1525" data-name="Path 1525" d="M53.27,2.839H11.056c-.258,0-.514.015-.766.039-.082.008-.162.021-.243.031-.171.022-.342.046-.51.078-.09.018-.18.038-.27.058q-.236.054-.467.121c-.087.025-.175.051-.262.079-.16.052-.316.111-.472.173-.074.029-.149.056-.221.087-.214.092-.422.192-.626.3l-.034.017c-.214.116-.421.243-.622.376-.065.043-.126.09-.189.134-.128.09-.254.182-.376.279-.155.122-.3.252-.447.385-.066.06-.135.116-.2.178a8.4,8.4,0,0,0-.584.625c-.03.036-.055.075-.084.111-.14.173-.275.348-.4.532-.054.079-.1.163-.151.244-.093.146-.187.292-.27.444-.044.079-.079.162-.12.242-.087.171-.172.343-.246.521-.043.1-.078.2-.116.305-.062.164-.121.329-.172.5-.029.1-.055.2-.08.3-.059.224-.107.451-.146.682-.016.1-.034.189-.047.286-.043.32-.073,8.39-.076,8.721l-.036,3.288c0,.259.009.514.03.767.007.081.02.161.029.242.019.171.042.341.073.509.016.091.035.18.055.27.034.158.073.313.116.467.024.087.049.174.076.26.052.162.11.321.172.478.027.071.052.143.081.212.095.224.2.444.312.657.006.011.013.022.02.033.108.2.226.4.352.587.043.065.09.128.135.192.084.12.171.238.262.354a8.2,8.2,0,0,0,.619.709l-2.823-2.84a7.889,7.889,0,0,1-.619-.708c-.022-.028-.049-.052-.071-.081-.067-.089-.128-.182-.192-.274-.045-.064-.092-.126-.135-.192-.124-.189-.242-.383-.35-.583L.944,23c-.114-.213-.216-.432-.311-.656-.03-.07-.055-.142-.082-.213-.061-.157-.12-.316-.171-.477-.028-.086-.052-.173-.076-.26-.044-.154-.082-.309-.116-.467-.02-.09-.039-.179-.056-.27-.03-.169-.053-.339-.073-.511-.009-.08-.021-.159-.028-.24C.01,19.65,0,19.4,0,19.136L.036,8.1a8.251,8.251,0,0,1,.076-.976c.013-.1.031-.19.047-.286Q.218,6.5.305,6.159C.32,6.1.326,6.043.342,5.987S.373,5.9.386,5.858c.051-.169.11-.334.171-.5.039-.1.074-.205.116-.305.075-.178.16-.35.246-.521.034-.067.061-.138.1-.2.007-.013.016-.025.024-.039.083-.151.176-.3.268-.441.052-.082.1-.167.153-.247.125-.183.261-.358.4-.53.028-.035.053-.074.082-.108l0,0a8.51,8.51,0,0,1,.583-.625c.064-.062.134-.119.2-.18.145-.132.291-.261.445-.383.03-.023.056-.051.086-.074.094-.072.194-.137.291-.206.063-.044.124-.09.188-.133.2-.134.409-.261.623-.377L4.394.968c.2-.11.414-.21.627-.3.073-.031.148-.058.222-.088.155-.061.312-.12.471-.172.087-.029.175-.054.263-.08q.231-.066.467-.12c.089-.02.179-.041.27-.058.168-.032.339-.057.51-.078.081-.01.161-.023.242-.031C7.719.015,7.974,0,8.232,0H50.447a7.989,7.989,0,0,1,5.686,2.366l2.823,2.839A8,8,0,0,0,53.27,2.839Z" transform="translate(0 1.355)" fill="#bc481b"/>
        <g id="Group_98" data-name="Group 98" transform="translate(2.824 4.194)">
          <g id="Group_97" data-name="Group 97">
            <path id="Path_1526" data-name="Path 1526" d="M50.232,27.239a8.237,8.237,0,0,0,8.2-8.1L58.464,8.1A8.021,8.021,0,0,0,50.446,0H8.232a8.237,8.237,0,0,0-8.2,8.1L0,19.136a8.02,8.02,0,0,0,8.018,8.1Z" fill="#f26522"/>
          </g>
        </g>
        <g id="Group_99" data-name="Group 99" transform="translate(37.926 7.906)">
          <path id="Path_1527" data-name="Path 1527" d="M0,18.945V1.175a1.175,1.175,0,0,1,2.35,0v17.77a1.175,1.175,0,0,1-2.35,0Z" fill="#bc481b"/>
        </g>
        <g id="Group_100" data-name="Group 100" transform="translate(30.877 7.906)">
          <path id="Path_1528" data-name="Path 1528" d="M0,18.945V1.175a1.175,1.175,0,1,1,2.349,0v17.77a1.175,1.175,0,1,1-2.349,0Z" fill="#bc481b"/>
        </g>
        <g id="Group_101" data-name="Group 101" transform="translate(23.827 7.906)">
          <path id="Path_1529" data-name="Path 1529" d="M0,18.945V1.175a1.175,1.175,0,1,1,2.35,0v17.77a1.175,1.175,0,1,1-2.35,0Z" fill="#bc481b"/>
        </g>
      </g>
    </g>
    <g id="Down_Arrow" data-name="Down Arrow" transform="translate(471 72.129)">
      <path id="Path_1540" data-name="Path 1540" d="M4461.314,189.261l1.364,1.079,12.892-22.678-1.364-1.079h-22.812l-1.483,1.623Z" transform="translate(-4448.65 -166.583)" opacity="0.45" style="mix-blend-mode: multiply;isolation: isolate"/>
      <g id="Group_110" data-name="Group 110" transform="translate(0 0.574)">
        <path id="Path_1541" data-name="Path 1541" d="M4461.043,188.037l-12.394-22.414h24.792Z" transform="translate(-4448.65 -163.896)" fill="#fcc000"/>
        <path id="Path_1542" data-name="Path 1542" d="M4448.65,189.765l1.612-1.728h24.792l-1.612,1.728Z" transform="translate(-4448.65 -188.037)" fill="#b28004"/>
        <path id="Path_1543" data-name="Path 1543" d="M4473.441,167.352l1.612-1.728-12.394,22.414-1.617,1.728Z" transform="translate(-4448.65 -165.624)" fill="#d8a105"/>
      </g>
    </g>
  </g>
  <text id="Playback-2" data-name="Playback" transform="translate(342 92.257)" font-size="39.033" font-family="BarthowheelRegular, Barthowheel"><tspan x="-64.934" y="0">Playback</tspan></text>
</svg>
