<svg xmlns="http://www.w3.org/2000/svg" xmlns:xlink="http://www.w3.org/1999/xlink" width="128" height="78" viewBox="0 0 128 78">
  <defs>
    <filter id="Rectangle_1" x="0" y="0" width="128" height="78" filterUnits="userSpaceOnUse">
      <feOffset dx="5" dy="5" input="SourceAlpha"/>
      <feGaussianBlur stdDeviation="3" result="blur"/>
      <feFlood flood-opacity="0.4"/>
      <feComposite operator="in" in2="blur"/>
      <feComposite in="SourceGraphic"/>
    </filter>
  </defs>
  <g transform="matrix(1, 0, 0, 1, 0, 0)" filter="url(#Rectangle_1)">
    <path id="Rectangle_1-2" data-name="Rectangle 1" d="M0,0H110a0,0,0,0,1,0,0V40A20,20,0,0,1,90,60H20A20,20,0,0,1,0,40V0A0,0,0,0,1,0,0Z" transform="translate(4 4)" fill="rgba(0,0,0,0.1)"/>
  </g>
  <g id="Group_1" data-name="Group 1" transform="translate(33.865 15.939)">
    <g id="Line_1" data-name="Line 1" transform="translate(21.6 0.011)" fill="none" stroke-linecap="round">
      <path d="M7.05,31.05l20.561-24" stroke="none"/>
      <path d="M 7.047784805297852 36.05019760131836 C 7.400177001953125 36.05019760131836 7.752025604248047 36.01315307617188 8.097030639648438 35.93955230712891 C 8.442033767700195 35.86595153808594 8.780193328857422 35.75579071044922 9.105209350585938 35.60955810546875 C 9.430225372314453 35.46332550048828 9.742097854614258 35.28101348876953 10.03452682495117 35.06311416625977 C 10.32695770263672 34.84521484375 10.59994506835938 34.59172058105469 10.84719085693359 34.30312347412109 L 31.40836143493652 10.30312633514404 C 31.85750961303711 9.778858184814453 32.17914581298828 9.188380241394043 32.37619018554688 8.569492340087891 C 32.5732307434082 7.950603485107422 32.64567947387695 7.303304195404053 32.59645080566406 6.66539478302002 C 32.54722595214844 6.027485370635986 32.37631988525391 5.398965835571289 32.08665466308594 4.817636013031006 C 31.79698753356934 4.236306190490723 31.3885612487793 3.702166080474854 30.86429214477539 3.253015995025635 C 30.62862014770508 3.051113367080688 30.37955856323242 2.874974250793457 30.12054443359375 2.72433614730835 C 29.86153030395508 2.573698043823242 29.59256553649902 2.44856071472168 29.31708908081055 2.348661422729492 C 29.04161071777344 2.248762130737305 28.75962257385254 2.174100399017334 28.47455978393555 2.12441349029541 C 28.18949890136719 2.074726581573486 27.90136337280273 2.050014495849609 27.61359786987305 2.050014495849609 C 27.26120376586914 2.050014495849609 26.90935707092285 2.087057113647461 26.56435203552246 2.160658836364746 C 26.2193489074707 2.234260559082031 25.88118934631348 2.344420433044434 25.55617332458496 2.490655422210693 C 25.23115730285645 2.636890411376953 24.91928482055664 2.819199562072754 24.62685394287109 3.037099361419678 C 24.33442306518555 3.254998922348022 24.06143569946289 3.50848913192749 23.8141918182373 3.797086000442505 L 3.253021240234375 27.79708671569824 C 2.803873062133789 28.32135391235352 2.482234954833984 28.91183090209961 2.285192489624023 29.53071975708008 C 2.088150024414062 30.14960861206055 2.015701293945312 30.79690933227539 2.064929962158203 31.43481826782227 C 2.114158630371094 32.07272720336914 2.285062789916992 32.70124816894531 2.574728012084961 33.28257751464844 C 2.86439323425293 33.86390686035156 3.272819519042969 34.39804840087891 3.797090530395508 34.84719848632812 C 4.032760620117188 35.04909896850586 4.281822204589844 35.22523498535156 4.540836334228516 35.37587356567383 C 4.799850463867188 35.52651214599609 5.068817138671875 35.65164947509766 5.344293594360352 35.75154876708984 C 5.619770050048828 35.85144805908203 5.901760101318359 35.92610931396484 6.186820983886719 35.97579956054688 C 6.471883773803711 36.02548599243164 6.760017395019531 36.05019760131836 7.047784805297852 36.05019760131836 Z" stroke="none" fill="#888"/>
    </g>
    <g id="Line_2" data-name="Line 2" fill="none" stroke-linecap="round">
      <path d="M28.65,31.061l-21.589-24" stroke="none"/>
      <path d="M 28.65205192565918 36.06124496459961 C 28.94989013671875 36.06124496459961 29.24798583984375 36.03479385375977 29.54252243041992 35.98168182373047 C 29.83706092834473 35.92857360839844 30.1280403137207 35.84880828857422 30.41164779663086 35.74217987060547 C 30.69525718688965 35.63555526733398 30.97149276733398 35.50207138061523 31.23654174804688 35.34152603149414 C 31.5015926361084 35.18098068237305 31.75545692443848 34.99337387084961 31.99431991577148 34.77850341796875 C 32.50757217407227 34.31680679321289 32.90296173095703 33.77294540405273 33.17848205566406 33.18478012084961 C 33.45400238037109 32.59661483764648 33.60965728759766 31.96414947509766 33.6434440612793 31.32523727416992 C 33.67723083496094 30.68632507324219 33.58914947509766 30.04096603393555 33.37719345092773 29.42702484130859 C 33.16524124145508 28.81308364868164 32.82941436767578 28.23055648803711 32.36771774291992 27.71730041503906 L 10.77849960327148 3.717302083969116 C 10.53167343139648 3.44291353225708 10.26136016845703 3.202210187911987 9.973346710205078 2.995498657226562 C 9.685333251953125 2.788787364959717 9.379619598388672 2.616067886352539 9.061992645263672 2.477646827697754 C 8.744365692138672 2.339225769042969 8.414825439453125 2.235103607177734 8.079158782958984 2.165586471557617 C 7.743492126464844 2.0960693359375 7.401699066162109 2.0611572265625 7.059566497802734 2.0611572265625 C 6.761728286743164 2.0611572265625 6.463634490966797 2.087611198425293 6.169095993041992 2.140721321105957 C 5.874557495117188 2.193831443786621 5.583576202392578 2.273597717285156 5.299968719482422 2.380223274230957 C 5.016361236572266 2.486848831176758 4.74012565612793 2.620333194732666 4.475074768066406 2.780879020690918 C 4.210025787353516 2.941424369812012 3.956161499023438 3.129031419754028 3.71729850769043 3.343902111053467 C 3.204046249389648 3.805599689483643 2.808658599853516 4.349460124969482 2.533136367797852 4.937624454498291 C 2.257614135742188 5.5257887840271 2.101959228515625 6.158257007598877 2.068174362182617 6.79716968536377 C 2.034389495849609 7.436081886291504 2.122470855712891 8.081439018249512 2.334423065185547 8.695381164550781 C 2.546377182006836 9.309322357177734 2.8822021484375 9.891849517822266 3.343898773193359 10.40510177612305 L 24.93311882019043 34.40510177612305 C 25.17994689941406 34.67949295043945 25.45026016235352 34.92019653320312 25.73827171325684 35.12690734863281 C 26.02628517150879 35.3336181640625 26.33199882507324 35.5063362121582 26.64962577819824 35.64475631713867 C 26.96725273132324 35.78318023681641 27.29679298400879 35.88730239868164 27.63245964050293 35.95681762695312 C 27.96812629699707 36.02633666992188 28.3099193572998 36.06124496459961 28.65205192565918 36.06124496459961 Z" stroke="none" fill="#888"/>
    </g>
  </g>
  <g id="Group_230" data-name="Group 230" transform="translate(30.865 14.939)">
    <g id="Line_1-2" data-name="Line 1" transform="translate(21.6 0.011)" fill="none" stroke-linecap="round">
      <path d="M7.05,31.05l20.561-24" stroke="none"/>
      <path d="M 7.047784805297852 36.05019760131836 C 7.400177001953125 36.05019760131836 7.752025604248047 36.01315307617188 8.097030639648438 35.93955230712891 C 8.442033767700195 35.86595153808594 8.780193328857422 35.75579071044922 9.105209350585938 35.60955810546875 C 9.430225372314453 35.46332550048828 9.742097854614258 35.28101348876953 10.03452682495117 35.06311416625977 C 10.32695770263672 34.84521484375 10.59994506835938 34.59172058105469 10.84719085693359 34.30312347412109 L 31.40836143493652 10.30312633514404 C 31.85750961303711 9.778858184814453 32.17914581298828 9.188380241394043 32.37619018554688 8.569492340087891 C 32.5732307434082 7.950603485107422 32.64567947387695 7.303304195404053 32.59645080566406 6.66539478302002 C 32.54722595214844 6.027485370635986 32.37631988525391 5.398965835571289 32.08665466308594 4.817636013031006 C 31.79698753356934 4.236306190490723 31.3885612487793 3.702166080474854 30.86429214477539 3.253015995025635 C 30.62862014770508 3.051113367080688 30.37955856323242 2.874974250793457 30.12054443359375 2.72433614730835 C 29.86153030395508 2.573698043823242 29.59256553649902 2.44856071472168 29.31708908081055 2.348661422729492 C 29.04161071777344 2.248762130737305 28.75962257385254 2.174100399017334 28.47455978393555 2.12441349029541 C 28.18949890136719 2.074726581573486 27.90136337280273 2.050014495849609 27.61359786987305 2.050014495849609 C 27.26120376586914 2.050014495849609 26.90935707092285 2.087057113647461 26.56435203552246 2.160658836364746 C 26.2193489074707 2.234260559082031 25.88118934631348 2.344420433044434 25.55617332458496 2.490655422210693 C 25.23115730285645 2.636890411376953 24.91928482055664 2.819199562072754 24.62685394287109 3.037099361419678 C 24.33442306518555 3.254998922348022 24.06143569946289 3.50848913192749 23.8141918182373 3.797086000442505 L 3.253021240234375 27.79708671569824 C 2.803873062133789 28.32135391235352 2.482234954833984 28.91183090209961 2.285192489624023 29.53071975708008 C 2.088150024414062 30.14960861206055 2.015701293945312 30.79690933227539 2.064929962158203 31.43481826782227 C 2.114158630371094 32.07272720336914 2.285062789916992 32.70124816894531 2.574728012084961 33.28257751464844 C 2.86439323425293 33.86390686035156 3.272819519042969 34.39804840087891 3.797090530395508 34.84719848632812 C 4.032760620117188 35.04909896850586 4.281822204589844 35.22523498535156 4.540836334228516 35.37587356567383 C 4.799850463867188 35.52651214599609 5.068817138671875 35.65164947509766 5.344293594360352 35.75154876708984 C 5.619770050048828 35.85144805908203 5.901760101318359 35.92610931396484 6.186820983886719 35.97579956054688 C 6.471883773803711 36.02548599243164 6.760017395019531 36.05019760131836 7.047784805297852 36.05019760131836 Z" stroke="none" fill="#fff"/>
    </g>
    <g id="Line_2-2" data-name="Line 2" fill="none" stroke-linecap="round">
      <path d="M28.65,31.061l-21.589-24" stroke="none"/>
      <path d="M 28.65205192565918 36.06124496459961 C 28.94989013671875 36.06124496459961 29.24798583984375 36.03479385375977 29.54252243041992 35.98168182373047 C 29.83706092834473 35.92857360839844 30.1280403137207 35.84880828857422 30.41164779663086 35.74217987060547 C 30.69525718688965 35.63555526733398 30.97149276733398 35.50207138061523 31.23654174804688 35.34152603149414 C 31.5015926361084 35.18098068237305 31.75545692443848 34.99337387084961 31.99431991577148 34.77850341796875 C 32.50757217407227 34.31680679321289 32.90296173095703 33.77294540405273 33.17848205566406 33.18478012084961 C 33.45400238037109 32.59661483764648 33.60965728759766 31.96414947509766 33.6434440612793 31.32523727416992 C 33.67723083496094 30.68632507324219 33.58914947509766 30.04096603393555 33.37719345092773 29.42702484130859 C 33.16524124145508 28.81308364868164 32.82941436767578 28.23055648803711 32.36771774291992 27.71730041503906 L 10.77849960327148 3.717302083969116 C 10.53167343139648 3.44291353225708 10.26136016845703 3.202210187911987 9.973346710205078 2.995498657226562 C 9.685333251953125 2.788787364959717 9.379619598388672 2.616067886352539 9.061992645263672 2.477646827697754 C 8.744365692138672 2.339225769042969 8.414825439453125 2.235103607177734 8.079158782958984 2.165586471557617 C 7.743492126464844 2.0960693359375 7.401699066162109 2.0611572265625 7.059566497802734 2.0611572265625 C 6.761728286743164 2.0611572265625 6.463634490966797 2.087611198425293 6.169095993041992 2.140721321105957 C 5.874557495117188 2.193831443786621 5.583576202392578 2.273597717285156 5.299968719482422 2.380223274230957 C 5.016361236572266 2.486848831176758 4.74012565612793 2.620333194732666 4.475074768066406 2.780879020690918 C 4.210025787353516 2.941424369812012 3.956161499023438 3.129031419754028 3.71729850769043 3.343902111053467 C 3.204046249389648 3.805599689483643 2.808658599853516 4.349460124969482 2.533136367797852 4.937624454498291 C 2.257614135742188 5.5257887840271 2.101959228515625 6.158257007598877 2.068174362182617 6.79716968536377 C 2.034389495849609 7.436081886291504 2.122470855712891 8.081439018249512 2.334423065185547 8.695381164550781 C 2.546377182006836 9.309322357177734 2.8822021484375 9.891849517822266 3.343898773193359 10.40510177612305 L 24.93311882019043 34.40510177612305 C 25.17994689941406 34.67949295043945 25.45026016235352 34.92019653320312 25.73827171325684 35.12690734863281 C 26.02628517150879 35.3336181640625 26.33199882507324 35.5063362121582 26.64962577819824 35.64475631713867 C 26.96725273132324 35.78318023681641 27.29679298400879 35.88730239868164 27.63245964050293 35.95681762695312 C 27.96812629699707 36.02633666992188 28.3099193572998 36.06124496459961 28.65205192565918 36.06124496459961 Z" stroke="none" fill="#fff"/>
    </g>
  </g>
</svg>
