{
	"textures": [
		{
			"image": "light.png",
			"format": "RGBA8888",
			"size": {
				"w": 1613,
				"h": 256
			},
			"scale": 0.25,
			"frames": [
				{
					"filename": "Dying_003.png",
					"rotated": false,
					"trimmed": true,
					"sourceSize": {
						"w": 130,
						"h": 95
					},
					"spriteSourceSize": {
						"x": 43,
						"y": 1,
						"w": 63,
						"h": 84
					},
					"frame": {
						"x": 1,
						"y": 1,
						"w": 63,
						"h": 84
					}
				},
				{
					"filename": "Attacking_008.png",
					"rotated": false,
					"trimmed": true,
					"sourceSize": {
						"w": 130,
						"h": 95
					},
					"spriteSourceSize": {
						"x": 41,
						"y": 4,
						"w": 84,
						"h": 83
					},
					"frame": {
						"x": 1,
						"y": 87,
						"w": 84,
						"h": 83
					}
				},
				{
					"filename": "Attacking_010.png",
					"rotated": false,
					"trimmed": true,
					"sourceSize": {
						"w": 130,
						"h": 95
					},
					"spriteSourceSize": {
						"x": 42,
						"y": 4,
						"w": 82,
						"h": 83
					},
					"frame": {
						"x": 1,
						"y": 172,
						"w": 82,
						"h": 83
					}
				},
				{
					"filename": "Attacking_009.png",
					"rotated": false,
					"trimmed": true,
					"sourceSize": {
						"w": 130,
						"h": 95
					},
					"spriteSourceSize": {
						"x": 46,
						"y": 4,
						"w": 80,
						"h": 83
					},
					"frame": {
						"x": 85,
						"y": 172,
						"w": 80,
						"h": 83
					}
				},
				{
					"filename": "Walking_002.png",
					"rotated": false,
					"trimmed": true,
					"sourceSize": {
						"w": 130,
						"h": 95
					},
					"spriteSourceSize": {
						"x": 38,
						"y": 4,
						"w": 77,
						"h": 83
					},
					"frame": {
						"x": 66,
						"y": 1,
						"w": 77,
						"h": 83
					}
				},
				{
					"filename": "Walking_001.png",
					"rotated": false,
					"trimmed": true,
					"sourceSize": {
						"w": 130,
						"h": 95
					},
					"spriteSourceSize": {
						"x": 39,
						"y": 4,
						"w": 75,
						"h": 83
					},
					"frame": {
						"x": 87,
						"y": 86,
						"w": 75,
						"h": 83
					}
				},
				{
					"filename": "Dying_002.png",
					"rotated": false,
					"trimmed": true,
					"sourceSize": {
						"w": 130,
						"h": 95
					},
					"spriteSourceSize": {
						"x": 39,
						"y": 3,
						"w": 67,
						"h": 83
					},
					"frame": {
						"x": 145,
						"y": 1,
						"w": 67,
						"h": 83
					}
				},
				{
					"filename": "Dying_004.png",
					"rotated": false,
					"trimmed": true,
					"sourceSize": {
						"w": 130,
						"h": 95
					},
					"spriteSourceSize": {
						"x": 35,
						"y": 2,
						"w": 62,
						"h": 83
					},
					"frame": {
						"x": 164,
						"y": 86,
						"w": 62,
						"h": 83
					}
				},
				{
					"filename": "Walking_008.png",
					"rotated": false,
					"trimmed": true,
					"sourceSize": {
						"w": 130,
						"h": 95
					},
					"spriteSourceSize": {
						"x": 35,
						"y": 5,
						"w": 84,
						"h": 82
					},
					"frame": {
						"x": 214,
						"y": 1,
						"w": 84,
						"h": 82
					}
				},
				{
					"filename": "Walking_004.png",
					"rotated": false,
					"trimmed": true,
					"sourceSize": {
						"w": 130,
						"h": 95
					},
					"spriteSourceSize": {
						"x": 32,
						"y": 5,
						"w": 83,
						"h": 82
					},
					"frame": {
						"x": 167,
						"y": 171,
						"w": 83,
						"h": 82
					}
				},
				{
					"filename": "Walking_012.png",
					"rotated": false,
					"trimmed": true,
					"sourceSize": {
						"w": 130,
						"h": 95
					},
					"spriteSourceSize": {
						"x": 34,
						"y": 5,
						"w": 83,
						"h": 82
					},
					"frame": {
						"x": 228,
						"y": 85,
						"w": 83,
						"h": 82
					}
				},
				{
					"filename": "Walking_009.png",
					"rotated": false,
					"trimmed": true,
					"sourceSize": {
						"w": 130,
						"h": 95
					},
					"spriteSourceSize": {
						"x": 38,
						"y": 5,
						"w": 81,
						"h": 82
					},
					"frame": {
						"x": 300,
						"y": 1,
						"w": 81,
						"h": 82
					}
				},
				{
					"filename": "Walking_010.png",
					"rotated": false,
					"trimmed": true,
					"sourceSize": {
						"w": 130,
						"h": 95
					},
					"spriteSourceSize": {
						"x": 38,
						"y": 5,
						"w": 81,
						"h": 82
					},
					"frame": {
						"x": 252,
						"y": 169,
						"w": 81,
						"h": 82
					}
				},
				{
					"filename": "Walking_011.png",
					"rotated": false,
					"trimmed": true,
					"sourceSize": {
						"w": 130,
						"h": 95
					},
					"spriteSourceSize": {
						"x": 37,
						"y": 5,
						"w": 81,
						"h": 82
					},
					"frame": {
						"x": 313,
						"y": 85,
						"w": 81,
						"h": 82
					}
				},
				{
					"filename": "Walking_017.png",
					"rotated": false,
					"trimmed": true,
					"sourceSize": {
						"w": 130,
						"h": 95
					},
					"spriteSourceSize": {
						"x": 34,
						"y": 5,
						"w": 81,
						"h": 82
					},
					"frame": {
						"x": 383,
						"y": 1,
						"w": 81,
						"h": 82
					}
				},
				{
					"filename": "Attacking_011.png",
					"rotated": false,
					"trimmed": true,
					"sourceSize": {
						"w": 130,
						"h": 95
					},
					"spriteSourceSize": {
						"x": 37,
						"y": 5,
						"w": 80,
						"h": 82
					},
					"frame": {
						"x": 335,
						"y": 169,
						"w": 80,
						"h": 82
					}
				},
				{
					"filename": "Walking_003.png",
					"rotated": false,
					"trimmed": true,
					"sourceSize": {
						"w": 130,
						"h": 95
					},
					"spriteSourceSize": {
						"x": 35,
						"y": 5,
						"w": 80,
						"h": 82
					},
					"frame": {
						"x": 396,
						"y": 85,
						"w": 80,
						"h": 82
					}
				},
				{
					"filename": "Walking_000.png",
					"rotated": false,
					"trimmed": true,
					"sourceSize": {
						"w": 130,
						"h": 95
					},
					"spriteSourceSize": {
						"x": 37,
						"y": 5,
						"w": 77,
						"h": 82
					},
					"frame": {
						"x": 466,
						"y": 1,
						"w": 77,
						"h": 82
					}
				},
				{
					"filename": "Dying_001.png",
					"rotated": false,
					"trimmed": true,
					"sourceSize": {
						"w": 130,
						"h": 95
					},
					"spriteSourceSize": {
						"x": 35,
						"y": 4,
						"w": 70,
						"h": 82
					},
					"frame": {
						"x": 417,
						"y": 169,
						"w": 70,
						"h": 82
					}
				},
				{
					"filename": "Hurt_001.png",
					"rotated": false,
					"trimmed": true,
					"sourceSize": {
						"w": 130,
						"h": 95
					},
					"spriteSourceSize": {
						"x": 33,
						"y": 5,
						"w": 66,
						"h": 82
					},
					"frame": {
						"x": 478,
						"y": 85,
						"w": 66,
						"h": 82
					}
				},
				{
					"filename": "Walking_006.png",
					"rotated": false,
					"trimmed": true,
					"sourceSize": {
						"w": 130,
						"h": 95
					},
					"spriteSourceSize": {
						"x": 30,
						"y": 6,
						"w": 87,
						"h": 81
					},
					"frame": {
						"x": 545,
						"y": 1,
						"w": 87,
						"h": 81
					}
				},
				{
					"filename": "Walking_005.png",
					"rotated": false,
					"trimmed": true,
					"sourceSize": {
						"w": 130,
						"h": 95
					},
					"spriteSourceSize": {
						"x": 30,
						"y": 6,
						"w": 86,
						"h": 81
					},
					"frame": {
						"x": 489,
						"y": 169,
						"w": 86,
						"h": 81
					}
				},
				{
					"filename": "Walking_007.png",
					"rotated": false,
					"trimmed": true,
					"sourceSize": {
						"w": 130,
						"h": 95
					},
					"spriteSourceSize": {
						"x": 32,
						"y": 6,
						"w": 86,
						"h": 81
					},
					"frame": {
						"x": 546,
						"y": 84,
						"w": 86,
						"h": 81
					}
				},
				{
					"filename": "Walking_014.png",
					"rotated": false,
					"trimmed": true,
					"sourceSize": {
						"w": 130,
						"h": 95
					},
					"spriteSourceSize": {
						"x": 29,
						"y": 6,
						"w": 86,
						"h": 81
					},
					"frame": {
						"x": 577,
						"y": 167,
						"w": 86,
						"h": 81
					}
				},
				{
					"filename": "Walking_013.png",
					"rotated": false,
					"trimmed": true,
					"sourceSize": {
						"w": 130,
						"h": 95
					},
					"spriteSourceSize": {
						"x": 31,
						"y": 6,
						"w": 85,
						"h": 81
					},
					"frame": {
						"x": 634,
						"y": 1,
						"w": 85,
						"h": 81
					}
				},
				{
					"filename": "Walking_016.png",
					"rotated": false,
					"trimmed": true,
					"sourceSize": {
						"w": 130,
						"h": 95
					},
					"spriteSourceSize": {
						"x": 31,
						"y": 6,
						"w": 84,
						"h": 81
					},
					"frame": {
						"x": 634,
						"y": 84,
						"w": 84,
						"h": 81
					}
				},
				{
					"filename": "Idle_001.png",
					"rotated": false,
					"trimmed": true,
					"sourceSize": {
						"w": 130,
						"h": 95
					},
					"spriteSourceSize": {
						"x": 33,
						"y": 6,
						"w": 70,
						"h": 81
					},
					"frame": {
						"x": 665,
						"y": 167,
						"w": 70,
						"h": 81
					}
				},
				{
					"filename": "Idle_002.png",
					"rotated": false,
					"trimmed": true,
					"sourceSize": {
						"w": 130,
						"h": 95
					},
					"spriteSourceSize": {
						"x": 33,
						"y": 6,
						"w": 69,
						"h": 81
					},
					"frame": {
						"x": 720,
						"y": 84,
						"w": 69,
						"h": 81
					}
				},
				{
					"filename": "Attacking_007.png",
					"rotated": false,
					"trimmed": true,
					"sourceSize": {
						"w": 130,
						"h": 95
					},
					"spriteSourceSize": {
						"x": 31,
						"y": 6,
						"w": 66,
						"h": 81
					},
					"frame": {
						"x": 721,
						"y": 1,
						"w": 66,
						"h": 81
					}
				},
				{
					"filename": "Hurt_002.png",
					"rotated": false,
					"trimmed": true,
					"sourceSize": {
						"w": 130,
						"h": 95
					},
					"spriteSourceSize": {
						"x": 29,
						"y": 6,
						"w": 65,
						"h": 81
					},
					"frame": {
						"x": 789,
						"y": 1,
						"w": 65,
						"h": 81
					}
				},
				{
					"filename": "Dying_005.png",
					"rotated": false,
					"trimmed": true,
					"sourceSize": {
						"w": 130,
						"h": 95
					},
					"spriteSourceSize": {
						"x": 27,
						"y": 4,
						"w": 62,
						"h": 81
					},
					"frame": {
						"x": 737,
						"y": 167,
						"w": 62,
						"h": 81
					}
				},
				{
					"filename": "Walking_015.png",
					"rotated": false,
					"trimmed": true,
					"sourceSize": {
						"w": 130,
						"h": 95
					},
					"spriteSourceSize": {
						"x": 29,
						"y": 7,
						"w": 86,
						"h": 80
					},
					"frame": {
						"x": 791,
						"y": 84,
						"w": 86,
						"h": 80
					}
				},
				{
					"filename": "Idle_009.png",
					"rotated": false,
					"trimmed": true,
					"sourceSize": {
						"w": 130,
						"h": 95
					},
					"spriteSourceSize": {
						"x": 28,
						"y": 7,
						"w": 73,
						"h": 80
					},
					"frame": {
						"x": 856,
						"y": 1,
						"w": 73,
						"h": 80
					}
				},
				{
					"filename": "Idle_010.png",
					"rotated": false,
					"trimmed": true,
					"sourceSize": {
						"w": 130,
						"h": 95
					},
					"spriteSourceSize": {
						"x": 29,
						"y": 7,
						"w": 73,
						"h": 80
					},
					"frame": {
						"x": 801,
						"y": 166,
						"w": 73,
						"h": 80
					}
				},
				{
					"filename": "Idle_011.png",
					"rotated": false,
					"trimmed": true,
					"sourceSize": {
						"w": 130,
						"h": 95
					},
					"spriteSourceSize": {
						"x": 30,
						"y": 7,
						"w": 73,
						"h": 80
					},
					"frame": {
						"x": 876,
						"y": 166,
						"w": 73,
						"h": 80
					}
				},
				{
					"filename": "Attacking_000.png",
					"rotated": false,
					"trimmed": true,
					"sourceSize": {
						"w": 130,
						"h": 95
					},
					"spriteSourceSize": {
						"x": 32,
						"y": 7,
						"w": 72,
						"h": 80
					},
					"frame": {
						"x": 879,
						"y": 83,
						"w": 72,
						"h": 80
					}
				},
				{
					"filename": "Idle_000.png",
					"rotated": false,
					"trimmed": true,
					"sourceSize": {
						"w": 130,
						"h": 95
					},
					"spriteSourceSize": {
						"x": 32,
						"y": 7,
						"w": 72,
						"h": 80
					},
					"frame": {
						"x": 879,
						"y": 83,
						"w": 72,
						"h": 80
					}
				},
				{
					"filename": "Dying_000.png",
					"rotated": false,
					"trimmed": true,
					"sourceSize": {
						"w": 130,
						"h": 95
					},
					"spriteSourceSize": {
						"x": 32,
						"y": 7,
						"w": 72,
						"h": 80
					},
					"frame": {
						"x": 931,
						"y": 1,
						"w": 72,
						"h": 80
					}
				},
				{
					"filename": "Hurt_000.png",
					"rotated": false,
					"trimmed": true,
					"sourceSize": {
						"w": 130,
						"h": 95
					},
					"spriteSourceSize": {
						"x": 32,
						"y": 7,
						"w": 72,
						"h": 80
					},
					"frame": {
						"x": 931,
						"y": 1,
						"w": 72,
						"h": 80
					}
				},
				{
					"filename": "Idle_003.png",
					"rotated": false,
					"trimmed": true,
					"sourceSize": {
						"w": 130,
						"h": 95
					},
					"spriteSourceSize": {
						"x": 31,
						"y": 7,
						"w": 70,
						"h": 80
					},
					"frame": {
						"x": 951,
						"y": 165,
						"w": 70,
						"h": 80
					}
				},
				{
					"filename": "Idle_006.png",
					"rotated": false,
					"trimmed": true,
					"sourceSize": {
						"w": 130,
						"h": 95
					},
					"spriteSourceSize": {
						"x": 27,
						"y": 7,
						"w": 70,
						"h": 80
					},
					"frame": {
						"x": 953,
						"y": 83,
						"w": 70,
						"h": 80
					}
				},
				{
					"filename": "Idle_004.png",
					"rotated": false,
					"trimmed": true,
					"sourceSize": {
						"w": 130,
						"h": 95
					},
					"spriteSourceSize": {
						"x": 30,
						"y": 7,
						"w": 69,
						"h": 80
					},
					"frame": {
						"x": 1005,
						"y": 1,
						"w": 69,
						"h": 80
					}
				},
				{
					"filename": "Idle_005.png",
					"rotated": false,
					"trimmed": true,
					"sourceSize": {
						"w": 130,
						"h": 95
					},
					"spriteSourceSize": {
						"x": 29,
						"y": 7,
						"w": 69,
						"h": 80
					},
					"frame": {
						"x": 1023,
						"y": 165,
						"w": 69,
						"h": 80
					}
				},
				{
					"filename": "Hurt_011.png",
					"rotated": false,
					"trimmed": true,
					"sourceSize": {
						"w": 130,
						"h": 95
					},
					"spriteSourceSize": {
						"x": 29,
						"y": 8,
						"w": 74,
						"h": 79
					},
					"frame": {
						"x": 1025,
						"y": 83,
						"w": 74,
						"h": 79
					}
				},
				{
					"filename": "Idle_008.png",
					"rotated": false,
					"trimmed": true,
					"sourceSize": {
						"w": 130,
						"h": 95
					},
					"spriteSourceSize": {
						"x": 27,
						"y": 8,
						"w": 72,
						"h": 79
					},
					"frame": {
						"x": 1076,
						"y": 1,
						"w": 72,
						"h": 79
					}
				},
				{
					"filename": "Idle_007.png",
					"rotated": false,
					"trimmed": true,
					"sourceSize": {
						"w": 130,
						"h": 95
					},
					"spriteSourceSize": {
						"x": 27,
						"y": 8,
						"w": 71,
						"h": 79
					},
					"frame": {
						"x": 1094,
						"y": 164,
						"w": 71,
						"h": 79
					}
				},
				{
					"filename": "Attacking_001.png",
					"rotated": false,
					"trimmed": true,
					"sourceSize": {
						"w": 130,
						"h": 95
					},
					"spriteSourceSize": {
						"x": 29,
						"y": 8,
						"w": 62,
						"h": 79
					},
					"frame": {
						"x": 1101,
						"y": 82,
						"w": 62,
						"h": 79
					}
				},
				{
					"filename": "Hurt_010.png",
					"rotated": false,
					"trimmed": true,
					"sourceSize": {
						"w": 130,
						"h": 95
					},
					"spriteSourceSize": {
						"x": 26,
						"y": 9,
						"w": 75,
						"h": 78
					},
					"frame": {
						"x": 1150,
						"y": 1,
						"w": 75,
						"h": 78
					}
				},
				{
					"filename": "Attacking_002.png",
					"rotated": false,
					"trimmed": true,
					"sourceSize": {
						"w": 130,
						"h": 95
					},
					"spriteSourceSize": {
						"x": 26,
						"y": 9,
						"w": 64,
						"h": 78
					},
					"frame": {
						"x": 1165,
						"y": 81,
						"w": 64,
						"h": 78
					}
				},
				{
					"filename": "Hurt_009.png",
					"rotated": false,
					"trimmed": true,
					"sourceSize": {
						"w": 130,
						"h": 95
					},
					"spriteSourceSize": {
						"x": 24,
						"y": 10,
						"w": 75,
						"h": 77
					},
					"frame": {
						"x": 1227,
						"y": 1,
						"w": 75,
						"h": 77
					}
				},
				{
					"filename": "Attacking_005.png",
					"rotated": false,
					"trimmed": true,
					"sourceSize": {
						"w": 130,
						"h": 95
					},
					"spriteSourceSize": {
						"x": 22,
						"y": 10,
						"w": 67,
						"h": 77
					},
					"frame": {
						"x": 1167,
						"y": 161,
						"w": 67,
						"h": 77
					}
				},
				{
					"filename": "Attacking_006.png",
					"rotated": false,
					"trimmed": true,
					"sourceSize": {
						"w": 130,
						"h": 95
					},
					"spriteSourceSize": {
						"x": 22,
						"y": 10,
						"w": 67,
						"h": 77
					},
					"frame": {
						"x": 1231,
						"y": 80,
						"w": 67,
						"h": 77
					}
				},
				{
					"filename": "Attacking_003.png",
					"rotated": false,
					"trimmed": true,
					"sourceSize": {
						"w": 130,
						"h": 95
					},
					"spriteSourceSize": {
						"x": 23,
						"y": 10,
						"w": 66,
						"h": 77
					},
					"frame": {
						"x": 1236,
						"y": 159,
						"w": 66,
						"h": 77
					}
				},
				{
					"filename": "Attacking_004.png",
					"rotated": false,
					"trimmed": true,
					"sourceSize": {
						"w": 130,
						"h": 95
					},
					"spriteSourceSize": {
						"x": 23,
						"y": 10,
						"w": 66,
						"h": 77
					},
					"frame": {
						"x": 1300,
						"y": 80,
						"w": 66,
						"h": 77
					}
				},
				{
					"filename": "Dying_006.png",
					"rotated": false,
					"trimmed": true,
					"sourceSize": {
						"w": 130,
						"h": 95
					},
					"spriteSourceSize": {
						"x": 20,
						"y": 8,
						"w": 65,
						"h": 77
					},
					"frame": {
						"x": 1304,
						"y": 1,
						"w": 65,
						"h": 77
					}
				},
				{
					"filename": "Hurt_008.png",
					"rotated": false,
					"trimmed": true,
					"sourceSize": {
						"w": 130,
						"h": 95
					},
					"spriteSourceSize": {
						"x": 22,
						"y": 11,
						"w": 75,
						"h": 76
					},
					"frame": {
						"x": 1304,
						"y": 159,
						"w": 75,
						"h": 76
					}
				},
				{
					"filename": "Hurt_003.png",
					"rotated": false,
					"trimmed": true,
					"sourceSize": {
						"w": 130,
						"h": 95
					},
					"spriteSourceSize": {
						"x": 20,
						"y": 11,
						"w": 69,
						"h": 76
					},
					"frame": {
						"x": 1368,
						"y": 80,
						"w": 69,
						"h": 76
					}
				},
				{
					"filename": "Hurt_007.png",
					"rotated": false,
					"trimmed": true,
					"sourceSize": {
						"w": 130,
						"h": 95
					},
					"spriteSourceSize": {
						"x": 20,
						"y": 13,
						"w": 76,
						"h": 74
					},
					"frame": {
						"x": 1371,
						"y": 1,
						"w": 76,
						"h": 74
					}
				},
				{
					"filename": "Hurt_006.png",
					"rotated": false,
					"trimmed": true,
					"sourceSize": {
						"w": 130,
						"h": 95
					},
					"spriteSourceSize": {
						"x": 18,
						"y": 14,
						"w": 76,
						"h": 73
					},
					"frame": {
						"x": 1381,
						"y": 158,
						"w": 76,
						"h": 73
					}
				},
				{
					"filename": "Hurt_004.png",
					"rotated": false,
					"trimmed": true,
					"sourceSize": {
						"w": 130,
						"h": 95
					},
					"spriteSourceSize": {
						"x": 17,
						"y": 14,
						"w": 73,
						"h": 73
					},
					"frame": {
						"x": 1439,
						"y": 77,
						"w": 73,
						"h": 73
					}
				},
				{
					"filename": "Hurt_005.png",
					"rotated": false,
					"trimmed": true,
					"sourceSize": {
						"w": 130,
						"h": 95
					},
					"spriteSourceSize": {
						"x": 16,
						"y": 16,
						"w": 76,
						"h": 71
					},
					"frame": {
						"x": 1449,
						"y": 1,
						"w": 76,
						"h": 71
					}
				},
				{
					"filename": "Dying_011.png",
					"rotated": false,
					"trimmed": true,
					"sourceSize": {
						"w": 130,
						"h": 95
					},
					"spriteSourceSize": {
						"x": 0,
						"y": 31,
						"w": 84,
						"h": 63
					},
					"frame": {
						"x": 1527,
						"y": 1,
						"w": 84,
						"h": 63
					}
				},
				{
					"filename": "Dying_012.png",
					"rotated": false,
					"trimmed": true,
					"sourceSize": {
						"w": 130,
						"h": 95
					},
					"spriteSourceSize": {
						"x": 0,
						"y": 31,
						"w": 84,
						"h": 63
					},
					"frame": {
						"x": 1527,
						"y": 1,
						"w": 84,
						"h": 63
					}
				},
				{
					"filename": "Dying_013.png",
					"rotated": false,
					"trimmed": true,
					"sourceSize": {
						"w": 130,
						"h": 95
					},
					"spriteSourceSize": {
						"x": 0,
						"y": 31,
						"w": 84,
						"h": 63
					},
					"frame": {
						"x": 1527,
						"y": 1,
						"w": 84,
						"h": 63
					}
				},
				{
					"filename": "Dying_014.png",
					"rotated": false,
					"trimmed": true,
					"sourceSize": {
						"w": 130,
						"h": 95
					},
					"spriteSourceSize": {
						"x": 0,
						"y": 31,
						"w": 84,
						"h": 63
					},
					"frame": {
						"x": 1527,
						"y": 1,
						"w": 84,
						"h": 63
					}
				},
				{
					"filename": "Dying_010.png",
					"rotated": false,
					"trimmed": true,
					"sourceSize": {
						"w": 130,
						"h": 95
					},
					"spriteSourceSize": {
						"x": 0,
						"y": 35,
						"w": 84,
						"h": 55
					},
					"frame": {
						"x": 1527,
						"y": 66,
						"w": 84,
						"h": 55
					}
				},
				{
					"filename": "Dying_009.png",
					"rotated": false,
					"trimmed": true,
					"sourceSize": {
						"w": 130,
						"h": 95
					},
					"spriteSourceSize": {
						"x": 2,
						"y": 35,
						"w": 82,
						"h": 52
					},
					"frame": {
						"x": 1514,
						"y": 123,
						"w": 82,
						"h": 52
					}
				},
				{
					"filename": "Dying_007.png",
					"rotated": false,
					"trimmed": true,
					"sourceSize": {
						"w": 130,
						"h": 95
					},
					"spriteSourceSize": {
						"x": 12,
						"y": 17,
						"w": 72,
						"h": 67
					},
					"frame": {
						"x": 1459,
						"y": 177,
						"w": 72,
						"h": 67
					}
				},
				{
					"filename": "Dying_008.png",
					"rotated": false,
					"trimmed": true,
					"sourceSize": {
						"w": 130,
						"h": 95
					},
					"spriteSourceSize": {
						"x": 5,
						"y": 27,
						"w": 79,
						"h": 59
					},
					"frame": {
						"x": 1533,
						"y": 177,
						"w": 79,
						"h": 59
					}
				}
			]
		}
	],
	"meta": {
		"app": "https://www.codeandweb.com/texturepacker",
		"version": "3.0",
		"smartupdate": "$TexturePacker:SmartUpdate:d95e14331b26c0a35d454d3d42cd6cbf:fefa68e79391e3bf845d5e7158883d78:667de6b72f41f892496969469aea341b$"
	}
}
