[
 {
  "description": "Set",
  "latex": "\\text{set}",
  "symbol": "A"
 },
 {
  "description": "Subset",
  "latex": "\\subset",
  "symbol": "⊂"
 },
 {
  "description": "Superset",
  "latex": "\\supset",
  "symbol": "⊃"
 },
 {
  "description": "Subset or equal to",
  "latex": "\\subseteq",
  "symbol": "⊆"
 },
 {
  "description": "Superset or equal to",
  "latex": "\\supseteq",
  "symbol": "⊇"
 },
 {
  "description": "Union",
  "latex": "\\cup",
  "symbol": "∪"
 },
 {
  "description": "Intersection",
  "latex": "\\cap",
  "symbol": "∩"
 },
 {
  "description": "Complement",
  "latex": "\\complement",
  "symbol": "A'"
 },
 {
  "description": "Empty set",
  "latex": "\\emptyset",
  "symbol": "∅"
 },
 {
  "description": "Element of",
  "latex": "\\in",
  "symbol": "∈"
 },
 {
  "description": "Not element of",
  "latex": "\\notin",
  "symbol": "∉"
 },
 {
  "description": "Cardinality",
  "latex": "\\left|A\\right|",
  "symbol": "|A|"
 },
 {
  "description": "Power set",
  "latex": "\\mathcal{P}(A)",
  "symbol": "℘(A)"
 }
 ]