[
    {
        "description": "Summation",
        "symbol": "\\sum",
        "latex": "\\sum_{i=1}^{n} a_i"
    },
    {
        "description": "Product",
        "symbol": "\\prod",
        "latex": "\\prod_{i=1}^{n} a_i"
    },
    {
        "description": "Integral",
        "symbol": "\\int",
        "latex": "\\int_{a}^{b} f(x)dx"
    },
    {
        "description": "Union",
        "symbol": "\\cup",
        "latex": "A \\cup B"
    },
    {
        "description": "Intersection",
        "symbol": "\\cap",
        "latex": "A \\cap B"
    },
    {
        "description": "Subset",
        "symbol": "\\subset",
        "latex": "A \\subset B"
    },
    {
        "description": "Superset",
        "symbol": "\\supset",
        "latex": "A \\supset B"
    },
    {
        "description": "Infinity",
        "symbol": "\\infty",
        "latex": "\\infty"
    },
    {
        "description": "Dollar Sign",
        "symbol": "\\$",
        "latex": "\\$"
    },
    {
        "description": "Pound Sign",
        "symbol": "\\pounds",
        "latex": "\\pounds"
    },
    {
        "description": "Euro Sign",
        "symbol": "\\euro",
        "latex": "\\euro"
    },
    {
        "description": "Thai Baht Sign",
        "symbol": "\\thb",
        "latex": "\\thb"
    }
]