<svg xmlns="http://www.w3.org/2000/svg" xmlns:xlink="http://www.w3.org/1999/xlink" width="108" height="108" viewBox="0 0 108 108">
  <defs>
    <radialGradient id="radial-gradient" cx="0.5" cy="0.5" r="0.5" gradientUnits="objectBoundingBox">
      <stop offset="0" stop-color="#5c90ce"/>
      <stop offset="1" stop-color="#375982"/>
    </radialGradient>
    <filter id="Ellipse_1" x="0" y="0" width="108" height="108" filterUnits="userSpaceOnUse">
      <feOffset dx="5" dy="5" input="SourceAlpha"/>
      <feGaussianBlur stdDeviation="3" result="blur"/>
      <feFlood flood-opacity="0.4"/>
      <feComposite operator="in" in2="blur"/>
      <feComposite in="SourceGraphic"/>
    </filter>
  </defs>
  <g id="Play_Button" data-name="Play Button" transform="translate(-1431 -237)">
    <g transform="matrix(1, 0, 0, 1, 1431, 237)" filter="url(#Ellipse_1)">
      <g id="Ellipse_1-2" data-name="Ellipse 1" transform="translate(4 4)" stroke="#fff" stroke-width="5" fill="url(#radial-gradient)">
        <circle cx="45" cy="45" r="45" stroke="none"/>
        <circle cx="45" cy="45" r="42.5" fill="none"/>
      </g>
    </g>
    <path id="Polygon_2" data-name="Polygon 2" d="M22.5,0,45,38.571H0Z" transform="translate(1503.4 264.143) rotate(90)" fill="#fff"/>
  </g>
</svg>
