<svg xmlns="http://www.w3.org/2000/svg" xmlns:xlink="http://www.w3.org/1999/xlink" width="700" height="30" viewBox="0 0 700 30">
  <defs>
    <filter id="Rectangle_63">
      <feOffset dx="5" dy="5" input="SourceAlpha"/>
      <feGaussianBlur stdDeviation="5" result="blur"/>
      <feFlood flood-opacity="0.702" result="color"/>
      <feComposite operator="out" in="SourceGraphic" in2="blur"/>
      <feComposite operator="in" in="color"/>
      <feComposite operator="in" in2="SourceGraphic"/>
    </filter>
  </defs>
  <g data-type="innerShadowGroup">
    <rect id="Rectangle_63-2" data-name="Rectangle 63" width="700" height="30" rx="15" fill="#fff"/>
    <g transform="matrix(1, 0, 0, 1, 0, 0)" filter="url(#Rectangle_63)">
      <rect id="Rectangle_63-3" data-name="Rectangle 63" width="700" height="30" rx="15" fill="#fff"/>
    </g>
  </g>
</svg>
