<svg xmlns="http://www.w3.org/2000/svg" xmlns:xlink="http://www.w3.org/1999/xlink" width="172.5" height="61.5" viewBox="0 0 172.5 61.5">
  <defs>
    <radialGradient id="radial-gradient" cx="0.5" cy="0.5" r="0.5" gradientUnits="objectBoundingBox">
      <stop offset="0" stop-color="#5c90ce"/>
      <stop offset="1" stop-color="#375982"/>
    </radialGradient>
    <filter id="Rectangle_37" x="0" y="0" width="172.5" height="61.5" filterUnits="userSpaceOnUse">
      <feOffset dx="2" dy="2" input="SourceAlpha"/>
      <feGaussianBlur stdDeviation="0.5" result="blur"/>
      <feFlood flood-opacity="0.639"/>
      <feComposite operator="in" in2="blur"/>
      <feComposite in="SourceGraphic"/>
    </filter>
  </defs>
  <g transform="matrix(1, 0, 0, 1, 0, 0)" filter="url(#Rectangle_37)">
    <g id="Rectangle_37-2" data-name="Rectangle 37" stroke="#707070" stroke-width="1" fill="url(#radial-gradient)">
      <rect width="169" height="58" rx="29" stroke="none"/>
      <rect x="0.5" y="0.5" width="168" height="57" rx="28.5" fill="none"/>
    </g>
  </g>
</svg>
