{
	"textures": [
		{
			"image": "editicons.png",
			"format": "RGBA8888",
			"size": {
				"w": 1010,
				"h": 202
			},
			"scale": 1,
			"frames": [
				{
					"filename": "ccw.png",
					"rotated": false,
					"trimmed": false,
					"sourceSize": {
						"w": 200,
						"h": 200
					},
					"spriteSourceSize": {
						"x": 0,
						"y": 0,
						"w": 200,
						"h": 200
					},
					"frame": {
						"x": 1,
						"y": 1,
						"w": 200,
						"h": 200
					}
				},
				{
					"filename": "cw.png",
					"rotated": false,
					"trimmed": false,
					"sourceSize": {
						"w": 200,
						"h": 200
					},
					"spriteSourceSize": {
						"x": 0,
						"y": 0,
						"w": 200,
						"h": 200
					},
					"frame": {
						"x": 203,
						"y": 1,
						"w": 200,
						"h": 200
					}
				},
				{
					"filename": "minus.png",
					"rotated": false,
					"trimmed": false,
					"sourceSize": {
						"w": 200,
						"h": 200
					},
					"spriteSourceSize": {
						"x": 0,
						"y": 0,
						"w": 200,
						"h": 200
					},
					"frame": {
						"x": 405,
						"y": 1,
						"w": 200,
						"h": 200
					}
				},
				{
					"filename": "plus.png",
					"rotated": false,
					"trimmed": false,
					"sourceSize": {
						"w": 200,
						"h": 200
					},
					"spriteSourceSize": {
						"x": 0,
						"y": 0,
						"w": 200,
						"h": 200
					},
					"frame": {
						"x": 607,
						"y": 1,
						"w": 200,
						"h": 200
					}
				},
				{
					"filename": "trash.png",
					"rotated": false,
					"trimmed": false,
					"sourceSize": {
						"w": 200,
						"h": 200
					},
					"spriteSourceSize": {
						"x": 0,
						"y": 0,
						"w": 200,
						"h": 200
					},
					"frame": {
						"x": 809,
						"y": 1,
						"w": 200,
						"h": 200
					}
				}
			]
		}
	],
	"meta": {
		"app": "https://www.codeandweb.com/texturepacker",
		"version": "3.0",
		"smartupdate": "$TexturePacker:SmartUpdate:4ce3233fd38306fb7daa15899d326a8c:bc12967704518ff8d9e70d409c577926:51971203f3e77bda33c033db8e456f0d$"
	}
}
