{
	"textures": [
		{
			"image": "monkey_anim.png",
			"format": "RGBA8888",
			"size": {
				"w": 508,
				"h": 1194
			},
			"scale": 0.25,
			"frames": [
				{
					"filename": "Running_002.png",
					"rotated": false,
					"trimmed": true,
					"sourceSize": {
						"w": 160,
						"h": 150
					},
					"spriteSourceSize": {
						"x": 13,
						"y": 31,
						"w": 133,
						"h": 116
					},
					"frame": {
						"x": 1,
						"y": 1,
						"w": 133,
						"h": 116
					}
				},
				{
					"filename": "Running_001.png",
					"rotated": false,
					"trimmed": true,
					"sourceSize": {
						"w": 160,
						"h": 150
					},
					"spriteSourceSize": {
						"x": 13,
						"y": 30,
						"w": 131,
						"h": 117
					},
					"frame": {
						"x": 1,
						"y": 119,
						"w": 131,
						"h": 117
					}
				},
				{
					"filename": "Idle_002.png",
					"rotated": false,
					"trimmed": true,
					"sourceSize": {
						"w": 160,
						"h": 150
					},
					"spriteSourceSize": {
						"x": 13,
						"y": 29,
						"w": 129,
						"h": 117
					},
					"frame": {
						"x": 1,
						"y": 238,
						"w": 129,
						"h": 117
					}
				},
				{
					"filename": "Idle_003.png",
					"rotated": false,
					"trimmed": true,
					"sourceSize": {
						"w": 160,
						"h": 150
					},
					"spriteSourceSize": {
						"x": 13,
						"y": 29,
						"w": 129,
						"h": 117
					},
					"frame": {
						"x": 1,
						"y": 357,
						"w": 129,
						"h": 117
					}
				},
				{
					"filename": "Idle_004.png",
					"rotated": false,
					"trimmed": true,
					"sourceSize": {
						"w": 160,
						"h": 150
					},
					"spriteSourceSize": {
						"x": 13,
						"y": 29,
						"w": 129,
						"h": 117
					},
					"frame": {
						"x": 1,
						"y": 476,
						"w": 129,
						"h": 117
					}
				},
				{
					"filename": "Running_003.png",
					"rotated": false,
					"trimmed": true,
					"sourceSize": {
						"w": 160,
						"h": 150
					},
					"spriteSourceSize": {
						"x": 17,
						"y": 32,
						"w": 132,
						"h": 114
					},
					"frame": {
						"x": 136,
						"y": 1,
						"w": 132,
						"h": 114
					}
				},
				{
					"filename": "Running_000.png",
					"rotated": false,
					"trimmed": true,
					"sourceSize": {
						"w": 160,
						"h": 150
					},
					"spriteSourceSize": {
						"x": 14,
						"y": 29,
						"w": 127,
						"h": 118
					},
					"frame": {
						"x": 1,
						"y": 595,
						"w": 127,
						"h": 118
					}
				},
				{
					"filename": "Idle_000.png",
					"rotated": false,
					"trimmed": true,
					"sourceSize": {
						"w": 160,
						"h": 150
					},
					"spriteSourceSize": {
						"x": 14,
						"y": 29,
						"w": 127,
						"h": 117
					},
					"frame": {
						"x": 1,
						"y": 715,
						"w": 127,
						"h": 117
					}
				},
				{
					"filename": "Idle_001.png",
					"rotated": false,
					"trimmed": true,
					"sourceSize": {
						"w": 160,
						"h": 150
					},
					"spriteSourceSize": {
						"x": 14,
						"y": 29,
						"w": 127,
						"h": 117
					},
					"frame": {
						"x": 1,
						"y": 834,
						"w": 127,
						"h": 117
					}
				},
				{
					"filename": "Idle_005.png",
					"rotated": false,
					"trimmed": true,
					"sourceSize": {
						"w": 160,
						"h": 150
					},
					"spriteSourceSize": {
						"x": 14,
						"y": 29,
						"w": 127,
						"h": 117
					},
					"frame": {
						"x": 1,
						"y": 953,
						"w": 127,
						"h": 117
					}
				},
				{
					"filename": "Jumping_003.png",
					"rotated": false,
					"trimmed": true,
					"sourceSize": {
						"w": 160,
						"h": 150
					},
					"spriteSourceSize": {
						"x": 11,
						"y": 23,
						"w": 122,
						"h": 121
					},
					"frame": {
						"x": 1,
						"y": 1072,
						"w": 122,
						"h": 121
					}
				},
				{
					"filename": "Jumping_001.png",
					"rotated": false,
					"trimmed": true,
					"sourceSize": {
						"w": 160,
						"h": 150
					},
					"spriteSourceSize": {
						"x": 11,
						"y": 23,
						"w": 121,
						"h": 121
					},
					"frame": {
						"x": 125,
						"y": 1072,
						"w": 121,
						"h": 121
					}
				},
				{
					"filename": "Running_004.png",
					"rotated": false,
					"trimmed": true,
					"sourceSize": {
						"w": 160,
						"h": 150
					},
					"spriteSourceSize": {
						"x": 20,
						"y": 32,
						"w": 130,
						"h": 113
					},
					"frame": {
						"x": 270,
						"y": 1,
						"w": 130,
						"h": 113
					}
				},
				{
					"filename": "Running_005.png",
					"rotated": false,
					"trimmed": true,
					"sourceSize": {
						"w": 160,
						"h": 150
					},
					"spriteSourceSize": {
						"x": 21,
						"y": 31,
						"w": 131,
						"h": 112
					},
					"frame": {
						"x": 136,
						"y": 117,
						"w": 131,
						"h": 112
					}
				},
				{
					"filename": "Running_006.png",
					"rotated": false,
					"trimmed": true,
					"sourceSize": {
						"w": 160,
						"h": 150
					},
					"spriteSourceSize": {
						"x": 22,
						"y": 28,
						"w": 128,
						"h": 113
					},
					"frame": {
						"x": 134,
						"y": 231,
						"w": 128,
						"h": 113
					}
				},
				{
					"filename": "Idle_006.png",
					"rotated": false,
					"trimmed": true,
					"sourceSize": {
						"w": 160,
						"h": 150
					},
					"spriteSourceSize": {
						"x": 14,
						"y": 29,
						"w": 127,
						"h": 117
					},
					"frame": {
						"x": 132,
						"y": 346,
						"w": 127,
						"h": 117
					}
				},
				{
					"filename": "Idle_007.png",
					"rotated": false,
					"trimmed": true,
					"sourceSize": {
						"w": 160,
						"h": 150
					},
					"spriteSourceSize": {
						"x": 15,
						"y": 28,
						"w": 125,
						"h": 118
					},
					"frame": {
						"x": 132,
						"y": 465,
						"w": 125,
						"h": 118
					}
				},
				{
					"filename": "Idle_008.png",
					"rotated": false,
					"trimmed": true,
					"sourceSize": {
						"w": 160,
						"h": 150
					},
					"spriteSourceSize": {
						"x": 15,
						"y": 28,
						"w": 125,
						"h": 118
					},
					"frame": {
						"x": 132,
						"y": 585,
						"w": 125,
						"h": 118
					}
				},
				{
					"filename": "Idle_009.png",
					"rotated": false,
					"trimmed": true,
					"sourceSize": {
						"w": 160,
						"h": 150
					},
					"spriteSourceSize": {
						"x": 15,
						"y": 28,
						"w": 125,
						"h": 118
					},
					"frame": {
						"x": 130,
						"y": 705,
						"w": 125,
						"h": 118
					}
				},
				{
					"filename": "Idle_014.png",
					"rotated": false,
					"trimmed": true,
					"sourceSize": {
						"w": 160,
						"h": 150
					},
					"spriteSourceSize": {
						"x": 16,
						"y": 28,
						"w": 124,
						"h": 118
					},
					"frame": {
						"x": 130,
						"y": 825,
						"w": 124,
						"h": 118
					}
				},
				{
					"filename": "Jumping_000.png",
					"rotated": false,
					"trimmed": true,
					"sourceSize": {
						"w": 160,
						"h": 150
					},
					"spriteSourceSize": {
						"x": 11,
						"y": 22,
						"w": 120,
						"h": 122
					},
					"frame": {
						"x": 130,
						"y": 945,
						"w": 120,
						"h": 122
					}
				},
				{
					"filename": "Idle_015.png",
					"rotated": false,
					"trimmed": true,
					"sourceSize": {
						"w": 160,
						"h": 150
					},
					"spriteSourceSize": {
						"x": 15,
						"y": 29,
						"w": 125,
						"h": 117
					},
					"frame": {
						"x": 270,
						"y": 116,
						"w": 125,
						"h": 117
					}
				},
				{
					"filename": "Idle_016.png",
					"rotated": false,
					"trimmed": true,
					"sourceSize": {
						"w": 160,
						"h": 150
					},
					"spriteSourceSize": {
						"x": 15,
						"y": 29,
						"w": 125,
						"h": 117
					},
					"frame": {
						"x": 264,
						"y": 235,
						"w": 125,
						"h": 117
					}
				},
				{
					"filename": "Running_011.png",
					"rotated": false,
					"trimmed": true,
					"sourceSize": {
						"w": 160,
						"h": 150
					},
					"spriteSourceSize": {
						"x": 16,
						"y": 19,
						"w": 116,
						"h": 123
					},
					"frame": {
						"x": 391,
						"y": 235,
						"w": 116,
						"h": 123
					}
				},
				{
					"filename": "Idle_017.png",
					"rotated": false,
					"trimmed": true,
					"sourceSize": {
						"w": 160,
						"h": 150
					},
					"spriteSourceSize": {
						"x": 15,
						"y": 29,
						"w": 125,
						"h": 117
					},
					"frame": {
						"x": 261,
						"y": 354,
						"w": 125,
						"h": 117
					}
				},
				{
					"filename": "Running_012.png",
					"rotated": false,
					"trimmed": true,
					"sourceSize": {
						"w": 160,
						"h": 150
					},
					"spriteSourceSize": {
						"x": 15,
						"y": 22,
						"w": 119,
						"h": 122
					},
					"frame": {
						"x": 388,
						"y": 360,
						"w": 119,
						"h": 122
					}
				},
				{
					"filename": "Jumping_002.png",
					"rotated": false,
					"trimmed": true,
					"sourceSize": {
						"w": 160,
						"h": 150
					},
					"spriteSourceSize": {
						"x": 11,
						"y": 23,
						"w": 121,
						"h": 121
					},
					"frame": {
						"x": 259,
						"y": 473,
						"w": 121,
						"h": 121
					}
				},
				{
					"filename": "Idle_010.png",
					"rotated": false,
					"trimmed": true,
					"sourceSize": {
						"w": 160,
						"h": 150
					},
					"spriteSourceSize": {
						"x": 16,
						"y": 28,
						"w": 123,
						"h": 118
					},
					"frame": {
						"x": 259,
						"y": 596,
						"w": 123,
						"h": 118
					}
				},
				{
					"filename": "Idle_013.png",
					"rotated": false,
					"trimmed": true,
					"sourceSize": {
						"w": 160,
						"h": 150
					},
					"spriteSourceSize": {
						"x": 16,
						"y": 28,
						"w": 123,
						"h": 118
					},
					"frame": {
						"x": 384,
						"y": 484,
						"w": 123,
						"h": 118
					}
				},
				{
					"filename": "Idle_011.png",
					"rotated": false,
					"trimmed": true,
					"sourceSize": {
						"w": 160,
						"h": 150
					},
					"spriteSourceSize": {
						"x": 17,
						"y": 28,
						"w": 122,
						"h": 118
					},
					"frame": {
						"x": 384,
						"y": 604,
						"w": 122,
						"h": 118
					}
				},
				{
					"filename": "Running_007.png",
					"rotated": false,
					"trimmed": true,
					"sourceSize": {
						"w": 160,
						"h": 150
					},
					"spriteSourceSize": {
						"x": 23,
						"y": 23,
						"w": 124,
						"h": 113
					},
					"frame": {
						"x": 257,
						"y": 716,
						"w": 124,
						"h": 113
					}
				},
				{
					"filename": "Idle_012.png",
					"rotated": false,
					"trimmed": true,
					"sourceSize": {
						"w": 160,
						"h": 150
					},
					"spriteSourceSize": {
						"x": 17,
						"y": 28,
						"w": 122,
						"h": 118
					},
					"frame": {
						"x": 256,
						"y": 831,
						"w": 122,
						"h": 118
					}
				},
				{
					"filename": "Jumping_004.png",
					"rotated": false,
					"trimmed": true,
					"sourceSize": {
						"w": 160,
						"h": 150
					},
					"spriteSourceSize": {
						"x": 11,
						"y": 23,
						"w": 121,
						"h": 121
					},
					"frame": {
						"x": 252,
						"y": 951,
						"w": 121,
						"h": 121
					}
				},
				{
					"filename": "Running_008.png",
					"rotated": false,
					"trimmed": true,
					"sourceSize": {
						"w": 160,
						"h": 150
					},
					"spriteSourceSize": {
						"x": 24,
						"y": 21,
						"w": 119,
						"h": 115
					},
					"frame": {
						"x": 248,
						"y": 1074,
						"w": 119,
						"h": 115
					}
				},
				{
					"filename": "Running_013.png",
					"rotated": false,
					"trimmed": true,
					"sourceSize": {
						"w": 160,
						"h": 150
					},
					"spriteSourceSize": {
						"x": 15,
						"y": 24,
						"w": 120,
						"h": 122
					},
					"frame": {
						"x": 383,
						"y": 724,
						"w": 120,
						"h": 122
					}
				},
				{
					"filename": "Running_010.png",
					"rotated": false,
					"trimmed": true,
					"sourceSize": {
						"w": 160,
						"h": 150
					},
					"spriteSourceSize": {
						"x": 19,
						"y": 19,
						"w": 117,
						"h": 121
					},
					"frame": {
						"x": 380,
						"y": 848,
						"w": 117,
						"h": 121
					}
				},
				{
					"filename": "Running_009.png",
					"rotated": false,
					"trimmed": true,
					"sourceSize": {
						"w": 160,
						"h": 150
					},
					"spriteSourceSize": {
						"x": 24,
						"y": 20,
						"w": 115,
						"h": 118
					},
					"frame": {
						"x": 375,
						"y": 971,
						"w": 115,
						"h": 118
					}
				}
			]
		}
	],
	"meta": {
		"app": "https://www.codeandweb.com/texturepacker",
		"version": "3.0",
		"smartupdate": "$TexturePacker:SmartUpdate:7458d52eb7048fa1c7ee23c5c8cb45ea:4c7418b65259f771116a358119269b3c:e5197153609725755b7422a091726d9f$"
	}
}
