{
	"textures": [
		{
			"image": "radial.png",
			"format": "RGBA8888",
			"size": {
				"w": 32,
				"h": 556
			},
			"scale": 1,
			"frames": [
				{
					"filename": "Radial Highlight B0011.png",
					"rotated": false,
					"trimmed": false,
					"sourceSize": {
						"w": 30,
						"h": 30
					},
					"spriteSourceSize": {
						"x": 0,
						"y": 0,
						"w": 30,
						"h": 30
					},
					"frame": {
						"x": 1,
						"y": 1,
						"w": 30,
						"h": 30
					}
				},
				{
					"filename": "Radial Highlight B0012.png",
					"rotated": false,
					"trimmed": false,
					"sourceSize": {
						"w": 30,
						"h": 30
					},
					"spriteSourceSize": {
						"x": 0,
						"y": 0,
						"w": 30,
						"h": 30
					},
					"frame": {
						"x": 1,
						"y": 33,
						"w": 30,
						"h": 30
					}
				},
				{
					"filename": "Radial Highlight B0013.png",
					"rotated": false,
					"trimmed": false,
					"sourceSize": {
						"w": 30,
						"h": 30
					},
					"spriteSourceSize": {
						"x": 0,
						"y": 0,
						"w": 30,
						"h": 30
					},
					"frame": {
						"x": 1,
						"y": 65,
						"w": 30,
						"h": 30
					}
				},
				{
					"filename": "Radial Highlight B0014.png",
					"rotated": false,
					"trimmed": false,
					"sourceSize": {
						"w": 30,
						"h": 30
					},
					"spriteSourceSize": {
						"x": 0,
						"y": 0,
						"w": 30,
						"h": 30
					},
					"frame": {
						"x": 1,
						"y": 97,
						"w": 30,
						"h": 30
					}
				},
				{
					"filename": "Radial Highlight B0015.png",
					"rotated": false,
					"trimmed": false,
					"sourceSize": {
						"w": 30,
						"h": 30
					},
					"spriteSourceSize": {
						"x": 0,
						"y": 0,
						"w": 30,
						"h": 30
					},
					"frame": {
						"x": 1,
						"y": 129,
						"w": 30,
						"h": 30
					}
				},
				{
					"filename": "Radial Highlight B0016.png",
					"rotated": false,
					"trimmed": false,
					"sourceSize": {
						"w": 30,
						"h": 30
					},
					"spriteSourceSize": {
						"x": 0,
						"y": 0,
						"w": 30,
						"h": 30
					},
					"frame": {
						"x": 1,
						"y": 161,
						"w": 30,
						"h": 30
					}
				},
				{
					"filename": "Radial Highlight B0017.png",
					"rotated": false,
					"trimmed": false,
					"sourceSize": {
						"w": 30,
						"h": 30
					},
					"spriteSourceSize": {
						"x": 0,
						"y": 0,
						"w": 30,
						"h": 30
					},
					"frame": {
						"x": 1,
						"y": 193,
						"w": 30,
						"h": 30
					}
				},
				{
					"filename": "Radial Highlight B0018.png",
					"rotated": false,
					"trimmed": false,
					"sourceSize": {
						"w": 30,
						"h": 30
					},
					"spriteSourceSize": {
						"x": 0,
						"y": 0,
						"w": 30,
						"h": 30
					},
					"frame": {
						"x": 1,
						"y": 225,
						"w": 30,
						"h": 30
					}
				},
				{
					"filename": "Radial Highlight B0019.png",
					"rotated": false,
					"trimmed": false,
					"sourceSize": {
						"w": 30,
						"h": 30
					},
					"spriteSourceSize": {
						"x": 0,
						"y": 0,
						"w": 30,
						"h": 30
					},
					"frame": {
						"x": 1,
						"y": 257,
						"w": 30,
						"h": 30
					}
				},
				{
					"filename": "Radial Highlight B0020.png",
					"rotated": false,
					"trimmed": false,
					"sourceSize": {
						"w": 30,
						"h": 30
					},
					"spriteSourceSize": {
						"x": 0,
						"y": 0,
						"w": 30,
						"h": 30
					},
					"frame": {
						"x": 1,
						"y": 289,
						"w": 30,
						"h": 30
					}
				},
				{
					"filename": "Radial Highlight B0021.png",
					"rotated": false,
					"trimmed": false,
					"sourceSize": {
						"w": 30,
						"h": 30
					},
					"spriteSourceSize": {
						"x": 0,
						"y": 0,
						"w": 30,
						"h": 30
					},
					"frame": {
						"x": 1,
						"y": 321,
						"w": 30,
						"h": 30
					}
				},
				{
					"filename": "Radial Highlight B0022.png",
					"rotated": false,
					"trimmed": false,
					"sourceSize": {
						"w": 30,
						"h": 30
					},
					"spriteSourceSize": {
						"x": 0,
						"y": 0,
						"w": 30,
						"h": 30
					},
					"frame": {
						"x": 1,
						"y": 353,
						"w": 30,
						"h": 30
					}
				},
				{
					"filename": "Radial Highlight B0023.png",
					"rotated": false,
					"trimmed": false,
					"sourceSize": {
						"w": 30,
						"h": 30
					},
					"spriteSourceSize": {
						"x": 0,
						"y": 0,
						"w": 30,
						"h": 30
					},
					"frame": {
						"x": 1,
						"y": 385,
						"w": 30,
						"h": 30
					}
				},
				{
					"filename": "Radial Highlight B0010.png",
					"rotated": false,
					"trimmed": true,
					"sourceSize": {
						"w": 30,
						"h": 30
					},
					"spriteSourceSize": {
						"x": 1,
						"y": 2,
						"w": 28,
						"h": 27
					},
					"frame": {
						"x": 1,
						"y": 417,
						"w": 28,
						"h": 27
					}
				},
				{
					"filename": "Radial Highlight B0009.png",
					"rotated": false,
					"trimmed": true,
					"sourceSize": {
						"w": 30,
						"h": 30
					},
					"spriteSourceSize": {
						"x": 3,
						"y": 3,
						"w": 25,
						"h": 25
					},
					"frame": {
						"x": 1,
						"y": 446,
						"w": 25,
						"h": 25
					}
				},
				{
					"filename": "Radial Highlight B0008.png",
					"rotated": false,
					"trimmed": true,
					"sourceSize": {
						"w": 30,
						"h": 30
					},
					"spriteSourceSize": {
						"x": 4,
						"y": 4,
						"w": 23,
						"h": 23
					},
					"frame": {
						"x": 1,
						"y": 473,
						"w": 23,
						"h": 23
					}
				},
				{
					"filename": "Radial Highlight B0001.png",
					"rotated": false,
					"trimmed": true,
					"sourceSize": {
						"w": 30,
						"h": 30
					},
					"spriteSourceSize": {
						"x": 13,
						"y": 13,
						"w": 5,
						"h": 5
					},
					"frame": {
						"x": 26,
						"y": 473,
						"w": 5,
						"h": 5
					}
				},
				{
					"filename": "Radial Highlight B0007.png",
					"rotated": false,
					"trimmed": true,
					"sourceSize": {
						"w": 30,
						"h": 30
					},
					"spriteSourceSize": {
						"x": 5,
						"y": 5,
						"w": 21,
						"h": 21
					},
					"frame": {
						"x": 1,
						"y": 498,
						"w": 21,
						"h": 21
					}
				},
				{
					"filename": "Radial Highlight B0002.png",
					"rotated": false,
					"trimmed": true,
					"sourceSize": {
						"w": 30,
						"h": 30
					},
					"spriteSourceSize": {
						"x": 12,
						"y": 12,
						"w": 7,
						"h": 7
					},
					"frame": {
						"x": 24,
						"y": 498,
						"w": 7,
						"h": 7
					}
				},
				{
					"filename": "Radial Highlight B0006.png",
					"rotated": false,
					"trimmed": true,
					"sourceSize": {
						"w": 30,
						"h": 30
					},
					"spriteSourceSize": {
						"x": 7,
						"y": 7,
						"w": 17,
						"h": 17
					},
					"frame": {
						"x": 1,
						"y": 521,
						"w": 17,
						"h": 17
					}
				},
				{
					"filename": "Radial Highlight B0003.png",
					"rotated": false,
					"trimmed": true,
					"sourceSize": {
						"w": 30,
						"h": 30
					},
					"spriteSourceSize": {
						"x": 11,
						"y": 11,
						"w": 9,
						"h": 9
					},
					"frame": {
						"x": 20,
						"y": 521,
						"w": 9,
						"h": 9
					}
				},
				{
					"filename": "Radial Highlight B0005.png",
					"rotated": false,
					"trimmed": true,
					"sourceSize": {
						"w": 30,
						"h": 30
					},
					"spriteSourceSize": {
						"x": 8,
						"y": 8,
						"w": 15,
						"h": 15
					},
					"frame": {
						"x": 1,
						"y": 540,
						"w": 15,
						"h": 15
					}
				},
				{
					"filename": "Radial Highlight B0004.png",
					"rotated": false,
					"trimmed": true,
					"sourceSize": {
						"w": 30,
						"h": 30
					},
					"spriteSourceSize": {
						"x": 9,
						"y": 9,
						"w": 13,
						"h": 13
					},
					"frame": {
						"x": 18,
						"y": 540,
						"w": 13,
						"h": 13
					}
				}
			]
		}
	],
	"meta": {
		"app": "https://www.codeandweb.com/texturepacker",
		"version": "3.0",
		"smartupdate": "$TexturePacker:SmartUpdate:dca977fae497085c9fb12310e51a3b42:ea2b5c9eb33da02c5c0d760125beaef9:cc04d6f83e215fc88e600c014fa8f9f0$"
	}
}
