{
  "info": {
    "startPage": "game"
  },
  "textStyles": [
    {
      "key": "redText",
      "fontFamily": "Lobster",
      "color": "#ff0000",
      "maxSize": 0.5,
      "stroke": { "thick": 4, "color": "#ffffff" },
      "shadow": {
        "x": 5,
        "y": 5,
        "color": "#000000",
        "blur": 5,
        "stroke": true,
        "fill": false
      }
    },
    {
      "key": "standard",
      "fontFamily": "Andika",
      "color": "#000000",
      "maxSize": 30,
      "stroke": { "thick": 4, "color": "#ffffff" },
      "shadow": {
        "x": 5,
        "y": 5,
        "color": "#000000",
        "blur": 5,
        "stroke": true,
        "fill": false
      }
    },
    {
      "key": "white",
      "fontFamily": "Andika",
      "color": "#ffffff",
      "maxSize": 50,
      "stroke": { "thick": 4, "color": "#000000" },
      "shadow": {
        "x": 5,
        "y": 5,
        "color": "#000000",
        "blur": 5,
        "stroke": true,
        "fill": false
      }
    },
    {
      "key": "black",
      "fontFamily": "Andika",
      "color": "#000000",
      "maxSize": 50
    }
  ],
  "backStyles": [
    {
      "key": "blue",
      "backColor": "0x5881BB",
      "borderThick": 4,
      "borderColor": "0xffffff",
      "borderPress": "0xff00ff",
      "borderOver": "0x0ff00"
    },
    {
      "key": "bluewhite",
      "backColor": "0xffffff",
      "borderThick": 8,
      "borderColor": "0x5881BB",
      "borderPress": "0xff00ff",
      "borderOver": "0x0ff00"
    },
    {
      "key": "white",
      "backColor": "0xffffff",
      "borderThick": 4,
      "borderColor": "0x375982",
      "borderPress": "0xff00ff",
      "borderOver": "0x0ff00"
    },
    {
      "key": "gray",
      "backColor": "0xcccccc",
      "borderThick": 4,
      "borderColor": "0x375982",
      "borderPress": "0xff00ff",
      "borderOver": "0x0ff00"
    },
    {
      "key": "red",
      "backColor": "0xff0000",
      "borderThick": 4,
      "borderColor": "0xffffff",
      "borderPress": "0xff00ff",
      "borderOver": "0x0ff00"
    },
    {
      "key": "slider",
      "backColor": "0xcccccc",
      "borderThick": 4,
      "borderColor": "0xff0000"
    }
  ],
  "buttonStyles": [
    {
      "key": "button1",
      "textStyle": "white",
      "vsize": 0.08,
      "hsize": 0.08,
      "backStyle": "blue"
    },
    {
      "key": "button2",
      "textStyle": "white",
      "vsize": 0.08,
      "hsize": 0.08,
      "backStyle": "red"
    },
    {
      "key": "tri",
      "textStyle": "standard",
      "vsize": 0.045,
      "hsize": 0.045,
      "backStyle": "blue"
    },
    {
      "key": "iconrect",
      "textStyle": "standard",
      "vsize": 0.25,
      "hsize": 0.25,
      "backStyle": "bluewhite"
    },
    {
      "key": "iconrectLG",
      "textStyle": "standard",
      "vsize": 0.375,
      "hsize": 0.275,
      "backStyle": "bluewhite"
    }
  ],
  "pages": [
    {
      "name": "game",
      "backgroundType": "color",
      "backgroundParams": "0xffffff",
      "components": [
        {
          "id": "uiWindow",
          "type": "window",
          "w": 0.8,
          "h": 0.7,
          "x": 5,
          "y": 5,
          "backStyle": "gray"
        },
        {
          "id": "btnCheck",
          "type": "iconbutton",
          "icon": "check",
          "x": 8,
          "y": 9.5,
          "style": "button1",
          "action":"check"
        },
        {
          "id": "btnHelp",
          "type": "iconbutton",
          "icon": "qmark",
          "x": 2,
          "y": 9.5,
          "style": "button1"
        },
        {
          "id": "btnReset",
          "type": "iconbutton",
          "icon": "arrows",
          "x": 6,
          "y": 9.5,
          "style": "button1",
          "action":"reset"
        },
        {
          "id": "btnPlay",
          "type": "iconbutton",
          "icon": "triangle",
          "x": 4,
          "y": 9.5,
          "style": "button1"
        },
        {
          "id": "right",
          "type": "img",
          "x": 4,
          "y": 5,
          "h": 0.1,
          "text": "right",
          "flipX": false,
          "flipY": false
        },
        {
          "id": "wrong",
          "type": "img",
          "x": 4,
          "y": 5,
          "h": 0.1,
          "text": "wrong",
          "flipX": false,
          "flipY": false
        }
      ]
    }
  ]
}
