{
    "sents": [{
        "instructions": "Highlight the *predicate* of the sentence:",
        "text": "The man and his wife <r>were working in the garden</r>."
    },{
        "instructions": "Highlight the **subject** of the sentence:",
        "text": "<r>The little tree</r> was covered with needles instead of leaves."
    }, {
        "instructions": "Highlight the *1st* sentence:",
        "text": "<r>Mr. Morton walked down the street.</r> Mr. Morton walked."
    },{
        "instructions": "####Highlight the part of the paragraph that is the concluding sentence:",
        "text": "What is your favorite gemstone? I have collected many types of gems, but I think tourmaline is my favorite for several reasons. First, I enjoy how this semiprecious stone can vary greatly in color. Most pieces you find are black, but they can also be red, yellow, blue, or even pink. More importantly, I like how tourmaline is often combined with other rocks and crystals. For example, you can see it next to flourite or quartz, so this makes it even more beautiful and interesting. Most importantly, I like the shape of tourmaline. It is square with sharp edges, so it is satisfying to hold and carry around. <r>This stone stands out as unique in my rock collection.</r>"
    }]
}