{
  "steps": [
    {
      "id": 0,
      "elements": [
        {
          "type": "IMAGE",
          "classes": [],
          "content": ["horse.jpg"],
          "x": -18.18,
          "y": -2.77,
          "w": 118,
          "h": 0,
          "eid": "0",
          "extras": {
            "alpha": 100,
            "rotation": 0,
            "flipH": false,
            "flipV": false,
            "orientation": 0,
            "skewX": 0,
            "skewY": 0,
            "borderColor": "#000000",
            "borderThick": 0,
            "fontSize": 16,
            "fontColor": "#000000",
            "fontName": "Arial",
            "backgroundPosX": 0,
            "backgroundPosY": 0,
            "backgroundSizeW": 100,
            "backgroundSizeH": 100,
            "popupID": -1
          },
          "textStyle": -1
        },
        {
          "type": "IMAGE",
          "classes": [],
          "content": ["greenBars.svg"],
          "x": 85.05,
          "y": -5.91,
          "w": 12,
          "h": 0,
          "eid": "0",
          "extras": {
            "alpha": 100,
            "rotation": 0,
            "flipH": false,
            "flipV": false,
            "orientation": 0,
            "skewX": 0,
            "skewY": 0,
            "borderColor": "#000000",
            "borderThick": 0,
            "fontSize": 16,
            "fontColor": "#000000",
            "fontName": "Arial",
            "backgroundPosX": 0,
            "backgroundPosY": 0,
            "backgroundSizeW": 100,
            "backgroundSizeH": 100,
            "popupID": -1
          },
          "textStyle": -1
        },
        {
          "type": "IMAGE",
          "classes": [],
          "content": ["titleBox.svg"],
          "x": 73.43,
          "y": 2.97,
          "w": 27,
          "h": 0,
          "eid": "0",
          "extras": {
            "alpha": 100,
            "rotation": 0,
            "flipH": false,
            "flipV": false,
            "orientation": 0,
            "skewX": 0,
            "skewY": 0,
            "borderColor": "#000000",
            "borderThick": 0,
            "fontSize": 16,
            "fontColor": "#000000",
            "fontName": "Arial",
            "backgroundPosX": 0,
            "backgroundPosY": 0,
            "backgroundSizeW": 100,
            "backgroundSizeH": 100,
            "popupID": -1
          },
          "textStyle": -1
        }
      ],
      "zoom": {
        "x1": -0.16999999999999937,
        "y1": -0.5699999999999983,
        "x2": 100,
        "y2": 100
      },
      "audio": "",
      "audioName": "",
      "backgroundAudioName": "",
      "backgroundAudio": "",
      "label": "1"
    },
    {
      "id": 2,
      "elements": [
        {
          "type": "IMAGE",
          "subType": "",
          "classes": [],
          "content": ["horse.jpg"],
          "x": -44,
          "y": 0,
          "w": 146,
          "h": 0,
          "eid": "0",
          "extras": {
            "alpha": 100,
            "rotation": 0,
            "flipH": false,
            "flipV": false,
            "orientation": 0,
            "skewX": 0,
            "skewY": 0,
            "borderColor": "#000000",
            "borderThick": 0,
            "fontSize": 16,
            "fontColor": "#000000",
            "fontName": "Arial",
            "backgroundPosX": 0,
            "backgroundPosY": 0,
            "backgroundSizeW": 100,
            "backgroundSizeH": 100,
            "popupID": -1
          },
          "textStyle": -1
        },
        {
          "type": "CARD",
          "subType": "whiteCard",
          "classes": [],
          "content": [
            "If a cheetah and a horse ran a 100-meter dash, who would win? \n\nProbably the cheetah—as the fastest land animal, it can run 70 miles (112 km) an hour. \n\nEven the fastest racehorses reach speeds of only about 45 mph."
          ],
          "x": 67.84,
          "y": 5.43,
          "w": 30,
          "h": 27,
          "eid": "instance1",
          "extras": {
            "alpha": 100,
            "rotation": 0,
            "flipH": false,
            "flipV": false,
            "orientation": 0,
            "skewX": 0,
            "skewY": 0,
            "borderColor": "#000000",
            "borderThick": 0,
            "fontSize": 7,
            "fontColor": "#000000",
            "fontName": "Arial",
            "backgroundPosX": 0,
            "backgroundPosY": 0,
            "backgroundSizeW": 100,
            "backgroundSizeH": 100,
            "popupID": -1
          },
          "textStyle": -1
        },
        {
          "type": "CARD",
          "subType": "whiteCard",
          "classes": [],
          "content": [
            "But what if they raced a mile? That would be a different story. The cheetah would get tired and quit half way. But a horse could keep running for miles without tiring. It’s built for both speed and endurance. "
          ],
          "x": 68.01,
          "y": 41.2,
          "w": 30,
          "h": 27,
          "eid": "instance2",
          "extras": {
            "alpha": 100,
            "rotation": 0,
            "flipH": false,
            "flipV": false,
            "orientation": 0,
            "skewX": 0,
            "skewY": 0,
            "borderColor": "#000000",
            "borderThick": 0,
            "fontSize": 7,
            "fontColor": "#000000",
            "fontName": "Arial",
            "backgroundPosX": 0,
            "backgroundPosY": 0,
            "backgroundSizeW": 100,
            "backgroundSizeH": 100,
            "popupID": -1
          },
          "textStyle": -1
        }
      ],
      "zoom": {
        "x1": -0.16999999999999937,
        "y1": -0.5699999999999983,
        "x2": 100,
        "y2": 100
      },
      "audio": "",
      "audioName": "",
      "backgroundAudioName": "",
      "backgroundAudio": "",
      "label": "2"
    }
  ],
  "pageW": 480,
  "pageH": 270
}
