{
    "steps": [
        {
            "id": 0,
            "elements": [
                {
                    "type": "IMAGE",
                    "subType": "none",
                    "classes": [],
                    "content": [
                        "cheetah.svg"
                    ],
                    "x": 28.92,
                    "y": 28.69,
                    "w": 40,
                    "h": 0,
                    "eid": "image2",
                    "extras": {
                        "alpha": 100,
                        "rotation": 0,
                        "flipH": false,
                        "flipV": false,
                        "orientation": 0,
                        "skewX": 0,
                        "skewY": 0,
                        "borderColor": "#000000",
                        "borderThick": 0,
                        "fontSize": 16,
                        "fontColor": "#000000",
                        "fontName": "Arial",
                        "backgroundPosX": 0,
                        "backgroundPosY": 0,
                        "backgroundSizeW": 100,
                        "backgroundSizeH": 100,
                        "shapeStyle": {
                            "styleName": "default",
                            "strokeColor": "#ff0000",
                            "strokeWidth": 1,
                            "fillColor": "#ffffff"
                        },
                        "popupID": -1,
                        "backgroundColor": "#ff00ff"
                    },
                    "textStyle": -1
                },
                {
                    "type": "SHAPE",
                    "subType": "none",
                    "classes": [],
                    "content": [
                        " M 5 -30 L 5 -10 L -50 -10 L -50 10 L 5 10 L 5 30 L 50 0 L 5 -30 Z ",
                        "arrow"
                    ],
                    "x": 50,
                    "y": 50,
                    "w": 31,
                    "h": 50,
                    "eid": "shape1",
                    "extras": {
                        "alpha": 100,
                        "rotation": 0,
                        "flipH": false,
                        "flipV": false,
                        "orientation": 0,
                        "skewX": 0,
                        "skewY": 0,
                        "borderColor": "#ff0000",
                        "borderThick": 1,
                        "fontSize": 16,
                        "fontColor": "#000000",
                        "fontName": "Arial",
                        "backgroundPosX": 0,
                        "backgroundPosY": 0,
                        "backgroundSizeW": 100,
                        "backgroundSizeH": 100,
                        "shapeStyle": {
                            "styleName": "default",
                            "strokeColor": "#ff0000",
                            "strokeWidth": 1,
                            "fillColor": "#ffffff"
                        },
                        "popupID": -1,
                        "backgroundColor": "#00ff00"
                    },
                    "textStyle": -1
                }
            ],
            "zoom": {
                "x1": 0,
                "y1": 0,
                "x2": 100,
                "y2": 100
            },
            "audio": "",
            "audioName": "",
            "backgroundAudioName": "",
            "backgroundAudio": "",
            "label": "0"
        }
    ],
    "pageW": 480,
    "pageH": 270,
    "attribution": "",
    "bgColor": "#cccccc"
}