{
  "pages": [
    {
      "x": -1244,
      "y": -741,
      "zoom": 0.3,
      "type": "zoom",
      "text": "<span class='high'> A cave is a hole in the earth that was formed by nature.</span> Some caves are just big enough for a bear's den. Others are huge, twisting and turning deep under the ground."
    },
    {
      "x": -2047,
      "y": -874,
      "zoom": 0.5,
      "type": "zoom",
      "text": "A cave is a hole in the earth that was formed by nature. <span class='high'> Some caves are just big enough for a bear's den.</span> Others are huge, twisting and turning deep under the ground."
    },
    {
      "x": -333,
      "y": -392,
      "zoom": 0.3,
      "type": "zoom",
      "text": "A cave is a hole in the earth that was formed by nature. Some caves are just big enough for a bear's den.<span class='high'> Others are huge, twisting and turning deep under the ground.</span>"
    },
    {
      "x": -340,
      "y": -392,
      "zoom": 0.5,
      "type": "zoom",
      "text": "<span class='high'>Most caves form in a kind of rock called limestone.</span> They take shape when water seeps through cracks in the rock. Slowly the water dissolves the limestone."
    },
    {
      "x": -318,
      "y": -803,
      "zoom": 0.35,
      "type": "zoom",
      "text": "Most caves form in a kind of rock called limestone. <span class='high'>They take shape when water seeps through cracks in the rock.</span> Slowly the water dissolves the limestone."
    },
    {
      "x": -429,
      "y": -1060,
      "zoom": 0.4,
      "type": "zoom",
      "text": "Most caves form in a kind of rock called limestone. They take shape when water seeps through cracks in the rock.  <span class='high'>Slowly the water dissolves the limestone.</span>"
    },
    {
      "x": -543,
      "y": -1075,
      "zoom": 0.4,
      "type": "zoom",
      "text": "<span class='high'>After thousands of years, the water carves out narrow passageways and large rooms.</span> It makes strange and beautiful formations of stone."
    },
    {
      "x": -543,
      "y": -447,
      "zoom": 0.25,
      "type": "zoom",
      "text": "After thousands of years, the water carves out narrow passageways and large rooms. <span class='high'>It makes strange and beautiful formations of stone.</span>"
    },
    {
      "x": -705,
      "y": -753,
      "zoom": 0.3,
      "type": "zoom",
      "text": "<span class='high'>In many caves, the water collects into underground lakes, rivers, and waterfalls.</span>"
    },
    {
        "callout":{"x":-0.30,"y":-0.1,"key":"arrow","scale":0.05,"angle":90,"tint":"0xff0000"},
        "x": -387,
        "y": -288,
        "zoom": 0.3,
        "type": "zoom",
        "text": "<span class='high'>Water flows under the ground through sinkholes.</span> If the water dries up a pothole remains."
      },
      {
        "callout":{"x":-0.2,"y":-0.2,"key":"arrow","scale":0.05,"angle":90,"tint":"0xff0000"},
        "x": -720,
        "y": -315,
        "zoom": 0.3,
        "type": "zoom",
        "text": "Water flows under the ground through sinkholes. <span class='high'>If the water dries up a pothole remains.</span>"
      },
      {
        "x": -1231,
        "y": -316,
        "zoom": 0.35,
        "type": "zoom",
        "text": "<span class='high'>Some caves can be entered though a hole in the ground.</span> Some caves can be entered through a hole in the hillside."
      },
      {
        "x": -1405,
        "y": -517,
        "zoom": 0.35,
        "type": "zoom",
        "text": "Some caves can be entered though a hole in the ground. <span class='high'>Some caves can be entered through a hole in the hillside.</span>"
      },
      {
        "x": -873,
        "y": -527,
        "zoom": 0.35,
        "type": "zoom",
        "text": "<span class='high'>Caves are dark cold and damp because sunlight can not reach them.</span>"
      },
      {
        "x": -709,
        "y": -916,
        "zoom": 0.35,
        "type": "zoom",
        "text": "<span class='high'>Caverns are large rooms that form in some caves.</span>They can be bigger than your house."
      },
      {
        "x": -709,
        "y": -916,
        "zoom": 0.35,
        "type": "zoom",
        "text": "Caverns are large rooms that form in some caves.<span class='high'>They can be bigger than your house.</span>"
      },
      {
        "callout":{"x":-0.1,"y":0.1,"key":"arrow","scale":0.1,"angle":270,"tint":"0xff0000"},
        "x": -908,
        "y": -935,
        "zoom": 0.35,
        "type": "zoom",
        "text": "<span class='high'>Dripping water leaves behind minerals that harden into stalactites.</span> Pointy stone stalagmites build up when dripping water leaves minerals on the cave floor"
      },
      {
        "callout":{"x":0.1,"y":0.1,"key":"arrow","scale":0.1,"angle":90,"tint":"0xff0000"},
        "x": -908,
        "y": -935,
        "zoom": 0.35,
        "type": "zoom",
        "text": "Dripping water leaves behind minerals that harden into stalactites. <span class='high'>Pointy stone stalagmites build up when dripping water leaves minerals on the cave floor</span>"
      },
      {
        "callout":{"x":0.1,"y":0.1,"key":"arrow","scale":0.1,"angle":0,"tint":"0xff0000"},
        "x": -908,
        "y": -935,
        "zoom": 0.35,
        "type": "zoom",
        "text": "<span class='high'>When a stalagmite and stalactite join, they form a column.</span>"
      },
      {    
        "x": -602,
        "y": -367,
        "zoom": 0.2,
        "type": "zoom",
        "text": "<span class='high'>The world of caves is truly fascinating. Where else on Earth can you find unexplored land, discover otherworldly formations, and see artwork from ancient times?</span>"
      }
  ]
}
