[
    {
        "description":"Line Break",
        "symbol": "BR",
        "latex": "\\newline"
    },
    {
        "description": "Colon",
        "symbol": ":",
        "latex": ":"
    },
    {
        "description": "Black Diamond (used as bullet)",
        "symbol": "U+25C6",
        "latex": "\\char\"25C6"
    },
    {
        "description": "Addition",
        "symbol": "U+002B",
        "latex": "+"

    },
    {
        "description": "Subtraction",
        "symbol": "U+2212",
        "latex": "-"
    },
    {
        "description": "Multiplication X",
        "symbol": "U+00D7",
        "latex": "\\times"
    },
    {
        "description": "Multiplication Dot",
        "symbol": "U+2022",
        "latex": "\\cdot"
    }
    ,
    {
        "description": "Division",
        "symbol": "U+00F7",
        "latex": "\\div"
    },
    {
        "description": "Equals",
        "symbol": "U+003D",
        "latex": "="
    },
    {
        "description": "Not Equals",
        "symbol": "U+2260",
        "latex": "\\neq"
    },
    {
        "description": "Greater Than",
        "symbol": "U+003E",
        "latex": ">"
    },
    {
        "description": "Less Than",
        "symbol": "U+003C",
        "latex": "<"
    },
    {
        "description": "Greater Than or Equal To",
        "symbol": "U+2265",
        "latex": "\\geq"
    },
    {
        "description": "Less Than or Equal To",
        "symbol": "U+2264",
        "latex": "\\leq"
    },
    {
        "description": "Almost Equal",
        "symbol": "U+2248",
        "latex": "\\approx"
    },
    {
        "description": "Similar",
        "symbol": "U+223C",
        "latex": "\\sim"
    },
    {
        "description": "Congruent",
        "symbol": "U+2245",
        "latex": "\\cong"
    },
    {
        "description": "Plus Minus",
        "symbol": "U+00B1",
        "latex": "\\pm"
    },
    {
        "description": "Percent",
        "symbol": "U+0025",
        "latex": "\\%"
    },
    {
        "description": "Degree",
        "symbol": "U+00B0",
        "latex": "\\degree"
    },
    {
        "description": "Infinity",
        "symbol": "U+221E",
        "latex": "\\infty"
    },
    {
        "description": "Length (Italic L)",
        "symbol": "U+2113",
        "latex": "\\ell"
    },
    {
        "description": "Area (greek alpha)",
        "symbol": "U+03B1",
        "latex": "\\alpha"
    },
    {
        "description": "Angle",
        "symbol": "U+2220",
        "latex": "\\angle"
    },
    {
        "description": "Ray Right",
        "symbol": "U+2192",
        "latex": "\\overrightarrow{AB}"
    },
    
    {
        "description": "Line",
        "symbol": "U+2194",
        "latex": "\\overleftrightarrow{AB}"
    },
    {
        "description": "Ray Left",
        "symbol": "U+2190",
        "latex": "\\overleftarrow{AB}"
    },
    {
        "description": "Segment",
        "symbol": "U+2212",
        "latex": "\\overline{AB}"
    },
    {
        "description": "Arc",
        "symbol": "U+2312",
        "latex": "\\overparen{AB}"
    },
    {
        "description": "Average",
        "symbol": "U+203E",
        "latex": "\\overline{AB}"
    },
    {
        "description": "Prime Average (Prime Mean?)",
        "symbol": "U+03B8",
        "latex": "\\theta"
    },
    {
        "description": "Perpendicular",
        "symbol": "U+27C2",
        "latex": "\\perp"
    },
    {
        "description": "Parallel",
        "symbol": "U+2225",
        "latex": "\\parallel"
    },
    {
        "description": "Triangle",
        "symbol": "U+0394",
        "latex": "\\triangle"
    },
    {
        "description": "Circle",
        "symbol": "U+2A00",
        "latex": "\\char\"2A00"
    },
    {
        "description": "Parallelogram",
        "symbol": "U+25B1",
        "latex": "\\char\"25B1"
    },
    {
        "description": "Change (delta)",
        "symbol": "U+0394",
        "latex": "\\Delta"
    },
    {
        "description": "Beta (small)",
        "symbol": "U+03B2",
        "latex": "\\beta"
    },
    {
        "description": "Theta (small)",
        "symbol": "U+03B8",
        "latex": "\\theta"
    },
    {
        "description": "Pi (small)",
        "symbol": "U+03C0",
        "latex": "\\pi"
    },
    {
        "description": "Sigma (small)",
        "symbol": "U+03C3",
        "latex": "\\sigma"
    },
    {
        "description": "Sigma (large)",
        "symbol": "U+03A3",
        "latex": "\\Sigma"
    },
    {
        "description": "Omega (small)",
        "symbol": "U+03C9",
        "latex": "\\omega"
    },
    {
        "description": "Composition Operator (Ring operator)",
        "symbol": "U+2218",
        "latex": "\\circ"
    },
    {
        "description": "Italic f",
        "symbol": "𝑓",
        "latex": "\\mathit{f}"
    },
    {
        "description": "Italic g",
        "symbol": "𝑔",
        "latex": "\\mathit{g}"
    },
    {
        "description": "Italic i",
        "symbol": "𝒊",
        "latex": "\\mathit{i}"
    },
    {
        "description": "Union",
        "symbol": "U+222A",
        "latex": "\\cup"
    },
    {
        "description": "Intersection",
        "symbol": "U+2229",
        "latex": "\\cap"
    },
    {
        "description": "Subset of",
        "symbol": "U+2282",
        "latex": "\\subset"
    },
    {
        "description": "Factorial",
        "symbol": "U+0021",
        "latex": "!"
    },
    {
        "description": "Integral",
        "symbol": "U+222B",
        "latex": "\\int"
    },
    {
        "description": "Prime mark (differentiation)",
        "symbol": "U+2032",
        "latex": "\\prime"
    },
    {
        "description": "Double Prime",
        "symbol": "U+2033",
        "latex": "\\prime\\prime"
    }

]

