{
	"textures": [
		{
			"image": "puddle.png",
			"format": "RGBA8888",
			"size": {
				"w": 1185,
				"h": 1019
			},
			"scale": 1,
			"frames": [
				{
					"filename": "puddle10.png",
					"rotated": false,
					"trimmed": true,
					"sourceSize": {
						"w": 515,
						"h": 382
					},
					"spriteSourceSize": {
						"x": 25,
						"y": 42,
						"w": 463,
						"h": 284
					},
					"frame": {
						"x": 1,
						"y": 1,
						"w": 463,
						"h": 284
					}
				},
				{
					"filename": "puddle8.png",
					"rotated": false,
					"trimmed": true,
					"sourceSize": {
						"w": 433,
						"h": 349
					},
					"spriteSourceSize": {
						"x": 29,
						"y": 46,
						"w": 380,
						"h": 274
					},
					"frame": {
						"x": 1,
						"y": 287,
						"w": 380,
						"h": 274
					}
				},
				{
					"filename": "puddle4.png",
					"rotated": false,
					"trimmed": true,
					"sourceSize": {
						"w": 425,
						"h": 323
					},
					"spriteSourceSize": {
						"x": 16,
						"y": 38,
						"w": 387,
						"h": 263
					},
					"frame": {
						"x": 1,
						"y": 563,
						"w": 387,
						"h": 263
					}
				},
				{
					"filename": "puddle7.png",
					"rotated": false,
					"trimmed": true,
					"sourceSize": {
						"w": 384,
						"h": 253
					},
					"spriteSourceSize": {
						"x": 0,
						"y": 0,
						"w": 383,
						"h": 252
					},
					"frame": {
						"x": 383,
						"y": 287,
						"w": 383,
						"h": 252
					}
				},
				{
					"filename": "puddle1.png",
					"rotated": false,
					"trimmed": true,
					"sourceSize": {
						"w": 395,
						"h": 329
					},
					"spriteSourceSize": {
						"x": 21,
						"y": 36,
						"w": 347,
						"h": 270
					},
					"frame": {
						"x": 466,
						"y": 1,
						"w": 347,
						"h": 270
					}
				},
				{
					"filename": "puddle5.png",
					"rotated": false,
					"trimmed": true,
					"sourceSize": {
						"w": 388,
						"h": 243
					},
					"spriteSourceSize": {
						"x": 0,
						"y": 0,
						"w": 387,
						"h": 242
					},
					"frame": {
						"x": 390,
						"y": 541,
						"w": 387,
						"h": 242
					}
				},
				{
					"filename": "puddle0.png",
					"rotated": false,
					"trimmed": true,
					"sourceSize": {
						"w": 388,
						"h": 240
					},
					"spriteSourceSize": {
						"x": 0,
						"y": 0,
						"w": 387,
						"h": 239
					},
					"frame": {
						"x": 768,
						"y": 273,
						"w": 387,
						"h": 239
					}
				},
				{
					"filename": "puddle6.png",
					"rotated": false,
					"trimmed": true,
					"sourceSize": {
						"w": 370,
						"h": 248
					},
					"spriteSourceSize": {
						"x": 0,
						"y": 0,
						"w": 369,
						"h": 247
					},
					"frame": {
						"x": 815,
						"y": 1,
						"w": 369,
						"h": 247
					}
				},
				{
					"filename": "puddle2.png",
					"rotated": false,
					"trimmed": true,
					"sourceSize": {
						"w": 388,
						"h": 234
					},
					"spriteSourceSize": {
						"x": 0,
						"y": 0,
						"w": 387,
						"h": 233
					},
					"frame": {
						"x": 390,
						"y": 785,
						"w": 387,
						"h": 233
					}
				},
				{
					"filename": "puddle9.png",
					"rotated": false,
					"trimmed": true,
					"sourceSize": {
						"w": 370,
						"h": 248
					},
					"spriteSourceSize": {
						"x": 0,
						"y": 0,
						"w": 369,
						"h": 247
					},
					"frame": {
						"x": 779,
						"y": 514,
						"w": 369,
						"h": 247
					}
				},
				{
					"filename": "puddle3.png",
					"rotated": false,
					"trimmed": true,
					"sourceSize": {
						"w": 352,
						"h": 220
					},
					"spriteSourceSize": {
						"x": 0,
						"y": 0,
						"w": 351,
						"h": 220
					},
					"frame": {
						"x": 779,
						"y": 763,
						"w": 351,
						"h": 220
					}
				}
			]
		}
	],
	"meta": {
		"app": "https://www.codeandweb.com/texturepacker",
		"version": "3.0",
		"smartupdate": "$TexturePacker:SmartUpdate:235c08b305803d4415780b51262b19f8:415380e534e8032f9355150dde86b335:48f5573d2592926a0f9615cac8ef8ee4$"
	}
}
