{
  "pwidth": 300,
  "pheight": 450,
  "covers": { "left": [], "right": [] },
  "pages": [
    {
      "left": [
        {
          "type": "IMAGE",
          "subtype": "none",
          "classes": [],
          "content": ["test3.jpg"],
          "x": 11.62,
          "y": 11.57,
          "w": 81,
          "h": 0,
          "extras": {
            "alpha": 100,
            "rotation": 0,
            "flipH": false,
            "flipV": false,
            "orientation": 0,
            "skewX": 0,
            "skewY": 0,
            "borderColor": "#000000",
            "borderThick": 5,
            "fontSize": 16,
            "fontColor": "#000000",
            "fontName": "Arial",
            "backgroundPosX": 0,
            "backgroundPosY": 0,
            "backgroundSizeW": 100,
            "backgroundSizeH": 100,
            "popupID": -1
          },
          "textStyle": -1
        },
        {
          "type": "TEXT",
          "subtype": "none",
          "classes": [],
          "content": [
            "Say something about the picture above to let the reader know what it is about!"
          ],
          "x": 47.5,
          "y": 65.33,
          "w": 53,
          "h": 0,
          "extras": {
            "alpha": 100,
            "rotation": 0,
            "flipH": false,
            "flipV": false,
            "orientation": 4,
            "skewX": 0,
            "skewY": 0,
            "borderColor": "#000000",
            "borderThick": 0,
            "fontSize": 16,
            "fontColor": "#000000",
            "fontName": "Arial",
            "backgroundPosX": 0,
            "backgroundPosY": 0,
            "backgroundSizeW": 100,
            "backgroundSizeH": 100,
            "popupID": -1
          },
          "textStyle": -1
        },
        {
          "type": "IMAGE",
          "subtype": "popuplink",
          "classes": [],
          "content": ["btnexplore.svg"],
          "x": 63.16,
          "y": 75.8,
          "w": 20,
          "h": 0,
          "extras": {
            "alpha": 100,
            "rotation": 0,
            "flipH": false,
            "flipV": false,
            "orientation": 0,
            "skewX": 0,
            "skewY": 0,
            "borderColor": "#000000",
            "borderThick": 0,
            "fontSize": 16,
            "fontColor": "#000000",
            "fontName": "Arial",
            "backgroundPosX": 0,
            "backgroundPosY": 0,
            "backgroundSizeW": 100,
            "backgroundSizeH": 100,
            "popupID": 1
          },
          "textStyle": -1
        }
      ],
      "right": [
        {
          "type": "IMAGE",
          "subtype": "none",
          "classes": [],
          "content": ["test1.jpg"],
          "x": 16.09,
          "y": 55.64,
          "w": 73,
          "h": 0,
          "extras": {
            "alpha": 100,
            "rotation": 0,
            "flipH": false,
            "flipV": false,
            "orientation": 0,
            "skewX": 0,
            "skewY": 0,
            "borderColor": "#000000",
            "borderThick": 5,
            "fontSize": 16,
            "fontColor": "#000000",
            "fontName": "Arial",
            "backgroundPosX": 0,
            "backgroundPosY": 0,
            "backgroundSizeW": 100,
            "backgroundSizeH": 100,
            "popupID": -1
          },
          "textStyle": -1
        },
        {
          "type": "TEXT",
          "subtype": "none",
          "classes": [],
          "content": [
            "Say something about the picture below to let the reader know what it is about!"
          ],
          "x": 49.34,
          "y": 28.45,
          "w": 53,
          "h": 0,
          "extras": {
            "alpha": 100,
            "rotation": 0,
            "flipH": false,
            "flipV": false,
            "orientation": 4,
            "skewX": 0,
            "skewY": 0,
            "borderColor": "#000000",
            "borderThick": 0,
            "fontSize": 16,
            "fontColor": "#000000",
            "fontName": "Arial",
            "backgroundPosX": 0,
            "backgroundPosY": 0,
            "backgroundSizeW": 100,
            "backgroundSizeH": 100,
            "popupID": -1
          },
          "textStyle": -1
        }
      ]
    }
  ],
  "popups": [
    {
      "id": 1,
      "w": 400,
      "h": 300,
      "elements": [
        {
          "type": "IMAGE",
          "subtype": "none",
          "classes": [],
          "content": ["popback.svg"],
          "x": 50,
          "y": 50,
          "w": 100,
          "h": 100,
          "extras": {
            "alpha": 100,
            "rotation": 0,
            "flipH": false,
            "flipV": false,
            "orientation": 4,
            "skewX": 0,
            "skewY": 0,
            "borderColor": "#000000",
            "borderThick": 0,
            "fontSize": 16,
            "fontColor": "#000000",
            "fontName": "Arial",
            "backgroundPosX": 0,
            "backgroundPosY": 0,
            "backgroundSizeW": 100,
            "backgroundSizeH": 100,
            "popupID": -1
          },
          "textStyle": -1
        },
        {
          "type": "TEXT",
          "subtype": "none",
          "classes": ["centerText"],
          "content": ["It was the best of times, it was the worst of times"],
          "x": 50,
          "y": 40,
          "w": 80,
          "h": 0,
          "extras": {
            "alpha": 100,
            "rotation": 0,
            "flipH": false,
            "flipV": false,
            "orientation": 4,
            "skewX": 0,
            "skewY": 0,
            "borderColor": "#000000",
            "borderThick": 0,
            "fontSize": 16,
            "fontColor": "white",
            "fontName": "Arial",
            "backgroundPosX": 0,
            "backgroundPosY": 0,
            "backgroundSizeW": 100,
            "backgroundSizeH": 100,
            "popupID": -1
          },
          "textStyle": -1
        }
      ]
    }
  ]
}