{
  "animations": [
      {
          "id": 0,
          "name": "Slow",
          "elementType": "all",
          "animationType": "speed",
          "dirIn": 2,
          "initClass": ["slow"],
          "animClass": ["slow"]
      },
      {
          "id": 1,
          "name": "Fast",
          "elementType": "all",
          "animationType": "speed",
          "dirIn": 2,
          "initClass": ["fast"],
          "animClass": ["fast"]
      },
      {
          "id": 2,
          "name": "Slide In 1",
          "elementType": "all",
          "animationType": "move",
          "dirIn": 0,
          "initClass": ["pos0"],
          "animClass": []
      },
      {
          "id": 3,
          "name": "Slide In 2",
          "elementType": "all",
          "animationType": "move",
          "dirIn": 0,
          "initClass": ["pos1"],
          "animClass": []
      },
      {
          "id": 4,
          "name": "Slide In 3",
          "elementType": "all",
          "animationType": "move",
          "dirIn": 0,
          "initClass": ["pos2"],
          "animClass": []
      },
      {
          "id": 5,
          "name": "Slide In 4",
          "elementType": "all",
          "animationType": "move",
          "dirIn": 0,
          "initClass": ["pos3"],
          "animClass": []
      },
      {
          "id": 6,
          "name": "Slide In 5",
          "elementType": "all",
          "animationType": "move",
          "dirIn": 0,
          "initClass": ["pos4"],
          "animClass": []
      },
      {
          "id": 7,
          "name": "Slide In 6",
          "elementType": "all",
          "animationType": "move",
          "dirIn": 0,
          "initClass": ["pos5"],
          "animClass": []
      },
      {
          "id": 8,
          "name": "Slide In 7",
          "elementType": "all",
          "animationType": "move",
          "dirIn": 0,
          "initClass": ["pos6"],
          "animClass": []
      },
      {
          "id": 9,
          "name": "Slide In 8",
          "elementType": "all",
          "animationType": "move",
          "dirIn": 0,
          "initClass": ["pos7"],
          "animClass": []
      },
      {
          "id": 10,
          "name": "Slide out 1",
          "elementType": "all",
          "animationType": "move",
          "dirIn": 1,
          "initClass": [],
          "animClass": ["pos0"]
      },
      {
          "id": 11,
          "name": "Slide out 2",
          "elementType": "all",
          "animationType": "move",
          "dirIn": 1,
          "initClass": [],
          "animClass": ["pos1"]
      },
      {
          "id": 12,
          "name": "Slide out 3",
          "elementType": "all",
          "animationType": "move",
          "dirIn": 1,
          "initClass": [],
          "animClass": ["pos2"]
      },
      {
          "id": 13,
          "name": "Slide out 4",
          "elementType": "all",
          "animationType": "move",
          "dirIn": 1,
          "initClass": [],
          "animClass": ["pos3"]
      },
      {
          "id": 14,
          "name": "Slide out 5",
          "elementType": "all",
          "animationType": "move",
          "dirIn": 1,
          "initClass": [],
          "animClass": ["pos4"]
      },
      {
          "id": 15,
          "name": "Slide out 6",
          "elementType": "all",
          "animationType": "move",
          "dirIn": 1,
          "initClass": [],
          "animClass": ["pos5"]
      },
      {
          "id": 16,
          "name": "Slide out 7",
          "elementType": "all",
          "animationType": "move",
          "dirIn": 1,
          "initClass": [],
          "animClass": ["pos6"]
      },
      {
          "id": 17,
          "name": "Slide out 8",
          "elementType": "all",
          "animationType": "move",
          "dirIn": 1,
          "initClass": [],
          "animClass": ["pos7"]
      },
      {
          "id": 18,
          "name": "Fade Out",
          "elementType": "all",
          "animationType": "fade",
          "dirIn": 1,
          "initClass": [],
          "animClass": ["fade0"]
      },
      {
          "id": 19,
          "name": "Fade In",
          "elementType": "all",
          "animationType": "fade",
          "dirIn": 0,
          "initClass": ["fade0"],
          "animClass": []
      },
      {
          "id": 20,
          "name": "Grow",
          "elementType": "all",
          "animationType": "size",
          "dirIn": 0,
          "initClass": ["size0"],
          "animClass": []
      },
      {
          "id": 21,
          "name": "Shrink",
          "elementType": "all",
          "animationType": "size",
          "dirIn": 1,
          "initClass": [],
          "animClass": ["size0"]
      }
  ]
}
