<?xml version="1.0" encoding="utf-8"?>
<!DOCTYPE svg PUBLIC "-//W3C//DTD SVG 1.1//EN" "http://www.w3.org/Graphics/SVG/1.1/DTD/svg11.dtd">
<svg version="1.1" xmlns="http://www.w3.org/2000/svg" xmlns:xlink="http://www.w3.org/1999/xlink" 
	x="0px" y="0px" width="200px" height="300px" viewBox="0 0 200 300">
	<defs>
		<style type="text/css"><![CDATA[
			path {fill-rule:evenodd;}
			.c {fill: hsl(200, 0%, 90%);}
			.l {fill: hsl(200, 0%, 75%);}
			.g .c {fill: hsl(100, 100%, 30%);}
			.g .l {fill: hsl(100, 0%, 100%);}
			.r .c {fill: hsl(0, 90%, 0%);}
			.r .l {fill: hsl(0, 90%, 60%);}
		]]></style>
		<circle id="c" r="45" />
		<path id="s" d="M36.7-4.5c-1.4,0-2.6-1-2.9-2.4C30.6-22.9,16.3-34.5,0-34.5c-16.3,0-30.6,11.6-33.8,27.6
			c-0.3,1.6-1.9,2.7-3.5,2.3C-39-4.9-40-6.5-39.7-8.1c1.8-9,6.8-17.2,13.9-23.1c7.2-6,16.4-9.3,25.8-9.3c9.4,0,18.6,3.3,25.8,9.3
			c7.1,5.9,12.1,14.1,13.9,23.1C40-6.5,39-4.9,37.3-4.6C37.1-4.5,36.9-4.5,36.7-4.5z M25.8,31.2c7.1-5.9,12.1-14.1,13.9-23.1
			C40,6.5,39,4.9,37.3,4.6c-1.6-0.3-3.2,0.7-3.5,2.3C30.6,22.9,16.3,34.5,0,34.5c-16.3,0-30.6-11.6-33.8-27.6
			c-0.3-1.6-1.9-2.7-3.5-2.3C-39,4.9-40,6.5-39.7,8.1c1.8,9,6.8,17.2,13.9,23.1c7.2,6,16.4,9.3,25.8,9.3
			C9.4,40.5,18.6,37.2,25.8,31.2z" />
		<g id="sp">
			<use xlink:href="#s" />
			<animateTransform
				attributeName="transform"
				type="rotate"
				from="0"
				to="360"
				dur="1s"
				repeatCount="indefinite" />
		</g>
		<path id="v" d="M-7.4,22.4C-7.4,22.4-7.4,22.4-7.4,22.4c-1.5,0-2.9-0.6-3.8-1.8L-25.6,3.8c-1.8-2.1-1.5-5.3,0.6-7
			c2.1-1.8,5.3-1.5,7,0.6L-7.4,9.7l23.1-27.1c1.8-2.1,4.9-2.4,7-0.6c2.1,1.8,2.4,4.9,0.6,7L
			-3.6,20.7C-4.6,21.8-6,22.4-7.4,22.4z"/>
		<path id="x" d="M7.1,0l14.1-14.1c2-2,2-5.1,0-7.1c-2-2-5.1-2-7.1,0L0-7.1l-14.1-14.1c-2-2-5.1-2-7.1,0s-2,5.1,0,7.1L-7.1,0
			l-14.1,14.1c-2,2-2,5.1,0,7.1c1,1,2.3,1.5,3.5,1.5s2.6-0.5,3.5-1.5L0,7.1l14.1,14.1c1,1,2.3,1.5,3.5,1.5s2.6-0.5,3.5-1.5
			c2-2,2-5.1,0-7.1L7.1,0z"/>
	</defs>
	<g class="u" transform="translate(0,50)">
		<g transform="translate(50,0)">
			<use class="c" xlink:href="#c" />
			<use class="l" xlink:href="#s" />
		</g>
		<g transform="translate(150,0)">
			<use class="c" xlink:href="#c" />
			<use class="l" xlink:href="#sp" />
		</g>
	</g>
	<g class="g" transform="translate(0,150)">
		<g transform="translate(50,0)">
			<use class="c" xlink:href="#c" />
			<use class="l" xlink:href="#s" />
			<use class="l" xlink:href="#v" />
		</g>
		<g transform="translate(150,0)">
			<use class="c" xlink:href="#c" />
			<use class="l" xlink:href="#sp" />
			<use class="l" xlink:href="#v" />
		</g>
	</g>
	<g class="r" transform="translate(0,250)">
		<g transform="translate(50,0)">
			<use class="c" xlink:href="#c" />
			<use class="l" xlink:href="#s" />
			<use class="l" xlink:href="#x" />
		</g>
		<g transform="translate(150,0)">
			<use class="c" xlink:href="#c" />
			<use class="l" xlink:href="#sp" />
			<use class="l" xlink:href="#x" />
		</g>
	</g>
</svg>