<svg xmlns="http://www.w3.org/2000/svg" xmlns:xlink="http://www.w3.org/1999/xlink" width="166" height="271" viewBox="0 0 166 271">
  <defs>
    <filter id="Union_4" x="0" y="0" width="166" height="271" filterUnits="userSpaceOnUse">
      <feOffset dx="2" dy="5" input="SourceAlpha"/>
      <feGaussianBlur stdDeviation="1" result="blur"/>
      <feFlood flood-opacity="0.4"/>
      <feComposite operator="in" in2="blur"/>
      <feComposite in="SourceGraphic"/>
    </filter>
  </defs>
  <g id="Speed_Menu" data-name="Speed Menu" transform="translate(-3262 -4622)">
    <g transform="matrix(1, 0, 0, 1, 3262, 4622)" filter="url(#Union_4)">
      <path id="Union_4-2" data-name="Union 4" d="M61.618,445.325C48.868,436.451,29,430.5,29,430.5h.11A40.018,40.018,0,0,1,0,392V243a40,40,0,0,1,40-40h80a40,40,0,0,1,40,40V392a40.019,40.019,0,0,1-29.111,38.5H131s-20.225,5.951-32.974,14.826S85.861,466,80,466,74.368,454.2,61.618,445.325Z" transform="translate(1 -203)" fill="#fff"/>
    </g>
    <text id="Faster" transform="translate(3343 4691)" font-size="35" font-family="AndikaNewBasic-Regular, Andika New Basic"><tspan x="-51.996" y="0">Faster</tspan></text>
    <text id="Normal" transform="translate(3343 4748)" font-size="35" font-family="AndikaNewBasic-Regular, Andika New Basic"><tspan x="-59.216" y="0">Normal</tspan></text>
    <text id="Slower" transform="translate(3343 4805)" font-size="35" font-family="AndikaNewBasic-Regular, Andika New Basic"><tspan x="-54.816" y="0">Slower</tspan></text>
  </g>
</svg>
