{
	"textures": [
		{
			"image": "avatar1.png",
			"format": "RGBA8888",
			"size": {
				"w": 839,
				"h": 914
			},
			"scale": 1,
			"frames": [
				{
					"filename": "walk_left_1.png",
					"rotated": false,
					"trimmed": false,
					"sourceSize": {
						"w": 223,
						"h": 274
					},
					"spriteSourceSize": {
						"x": 0,
						"y": 0,
						"w": 223,
						"h": 274
					},
					"frame": {
						"x": 1,
						"y": 1,
						"w": 223,
						"h": 274
					}
				},
				{
					"filename": "walk_right_1.png",
					"rotated": false,
					"trimmed": false,
					"sourceSize": {
						"w": 223,
						"h": 276
					},
					"spriteSourceSize": {
						"x": 0,
						"y": 0,
						"w": 223,
						"h": 276
					},
					"frame": {
						"x": 226,
						"y": 1,
						"w": 223,
						"h": 276
					}
				},
				{
					"filename": "walk_up_right_1.png",
					"rotated": false,
					"trimmed": false,
					"sourceSize": {
						"w": 212,
						"h": 276
					},
					"spriteSourceSize": {
						"x": 0,
						"y": 0,
						"w": 212,
						"h": 276
					},
					"frame": {
						"x": 451,
						"y": 1,
						"w": 212,
						"h": 276
					}
				},
				{
					"filename": "idle_left_up.png",
					"rotated": false,
					"trimmed": false,
					"sourceSize": {
						"w": 140,
						"h": 307
					},
					"spriteSourceSize": {
						"x": 0,
						"y": 0,
						"w": 140,
						"h": 307
					},
					"frame": {
						"x": 665,
						"y": 1,
						"w": 140,
						"h": 307
					}
				},
				{
					"filename": "walk_up_left_1.png",
					"rotated": false,
					"trimmed": false,
					"sourceSize": {
						"w": 214,
						"h": 277
					},
					"spriteSourceSize": {
						"x": 0,
						"y": 0,
						"w": 214,
						"h": 277
					},
					"frame": {
						"x": 1,
						"y": 277,
						"w": 214,
						"h": 277
					}
				},
				{
					"filename": "walk_left_2.png",
					"rotated": false,
					"trimmed": false,
					"sourceSize": {
						"w": 249,
						"h": 299
					},
					"spriteSourceSize": {
						"x": 0,
						"y": 0,
						"w": 249,
						"h": 299
					},
					"frame": {
						"x": 217,
						"y": 279,
						"w": 249,
						"h": 299
					}
				},
				{
					"filename": "idle_right_up.png",
					"rotated": false,
					"trimmed": false,
					"sourceSize": {
						"w": 140,
						"h": 307
					},
					"spriteSourceSize": {
						"x": 0,
						"y": 0,
						"w": 140,
						"h": 307
					},
					"frame": {
						"x": 468,
						"y": 279,
						"w": 140,
						"h": 307
					}
				},
				{
					"filename": "walk_up_right_2.png",
					"rotated": false,
					"trimmed": false,
					"sourceSize": {
						"w": 228,
						"h": 300
					},
					"spriteSourceSize": {
						"x": 0,
						"y": 0,
						"w": 228,
						"h": 300
					},
					"frame": {
						"x": 610,
						"y": 310,
						"w": 228,
						"h": 300
					}
				},
				{
					"filename": "idle_left.png",
					"rotated": false,
					"trimmed": false,
					"sourceSize": {
						"w": 144,
						"h": 314
					},
					"spriteSourceSize": {
						"x": 0,
						"y": 0,
						"w": 144,
						"h": 314
					},
					"frame": {
						"x": 1,
						"y": 556,
						"w": 144,
						"h": 314
					}
				},
				{
					"filename": "walk_right_2.png",
					"rotated": false,
					"trimmed": false,
					"sourceSize": {
						"w": 251,
						"h": 301
					},
					"spriteSourceSize": {
						"x": 0,
						"y": 0,
						"w": 251,
						"h": 301
					},
					"frame": {
						"x": 147,
						"y": 580,
						"w": 251,
						"h": 301
					}
				},
				{
					"filename": "idle_right.png",
					"rotated": false,
					"trimmed": false,
					"sourceSize": {
						"w": 143,
						"h": 314
					},
					"spriteSourceSize": {
						"x": 0,
						"y": 0,
						"w": 143,
						"h": 314
					},
					"frame": {
						"x": 400,
						"y": 588,
						"w": 143,
						"h": 314
					}
				},
				{
					"filename": "walk_up_left_2.png",
					"rotated": false,
					"trimmed": false,
					"sourceSize": {
						"w": 228,
						"h": 301
					},
					"spriteSourceSize": {
						"x": 0,
						"y": 0,
						"w": 228,
						"h": 301
					},
					"frame": {
						"x": 545,
						"y": 612,
						"w": 228,
						"h": 301
					}
				}
			]
		}
	],
	"meta": {
		"app": "https://www.codeandweb.com/texturepacker",
		"version": "3.0",
		"smartupdate": "$TexturePacker:SmartUpdate:b5cc2b4095b9a79e56cf6de97c9a7606:e10c950155b6b0d061e0bdcd07820072:f0030dd954659947a7fb37acad1bdedb$"
	}
}
