{
	"textures": [
		{
			"image": "bubblePop.png",
			"format": "RGBA8888",
			"size": {
				"w": 1081,
				"h": 223
			},
			"scale": 1,
			"frames": [
				{
					"filename": "Bubble7-20004.png",
					"rotated": false,
					"trimmed": true,
					"sourceSize": {
						"w": 229,
						"h": 225
					},
					"spriteSourceSize": {
						"x": 0,
						"y": 0,
						"w": 229,
						"h": 221
					},
					"frame": {
						"x": 1,
						"y": 1,
						"w": 229,
						"h": 221
					}
				},
				{
					"filename": "Bubble7-20005.png",
					"rotated": false,
					"trimmed": true,
					"sourceSize": {
						"w": 229,
						"h": 225
					},
					"spriteSourceSize": {
						"x": 0,
						"y": 0,
						"w": 229,
						"h": 214
					},
					"frame": {
						"x": 232,
						"y": 1,
						"w": 229,
						"h": 214
					}
				},
				{
					"filename": "Bubble7-20002.png",
					"rotated": false,
					"trimmed": true,
					"sourceSize": {
						"w": 229,
						"h": 225
					},
					"spriteSourceSize": {
						"x": 6,
						"y": 15,
						"w": 211,
						"h": 210
					},
					"frame": {
						"x": 463,
						"y": 1,
						"w": 211,
						"h": 210
					}
				},
				{
					"filename": "Bubble7-20001.png",
					"rotated": false,
					"trimmed": true,
					"sourceSize": {
						"w": 229,
						"h": 225
					},
					"spriteSourceSize": {
						"x": 11,
						"y": 20,
						"w": 201,
						"h": 201
					},
					"frame": {
						"x": 676,
						"y": 1,
						"w": 201,
						"h": 201
					}
				},
				{
					"filename": "Bubble7-20003.png",
					"rotated": false,
					"trimmed": true,
					"sourceSize": {
						"w": 229,
						"h": 225
					},
					"spriteSourceSize": {
						"x": 10,
						"y": 20,
						"w": 201,
						"h": 201
					},
					"frame": {
						"x": 879,
						"y": 1,
						"w": 201,
						"h": 201
					}
				}
			]
		}
	],
	"meta": {
		"app": "https://www.codeandweb.com/texturepacker",
		"version": "3.0",
		"smartupdate": "$TexturePacker:SmartUpdate:10fa2e5ecf9243469ab47d2752949568:12a4783d282b7853dd636563733f553e:9df5505f245dd5fe289f4cf2aec20d45$"
	}
}
