<svg xmlns="http://www.w3.org/2000/svg" xmlns:xlink="http://www.w3.org/1999/xlink" width="83.263" height="85" viewBox="0 0 83.263 85">
  <defs>
    <filter id="Path_4961" x="0" y="0.77" width="83.263" height="84.23" filterUnits="userSpaceOnUse">
      <feOffset dx="5" dy="5" input="SourceAlpha"/>
      <feGaussianBlur stdDeviation="1" result="blur"/>
      <feFlood flood-opacity="0.4"/>
      <feComposite operator="in" in2="blur"/>
      <feComposite in="SourceGraphic"/>
    </filter>
  </defs>
  <g id="Keypad_Button" data-name="Keypad Button" transform="translate(-1915 -1185.393)">
    <g transform="matrix(1, 0, 0, 1, 1915, 1185.39)" filter="url(#Path_4961)">
      <path id="Path_4961-2" data-name="Path 4961" d="M16.568-6.2H57.3C64.782-6.2,75.263,6.231,75.263,14.2L74.024,53.9c0,7.974-11.418,16.127-18.9,16.127H13.554C6.068,70.03,0,63.566,0,55.592V14.2C0,6.231,9.083-6.2,16.568-6.2Z" transform="translate(0 6.97)" fill="#464545"/>
    </g>
    <g id="Rectangle_7" data-name="Rectangle 7" transform="translate(1921.325 1185.393)" fill="#707070" stroke="#fff" stroke-width="3">
      <rect width="68.675" height="70.263" rx="15" stroke="none"/>
      <rect x="1.5" y="1.5" width="65.675" height="67.263" rx="13.5" fill="none"/>
    </g>
    <rect id="Rectangle_9" data-name="Rectangle 9" width="53.313" height="26.95" transform="translate(1928.554 1200.793)" fill="#e4e4e4"/>
    <rect id="Rectangle_10" data-name="Rectangle 10" width="5.422" height="5.775" transform="translate(1930.361 1205.606)" fill="#464545"/>
    <rect id="Rectangle_10-2" data-name="Rectangle 10" width="5.422" height="5.775" transform="translate(1936.687 1205.606)" fill="#464545"/>
    <rect id="Rectangle_10-3" data-name="Rectangle 10" width="3.614" height="5.775" transform="translate(1943.012 1205.606)" fill="#464545"/>
    <rect id="Rectangle_10-4" data-name="Rectangle 10" width="4.518" height="5.775" transform="translate(1948.434 1205.606)" fill="#464545"/>
    <rect id="Rectangle_10-5" data-name="Rectangle 10" width="4.518" height="5.775" transform="translate(1954.759 1205.606)" fill="#464545"/>
    <rect id="Rectangle_10-6" data-name="Rectangle 10" width="5.422" height="5.775" transform="translate(1960.181 1205.606)" fill="#464545"/>
    <rect id="Rectangle_10-7" data-name="Rectangle 10" width="5.422" height="5.775" transform="translate(1930.361 1212.344)" fill="#464545"/>
    <rect id="Rectangle_10-8" data-name="Rectangle 10" width="5.422" height="5.775" transform="translate(1936.687 1212.344)" fill="#464545"/>
    <rect id="Rectangle_10-9" data-name="Rectangle 10" width="3.614" height="5.775" transform="translate(1943.012 1212.344)" fill="#464545"/>
    <rect id="Rectangle_10-10" data-name="Rectangle 10" width="4.518" height="5.775" transform="translate(1948.434 1212.344)" fill="#464545"/>
    <rect id="Rectangle_10-11" data-name="Rectangle 10" width="4.518" height="5.775" transform="translate(1954.759 1212.344)" fill="#464545"/>
    <rect id="Rectangle_10-12" data-name="Rectangle 10" width="5.422" height="5.775" transform="translate(1960.181 1212.344)" fill="#464545"/>
    <rect id="Rectangle_10-13" data-name="Rectangle 10" width="5.422" height="3.85" transform="translate(1930.361 1219.081)" fill="#464545"/>
    <rect id="Rectangle_10-14" data-name="Rectangle 10" width="5.422" height="3.85" transform="translate(1936.687 1219.081)" fill="#464545"/>
    <rect id="Rectangle_10-15" data-name="Rectangle 10" width="3.614" height="3.85" transform="translate(1943.012 1219.081)" fill="#464545"/>
    <rect id="Rectangle_10-16" data-name="Rectangle 10" width="4.518" height="3.85" transform="translate(1948.434 1219.081)" fill="#464545"/>
    <rect id="Rectangle_10-17" data-name="Rectangle 10" width="4.518" height="3.85" transform="translate(1954.759 1219.081)" fill="#464545"/>
    <rect id="Rectangle_10-18" data-name="Rectangle 10" width="5.422" height="3.85" transform="translate(1960.181 1219.081)" fill="#464545"/>
    <rect id="Rectangle_11" data-name="Rectangle 11" width="4.518" height="5.775" transform="translate(1968.313 1205.606)" fill="#464545"/>
    <rect id="Rectangle_12" data-name="Rectangle 12" width="5.422" height="5.775" transform="translate(1973.735 1205.606)" fill="#464545"/>
    <rect id="Rectangle_13" data-name="Rectangle 13" width="4.518" height="5.775" transform="translate(1968.313 1212.344)" fill="#464545"/>
    <rect id="Rectangle_14" data-name="Rectangle 14" width="5.422" height="5.775" transform="translate(1973.735 1212.344)" fill="#464545"/>
    <rect id="Rectangle_15" data-name="Rectangle 15" width="4.518" height="3.85" transform="translate(1968.313 1219.081)" fill="#464545"/>
    <rect id="Rectangle_16" data-name="Rectangle 16" width="5.422" height="3.85" transform="translate(1973.735 1219.081)" fill="#464545"/>
    <g id="Group_118" data-name="Group 118" transform="matrix(0.799, -0.602, 0.602, 0.799, 1936.797, 1223.754)">
      <g id="Group_117" data-name="Group 117" transform="translate(0.032 2.601)">
        <path id="Path_1975" data-name="Path 1975" d="M6.368,1.723A6.324,6.324,0,0,1,10.22.139c2.444-.161,2.972,1.719,3.569,1.356,3.77-2.1,5.3,1.642,5.2,5.158l-.115,3.82c-.106,3.516-3.417,6.465-7.4,6.586l-4.322.132c-3.979.122-7.118-2.63-7.012-6.146l.115-3.82C.362,3.711,3.01-.158,6.368,1.723Z" transform="translate(0.155 12.528)" fill="#464545"/>
        <path id="Path_4963" data-name="Path 4963" d="M3.1.04A2.348,2.348,0,0,1,5.527,2.51L5.182,13.969A2.718,2.718,0,0,1,2.6,16.592a2.348,2.348,0,0,1-2.426-2.47L.522,2.663A2.718,2.718,0,0,1,3.1.04Z" transform="translate(12.861 0.158)" fill="#464545"/>
        <path id="Path_4964" data-name="Path 4964" d="M1.216.473,11.879.147a.868.868,0,0,1,.9.913L12.6,6.816a1,1,0,0,1-.953.969L.987,8.112A.868.868,0,0,1,.09,7.2L.263,1.442A1,1,0,0,1,1.216.473Z" transform="translate(3.605 26.779)" fill="#464545"/>
      </g>
      <g id="Group_116" data-name="Group 116" transform="translate(1.36 0.017)">
        <path id="Path_1975-2" data-name="Path 1975" d="M6.368,1.723A6.324,6.324,0,0,1,10.22.139c2.444-.161,2.972,1.719,3.569,1.356,3.77-2.1,5.3,1.642,5.2,5.158l-.115,3.82c-.106,3.516-3.417,6.465-7.4,6.586l-4.322.132c-3.979.122-7.118-2.63-7.012-6.146l.115-3.82C.362,3.711,3.01-.158,6.368,1.723Z" transform="translate(0.155 12.528)" fill="#efd6cc"/>
        <path id="Path_4965" data-name="Path 4965" d="M3.1.04A2.348,2.348,0,0,1,5.527,2.51L5.182,13.969A2.718,2.718,0,0,1,2.6,16.592a2.348,2.348,0,0,1-2.426-2.47L.522,2.663A2.718,2.718,0,0,1,3.1.04Z" transform="translate(12.861 0.158)" fill="#efd6cc"/>
        <path id="Path_4966" data-name="Path 4966" d="M1.216.473,11.879.147a.868.868,0,0,1,.9.913L12.6,6.816a1,1,0,0,1-.953.969L.987,8.112A.868.868,0,0,1,.09,7.2L.263,1.442A1,1,0,0,1,1.216.473Z" transform="translate(3.605 26.779)" fill="#efd6cc"/>
      </g>
    </g>
  </g>
</svg>
