{
	"textures": [
		{
			"image": "veggies.png",
			"format": "RGBA8888",
			"size": {
				"w": 245,
				"h": 477
			},
			"scale": 0.5,
			"frames": [
				{
					"filename": "herbs@2x.png",
					"rotated": false,
					"trimmed": false,
					"sourceSize": {
						"w": 129,
						"h": 107
					},
					"spriteSourceSize": {
						"x": 0,
						"y": 0,
						"w": 129,
						"h": 107
					},
					"frame": {
						"x": 1,
						"y": 1,
						"w": 129,
						"h": 107
					}
				},
				{
					"filename": "pineapple_rings@2x.png",
					"rotated": false,
					"trimmed": false,
					"sourceSize": {
						"w": 112,
						"h": 118
					},
					"spriteSourceSize": {
						"x": 0,
						"y": 0,
						"w": 112,
						"h": 118
					},
					"frame": {
						"x": 132,
						"y": 1,
						"w": 112,
						"h": 118
					}
				},
				{
					"filename": "onion@2x.png",
					"rotated": false,
					"trimmed": false,
					"sourceSize": {
						"w": 122,
						"h": 125
					},
					"spriteSourceSize": {
						"x": 0,
						"y": 0,
						"w": 122,
						"h": 125
					},
					"frame": {
						"x": 1,
						"y": 110,
						"w": 122,
						"h": 125
					}
				},
				{
					"filename": "tomatos@2x.png",
					"rotated": false,
					"trimmed": false,
					"sourceSize": {
						"w": 118,
						"h": 119
					},
					"spriteSourceSize": {
						"x": 0,
						"y": 0,
						"w": 118,
						"h": 119
					},
					"frame": {
						"x": 125,
						"y": 121,
						"w": 118,
						"h": 119
					}
				},
				{
					"filename": "peppers@2x.png",
					"rotated": false,
					"trimmed": false,
					"sourceSize": {
						"w": 121,
						"h": 123
					},
					"spriteSourceSize": {
						"x": 0,
						"y": 0,
						"w": 121,
						"h": 123
					},
					"frame": {
						"x": 1,
						"y": 237,
						"w": 121,
						"h": 123
					}
				},
				{
					"filename": "olives@2x.png",
					"rotated": false,
					"trimmed": false,
					"sourceSize": {
						"w": 105,
						"h": 114
					},
					"spriteSourceSize": {
						"x": 0,
						"y": 0,
						"w": 105,
						"h": 114
					},
					"frame": {
						"x": 1,
						"y": 362,
						"w": 105,
						"h": 114
					}
				},
				{
					"filename": "mushrooms@2x.png",
					"rotated": false,
					"trimmed": false,
					"sourceSize": {
						"w": 117,
						"h": 124
					},
					"spriteSourceSize": {
						"x": 0,
						"y": 0,
						"w": 117,
						"h": 124
					},
					"frame": {
						"x": 124,
						"y": 242,
						"w": 117,
						"h": 124
					}
				},
				{
					"filename": "pineapple_wedges@2x.png",
					"rotated": false,
					"trimmed": false,
					"sourceSize": {
						"w": 113,
						"h": 102
					},
					"spriteSourceSize": {
						"x": 0,
						"y": 0,
						"w": 113,
						"h": 102
					},
					"frame": {
						"x": 108,
						"y": 368,
						"w": 113,
						"h": 102
					}
				}
			]
		}
	],
	"meta": {
		"app": "https://www.codeandweb.com/texturepacker",
		"version": "3.0",
		"smartupdate": "$TexturePacker:SmartUpdate:2fa83dc4ba7c75ec19d7a4593717486d:0c02f59468433b0272ea1ea8afd8c31d:1d8850353386b267aa2e4dbd389eb540$"
	}
}
