{
	"textures": [
		{
			"image": "icons.png",
			"format": "RGBA8888",
			"size": {
				"w": 2018,
				"h": 404
			},
			"scale": 1,
			"frames": [
				{
					"filename": "cheese.png",
					"rotated": false,
					"trimmed": false,
					"sourceSize": {
						"w": 200,
						"h": 200
					},
					"spriteSourceSize": {
						"x": 0,
						"y": 0,
						"w": 200,
						"h": 200
					},
					"frame": {
						"x": 1,
						"y": 1,
						"w": 200,
						"h": 200
					}
				},
				{
					"filename": "chicken.png",
					"rotated": false,
					"trimmed": false,
					"sourceSize": {
						"w": 200,
						"h": 200
					},
					"spriteSourceSize": {
						"x": 0,
						"y": 0,
						"w": 200,
						"h": 200
					},
					"frame": {
						"x": 1,
						"y": 203,
						"w": 200,
						"h": 200
					}
				},
				{
					"filename": "extra_cheese.png",
					"rotated": false,
					"trimmed": false,
					"sourceSize": {
						"w": 200,
						"h": 200
					},
					"spriteSourceSize": {
						"x": 0,
						"y": 0,
						"w": 200,
						"h": 200
					},
					"frame": {
						"x": 203,
						"y": 1,
						"w": 200,
						"h": 200
					}
				},
				{
					"filename": "ham.png",
					"rotated": false,
					"trimmed": false,
					"sourceSize": {
						"w": 200,
						"h": 200
					},
					"spriteSourceSize": {
						"x": 0,
						"y": 0,
						"w": 200,
						"h": 200
					},
					"frame": {
						"x": 203,
						"y": 203,
						"w": 200,
						"h": 200
					}
				},
				{
					"filename": "herbs.png",
					"rotated": false,
					"trimmed": false,
					"sourceSize": {
						"w": 200,
						"h": 200
					},
					"spriteSourceSize": {
						"x": 0,
						"y": 0,
						"w": 200,
						"h": 200
					},
					"frame": {
						"x": 405,
						"y": 1,
						"w": 200,
						"h": 200
					}
				},
				{
					"filename": "meat.png",
					"rotated": false,
					"trimmed": false,
					"sourceSize": {
						"w": 200,
						"h": 200
					},
					"spriteSourceSize": {
						"x": 0,
						"y": 0,
						"w": 200,
						"h": 200
					},
					"frame": {
						"x": 405,
						"y": 203,
						"w": 200,
						"h": 200
					}
				},
				{
					"filename": "mushrooms.png",
					"rotated": false,
					"trimmed": false,
					"sourceSize": {
						"w": 200,
						"h": 200
					},
					"spriteSourceSize": {
						"x": 0,
						"y": 0,
						"w": 200,
						"h": 200
					},
					"frame": {
						"x": 607,
						"y": 1,
						"w": 200,
						"h": 200
					}
				},
				{
					"filename": "olives.png",
					"rotated": false,
					"trimmed": false,
					"sourceSize": {
						"w": 200,
						"h": 200
					},
					"spriteSourceSize": {
						"x": 0,
						"y": 0,
						"w": 200,
						"h": 200
					},
					"frame": {
						"x": 607,
						"y": 203,
						"w": 200,
						"h": 200
					}
				},
				{
					"filename": "onions.png",
					"rotated": false,
					"trimmed": false,
					"sourceSize": {
						"w": 200,
						"h": 200
					},
					"spriteSourceSize": {
						"x": 0,
						"y": 0,
						"w": 200,
						"h": 200
					},
					"frame": {
						"x": 809,
						"y": 1,
						"w": 200,
						"h": 200
					}
				},
				{
					"filename": "pepperoni.png",
					"rotated": false,
					"trimmed": false,
					"sourceSize": {
						"w": 200,
						"h": 200
					},
					"spriteSourceSize": {
						"x": 0,
						"y": 0,
						"w": 200,
						"h": 200
					},
					"frame": {
						"x": 809,
						"y": 203,
						"w": 200,
						"h": 200
					}
				},
				{
					"filename": "peppers.png",
					"rotated": false,
					"trimmed": false,
					"sourceSize": {
						"w": 200,
						"h": 200
					},
					"spriteSourceSize": {
						"x": 0,
						"y": 0,
						"w": 200,
						"h": 200
					},
					"frame": {
						"x": 1011,
						"y": 1,
						"w": 200,
						"h": 200
					}
				},
				{
					"filename": "pineapple_chunks.png",
					"rotated": false,
					"trimmed": false,
					"sourceSize": {
						"w": 200,
						"h": 200
					},
					"spriteSourceSize": {
						"x": 0,
						"y": 0,
						"w": 200,
						"h": 200
					},
					"frame": {
						"x": 1011,
						"y": 203,
						"w": 200,
						"h": 200
					}
				},
				{
					"filename": "pineapple_wedge.png",
					"rotated": false,
					"trimmed": false,
					"sourceSize": {
						"w": 200,
						"h": 200
					},
					"spriteSourceSize": {
						"x": 0,
						"y": 0,
						"w": 200,
						"h": 200
					},
					"frame": {
						"x": 1213,
						"y": 1,
						"w": 200,
						"h": 200
					}
				},
				{
					"filename": "sauce.png",
					"rotated": false,
					"trimmed": false,
					"sourceSize": {
						"w": 200,
						"h": 200
					},
					"spriteSourceSize": {
						"x": 0,
						"y": 0,
						"w": 200,
						"h": 200
					},
					"frame": {
						"x": 1213,
						"y": 203,
						"w": 200,
						"h": 200
					}
				},
				{
					"filename": "shrimp.png",
					"rotated": false,
					"trimmed": false,
					"sourceSize": {
						"w": 200,
						"h": 200
					},
					"spriteSourceSize": {
						"x": 0,
						"y": 0,
						"w": 200,
						"h": 200
					},
					"frame": {
						"x": 1415,
						"y": 1,
						"w": 200,
						"h": 200
					}
				},
				{
					"filename": "tomato.png",
					"rotated": false,
					"trimmed": false,
					"sourceSize": {
						"w": 200,
						"h": 200
					},
					"spriteSourceSize": {
						"x": 0,
						"y": 0,
						"w": 200,
						"h": 200
					},
					"frame": {
						"x": 1415,
						"y": 203,
						"w": 200,
						"h": 200
					}
				},
				{
					"filename": "veggies.png",
					"rotated": false,
					"trimmed": false,
					"sourceSize": {
						"w": 200,
						"h": 200
					},
					"spriteSourceSize": {
						"x": 0,
						"y": 0,
						"w": 200,
						"h": 200
					},
					"frame": {
						"x": 1617,
						"y": 1,
						"w": 200,
						"h": 200
					}
				},
				{
					"filename": "light.png",
					"rotated": false,
					"trimmed": false,
					"sourceSize": {
						"w": 198,
						"h": 200
					},
					"spriteSourceSize": {
						"x": 0,
						"y": 0,
						"w": 198,
						"h": 200
					},
					"frame": {
						"x": 1819,
						"y": 1,
						"w": 198,
						"h": 200
					}
				},
				{
					"filename": "smoky.png",
					"rotated": false,
					"trimmed": false,
					"sourceSize": {
						"w": 198,
						"h": 200
					},
					"spriteSourceSize": {
						"x": 0,
						"y": 0,
						"w": 198,
						"h": 200
					},
					"frame": {
						"x": 1617,
						"y": 203,
						"w": 198,
						"h": 200
					}
				},
				{
					"filename": "spicy.png",
					"rotated": false,
					"trimmed": false,
					"sourceSize": {
						"w": 198,
						"h": 200
					},
					"spriteSourceSize": {
						"x": 0,
						"y": 0,
						"w": 198,
						"h": 200
					},
					"frame": {
						"x": 1817,
						"y": 203,
						"w": 198,
						"h": 200
					}
				}
			]
		}
	],
	"meta": {
		"app": "https://www.codeandweb.com/texturepacker",
		"version": "3.0",
		"smartupdate": "$TexturePacker:SmartUpdate:cd4d69bcfbd2946cacf23a28987d2417:bdb493b07913b9e9b2568fa9e17dd313:b5c5bd7252d2048fecbb1bda1760f9ef$"
	}
}
