{"page": {
  "title": "Page 1",
  "backgroundImage": "",
  "backgroundMusic": "rag",
  "statics":[{
      "x": 28,
      "y": -1,
      "textKey": "holder",
      "angle": 90,
      "scale": 1,
      "type": "s",
      "alpha": 1,
      "color": 16777215,
      "col": -1,
      "loadEffect": 0,
      "tint": 998239,
      "origin":0
    },{
      "x": 26,
      "y": 0.5,
      "textKey": "rect",
      "angle": 90,
      "scale":-1,
      "w":20,
      "h":12,
      "type": "s",
      "alpha": 1,
      "color": 16777215,
      "col": -1,
      "loadEffect": 0,
      "tint": 13408082,
      "origin":0
    }],
  "keyframes": [
    {
      "itemName": "paudio4",
      "start": -1,
      "cssClass": "",
      "highlights": [],
      "active": true,
      "eventType": "playAudio",
      "useTween": false
    },
          {
      "itemName": "title1",
      "start": 1000,
      "atts": {
        "x": 29,
        "y": 3,
        "textKey": "Little House On the Prairie",
        "angle": 90,
        "scale": 1,
        "type": "h",
        "alpha": 1,
        "color": 16777215,
        "col": -1,
        "loadEffect": 0,
        "tint": -1,
        "background":""
      },
      "cssClass": "title1",
      "cssSize":"fs1",
      "highlights": [
        {
          "cssClass": "green",
          "effectName": "noEffect",
          "duration": 1000,
          "scanned": ""
        }
      ],
      "active": true,
      "eventType": "update",
      "useTween": false
    },
    {
      "itemName": "text1",
      "start": 4000,
      "atts": {
        "x": 30,
        "y": 20,
        "textKey": "If you were a fan of the 1970s TV show, you might only think of [Laura and Almonzo] as riding in wagon or going to the mercantile. However, they both lived long enough to see WW2, radio and television",
        "angle": 90,
        "scale": 1,
        "type": "h",
        "alpha": 1,
        "color": 16777215,
        "col": -1,
        "loadEffect": 0,
        "tint": 998239,
        "background":""
      },
      "cssClass": "bookText",
      "cssSize":"fs2",
      "highlights": [
        {
          "cssClass": "blue",
          "effectName": "revealRight",
          "duration": 3000,
          "scanned": ""
        }
      ],
      "active": true,
      "eventType": "update",
      "useTween": false
    }, {
      "itemName": "odd4",
      "start": 2000,
      "atts": {
        "x": 14,
        "y": 10,
        "textKey": "pimage4",
        "angle": 90,
        "scale": 0.5,
        "type": "im",
        "alpha": 1,
        "color": 16777215,
        "col": -1,
        "loadEffect": 2,
        "tint": -1,
        "maskKey":"holder",
        "effectParams": {
          "duration": 6000,
          "startY": 50,
          "endY": 50,
          "startX": 30,
          "zoomStart": 1,
          "endX": 40,
          "zoomEnd": 0.5
        }
      },
      "cssClass": "",
      "highlights": [],
      "active": true,
      "eventType": "update",
      "useTween": false
    },
    {
      "itemName": "page5",
      "eventType": "page",
      "start": 20000
    }
  ]
}
}
