{
    "matches": [
        {
            "m1": 20,
            "m2": 34
        },
        {
            "m1": 40,
            "m2": 17
        }
        ,
        {
            "m1": 44,
            "m2": 26
        },
        {
            "m1": 33,
            "m2": 24
        }
        ,
        {
            "m1": 25,
            "m2": 29
        }
        ,
        {
            "m1": 27,
            "m2": 47
        }
        ,
        {
            "m1": 43,
            "m2": 36
        }
    ]
}