{
    "preload": [
      {
        "key": "horse",
        "path": "./assets/horse.jpg"
      }
    ],
    "steps": [
      {
        "zoom": { "x": 0.12, "y": 0, "z": 1.15 },
        "thumb":"1.jpg",
        "audio":"0.mp3",
        "secs":2,
        "cards": [{
          "type": "text",
          "x": 60,
          "y": 18,
          "highlight": -1,
          "heading": "",
          "content": [
            "By Amy Tao"
          ],
          "background":"none",
          "relativetoimage": true
        }],
        "lines": [],
        "images": [
          {
            "x": 77,
            "y": 0,
            "border": 0,
            "scale": 0.02,
            "src": "./assets/elements/thingreenbar.svg"
          },
          {
            "x": 80,
            "y": 0,
            "border": 0,
            "scale": 0.06,
            "src": "./assets/elements/thingreenbar.svg"
          },
          {
            "x": 65,
            "y": 5,
            "border": 0,
            "scale": 0.25,
            "src": "./assets/elements/born.svg"
          }
        ]
      },
      
      {
        "zoom": { "x": 0, "y": 0, "z": 1.02 },
        "thumb":"2.jpg",
        "audio":"1.mp3",
        "secs":5,     
        "cards": [
          {
            "type": "text",
            "x": 10,
            "y": 5,
            "highlight": 0,
            "heading": "",
            "content": [
              "If a cheetah and a horse ran a 100-meter dash, who would win?",
              "Probably the cheetah—as the fastest land animal, it can run 70 miles (112 km) an hour.",
              "Even the fastest racehorses reach speeds of only about 45 mph."
            ],
            "relativetoimage": true
          },
          {
            "type": "text",
            "x": 10,
            "y": 30,
            "highlight": -1,
            "heading": "",
            "content": [
              "But what if they raced a mile? That would be a different story.",
              "The cheetah would get tired and quit half way. But a horse could keep running for miles without tiring.",
              "It’s built for both speed and endurance."
            ],
            "relativetoimage": true
          }
        ],
        "lines": [],
        "images": [
          { "x": 60, "y": 30, "scale": 0.25, "src": "./assets/cheeta.webp" }
        ]
      },
      {
        "zoom": { "x": 0, "y": 0, "z": 1.02 },
        "audio":"2.mp3",
        "thumb":"3.jpg",
         "secs":10,
        "cards": [
          {
            "type": "text",
            "x": 10,
            "y": 5,
            "highlight": 1,
            "heading": "",
            "content": [
              "If a cheetah and a horse ran a 100-meter dash, who would win?",
              "Probably the cheetah—as the fastest land animal, it can run 70 miles (112 km) an hour.",
              "Even the fastest racehorses reach speeds of only about 45 mph."
            ],
            "relativetoimage": true
          },
          {
            "type": "text",
            "x": 10,
            "y": 30,
            "highlight": -1,
            "heading": "",
            "content": [
              "But what if they raced a mile? That would be a different story.",
              "The cheetah would get tired and quit half way. But a horse could keep running for miles without tiring.",
              "It’s built for both speed and endurance."
            ],
            "relativetoimage": true
          }
        ],
        "lines": [],
        "images": [
          { "x": 60, "y": 30, "scale": 0.25, "src": "./assets/cheeta.webp" }
        ]
      },
      {
        "zoom": { "x": 0, "y": 0, "z": 1.02 },
        "audio":"3.mp3",
        "thumb":"4.jpg",
         "secs":9,
        "cards": [
          {
            "type": "text",
            "x": 10,
            "y": 5,
            "highlight": 2,
            "heading": "",
            "content": [
              "If a cheetah and a horse ran a 100-meter dash, who would win?",
              "Probably the cheetah—as the fastest land animal, it can run 70 miles (112 km) an hour.",
              "Even the fastest racehorses reach speeds of only about 45 mph."
            ],
            "relativetoimage": true
          },
          {
            "type": "text",
            "x": 10,
            "y": 30,
            "highlight": -1,
            "heading": "",
            "content": [
              "But what if they raced a mile? That would be a different story.",
              "The cheetah would get tired and quit half way. But a horse could keep running for miles without tiring.",
              "It’s built for both speed and endurance."
            ],
            "relativetoimage": true
          }
        ],
        "lines": [],
        "images": [
          { "x": 60, "y": 30, "scale": 0.25, "src": "./assets/cheeta.webp" }
        ]
      },
      {
        "zoom": { "x": 0, "y": 0, "z": 1.02 },
        "audio":"4.mp3",
        "thumb":"5.jpg",
         "secs":5,
        "cards": [
          {
            "type": "text",
            "x": 10,
            "y": 5,
            "highlight": -1,
            "heading": "",
            "content": [
              "If a cheetah and a horse ran a 100-meter dash, who would win?",
              "Probably the cheetah—as the fastest land animal, it can run 70 miles (112 km) an hour.",
              "Even the fastest racehorses reach speeds of only about 45 mph."
            ],
            "relativetoimage": true
          },
          {
            "type": "text",
            "x": 10,
            "y": 30,
            "highlight": 0,
            "heading": "",
            "content": [
              "But what if they raced a mile? That would be a different story.",
              "The cheetah would get tired and quit half way. But a horse could keep running for miles without tiring.",
              "It’s built for both speed and endurance."
            ],
            "relativetoimage": true
          }
        ],
        "lines": [],
        "images": [
          { "x": 60, "y": 30, "scale": 0.25, "src": "./assets/cheeta.webp" }
        ],
        "relativetoimage": true
      },
      {
        "zoom": { "x": 0, "y": 0, "z": 1.02 },
        "audio":"5.mp3",
         "secs":7,
         "thumb":"5.jpg",
        "cards": [
          {
            "type": "text",
            "x": 10,
            "y": 5,
            "highlight": -1,
            "heading": "",
            "content": [
              "If a cheetah and a horse ran a 100-meter dash, who would win?",
              "Probably the cheetah—as the fastest land animal, it can run 70 miles (112 km) an hour.",
              "Even the fastest racehorses reach speeds of only about 45 mph."
            ],
            "relativetoimage": true
          },
          {
            "type": "text",
            "x": 10,
            "y": 30,
            "highlight": 1,
            "heading": "",
            "content": [
              "But what if they raced a mile? That would be a different story.",
              "The cheetah would get tired and quit half way. But a horse could keep running for miles without tiring.",
              "It’s built for both speed and endurance."
            ],
            "relativetoimage": true
          }
        ],
        "lines": [],
        "images": [
          { "x": 60, "y": 30, "scale": 0.25, "src": "./assets/cheeta.webp" }
        ]
      },
      {
        "zoom": { "x": 0, "y": 0, "z": 1.02 },
        "audio":"6.mp3",
         "secs":4,
         "thumb":"7.jpg",
        "cards": [
          {
            "type": "text",
            "x": 10,
            "y": 5,
            "highlight": -1,
            "heading": "",
            "content": [
              "If a cheetah and a horse ran a 100-meter dash, who would win?",
              "Probably the cheetah—as the fastest land animal, it can run 70 miles (112 km) an hour.",
              "Even the fastest racehorses reach speeds of only about 45 mph."
            ],
            "relativetoimage": true
          },
          {
            "type": "text",
            "x": 10,
            "y": 30,
            "highlight": 2,
            "heading": "",
            "content": [
              "But what if they raced a mile? That would be a different story.",
              "The cheetah would get tired and quit half way. But a horse could keep running for miles without tiring.",
              "It’s built for both speed and endurance."
            ],
            "relativetoimage": true
          }
        ],
        "lines": [],
        "images": [
          { "x": 60, "y": 30, "scale": 0.25, "src": "./assets/cheeta.webp" }
        ]
      },
  
      {
        "zoom": { "x": 0, "y": 0, "z": 1.07 },
         "secs":5,
         "thumb":"7.jpg",
        "cards": [
          {
            "type": "info",
            "x": 10,
            "y": 10,
            "highlight": -1,
            "heading": "Breathe Deep",
            "content": [
              "A horse's large lungs and heart pump oxygen-rich blood around its body.",
              "The oxygen provides energy for running fast over long distances."
            ],
            "relativetoimage": true
          }
        ],
        "lines": [
          {
            "x1": 35,
            "y1": 35,
            "x2": 60,
            "y2": 45,
            "thick": 4,
            "color": "yellow"
          }
        ]
      },
      {
        "zoom": { "x": 0.1, "y": 0.41, "z": 2 },
         "secs":5,
         "thumb":"8.jpg",
        "cards": [
          {
            "type": "info",
            "x": 5,
            "y": 5,
            "highlight": -1,
            "heading": "Standing Naps",
            "content": [
              "Can you sleep standing up? A horse can! Its legs can lock into a standing position when it naps. That way, it's always ready to run."
            ],
            "relativetoimage": true
          }
        ],
        "lines": [
          {
            "x1": 30,
            "y1": 65,
            "x2": 40,
            "y2": 75,
            "thick": 4,
            "color": "yellow"
          }
        ],
        "images": {
          "x": -60,
          "y": 30,
          "scale": 0.25,
          "src": "./assets/cheeta.webp"
        }
      },
      {
        "zoom": { "x": 0.23, "y": 0.36, "z": 1.629 },
         "secs":5,
         "thumb":"9.jpg",
        "cards": [
          {
            "type": "info",
            "x": 20,
            "y": 10,
            "highlight": -1,
            "heading": "Long-Distance Legs",
            "content": [
              "The horse's long legs let it cover lots of ground with each step."
            ],
            "relativetoimage": true
          }
        ],
        "lines": [
          {
            "x1": 35,
            "y1": 55,
            "x2": 55,
            "y2": 57,
            "thick": 4,
            "color": "yellow"
          }
        ]
      },
      {
        "zoom": { "x": 0, "y": 0, "z": 1 },
         "secs":5,
         "thumb":"10.jpg",
        "cards": [
          {
            "type": "text",
            "x": 15,
            "y": 15,
            "highlight": -1,
            "heading": "",
            "content": [
              "The leg bones are the same as in a human leg, but stretched out. The lower leg is strong but light-weight, so it can swing back and forth quickly. The horse's massive thigh and hip muscles provide power."
            ],
            "relativetoimage": true
          }
        ],
        "lines": [],
        "images": [
          { "x": 20, "y": 50, "scale": 0.12, "src": "./assets/bones.webp" }
        ]
      },
      {
        "zoom": { "x": 0.18, "y": 0.07, "z": 1.229 },
         "secs":5,
        "cards": [
          {
            "type": "info",
            "x": 35,
            "y": 18,
            "highlight": -1,
            "heading": "Look Around",
            "content": [
              "A horse's eyes face sideways, so it can see all around. Its eyes are very sensitive to movement. This helps the horse react quickly to anything that might be a predator -even if it turns out to be just a shadow."
            ],
            "relativetoimage": true
          }
        ],
        "lines": [
          {
            "x1": 70,
            "y1": 18,
            "x2": 80,
            "y2": 35,
            "thick": 8,
            "color": "yellow"
          }
        ]
      },
      {
        "zoom": { "x": 0.09, "y": 0.06, "z": 1.109 },
        "thumb":"11.jpg",
         "secs":5,
        "cards": [
          {
            "type": "info",
            "x": 55,
            "y": 30,
            "highlight": -1,
            "heading": "A Proud Neck",
            "content": [
              "A horse's long neck is not just beautiful. It helps the horse balance while it's running."
            ],
            "relativetoimage": true
          }
        ],
        "lines": [
          {
            "x1": 60,
            "y1": 30,
            "x2": 70,
            "y2": 47,
            "thick": 10,
            "color": "yellow"
          }
        ]
      },
      {
        "zoom": { "x": 0.36, "y": 0.45, "z": 2.1 },
         "secs":5,
         "thumb":"toes.jpg",
        "cards": [
          {
            "type": "info",
            "x": 10,
            "y": 1,
            "highlight": -1,
            "heading": "Tough Toes",
            "content": [
              "A horse runs on tiptoes. Each leg ends in one long, strong toe coverted with a hard hoof. The hoof is like a human toenail, but very thick."
            ],
            "relativetoimage": true
          }
        ],
        "lines": [
          {
            "x1": 70,
            "y1": 60,
            "x2": 61,
            "y2": 77,
            "thick": 4,
            "color": "yellow"
          }
        ]
      },
      {
        "zoom": { "x": 0.16, "y": 0, "z": 1.19 },
         "secs":5,
         "thumb":"hoof.jpg",
        "cards": [
          {
            "type": "text",
            "x": 10,
            "y": 1,
            "highlight": -1,
            "heading": "",
            "content": [
              "Nailing a metal shoe into the hoof doesn't hurt at all. The shoe protects the hoof from hard roads. The shoe is open so it doesn't block a springy part of the foot called the frog. This acts like a shock absorber when the hoof touches the ground."
            ],
            "relativetoimage": true
          }
        ],
        "lines": [],
        "images": [
          { "x": 15, "y": 40, "scale": 0.1, "src": "./assets/hoof.webp" }
        ]
      },
      {
        "zoom": { "x": 0.36, "y": 0.55, "z": 2.1 },
        "thumb":"power_foot.jpg",
         "secs":5,
        "cards": [
          {
            "type": "info",
            "x": 10,
            "y": 6,
            "highlight": -1,
            "heading": "Power Foot",
            "content": [
              "A horse's foot is very flexible. It flattens and stretches like a spring to propel the horse forward."
            ],
            "relativetoimage": true
          }
        ],
        "lines": [
          {
            "x1": 65,
            "y1": 82,
            "x2": 75,
            "y2": 90,
            "thick": 10,
            "color": "yellow"
          }
        ]
      },
      {
        "zoom": { "x": 0, "y": 0, "z": 1.09 },
         "secs":5,
         "thumb":"keeping_cool.jpg",
        "cards": [
          {
            "type": "info",
            "x": 5,
            "y": 5,
            "highlight": -1,
            "heading": "Keeping Cool",
            "content": [
              "Like a person, a horse sweats to cool down. Dogs, cats and other animals with fur cool themselves by panting. But if a big horse could only cool down that way, it would quickly overheat when running."
            ],
            "relativetoimage": true
          }
        ],
        "lines": []
      },
      {
        "zoom": { "x": 0.17, "y": 0, "z": 1.2 },
         "secs":5,
         "thumb":"14.jpg",
        "cards": [],
        "lines": [],
        "quiz": [
          {
            "q": "The belly of a horse is called a",
            "a": ["barrel", "apex", "bucket", "phalanges"],
            "correct": 0
          },
          {
            "q": "The bump on a horse's leg is called a",
            "a": ["walnut", "chestnut", "dirt", "nobody knows"],
            "correct": 1
          },
          {
            "q": "What is the soft part of a horse's hoof called",
            "a": ["arch", "palm", "frog", "hoof plate"],
            "correct": 2
          },
          {
            "q": "How tall does a horse have to be, to not be considered a pony?",
            "a": ["3ft 5 inches", "4ft 10 inches", "12 feet"],
            "correct": 1
          },
          {
            "q": "If a horse and a cheetah ran a marathon, the horse would win.",
            "a": ["true", "false"],
            "correct": 0
          }
        ]
      },
      {
        "zoom": { "x": 0, "y": 0, "z": 1.2 },
         "secs":5,
        "cards": [],
        "lines": [],
        "quiz": []
      }
    ]
  }
  