{"page":{"id":0},"elements":[
    {
      "type": "BACK_IMAGE",
      "subtype": "none",
      "classes": ["fullHeight"],
      "content": ["brushes.png"],
      "x": 0,
      "y": 0,
      "w": 25,
      "h": 0,
      "linkID": "",
      "extras": {
        "alpha": 100,
        "rotation": 0,
        "flipH": false,
        "flipV": false,
        "orientation": 0,
        "skewX": 0,
        "skewY": 0,
        "borderColor": "#000000",
        "borderThick": 0,
        "fontSize": 16,
        "fontColor": "#000000",
        "fontName": "Arial",
        "backgroundPosX": 0,
        "backgroundPosY": 0,
        "backgroundSizeW": 100,
        "backgroundSizeH": 100,
        "popupID": -1
      }
    },
    {
      "type": "TEXT",
      "subtype": "none",
      "classes": [],
      "content": [
        "Lorem ipsum dolor sit amet, consectetur adipiscing elit. Praesent ut iaculis eros. Morbi accumsan metus quis turpis mattis, nec bibendum tortor vestibulum. Lorem ipsum dolor sit amet, consectetur adipiscing elit."
      ],
      "x": 50,
      "y": 20,
      "w": 80,
      "h": 0,
      "linkID": "",
      "extras": {
        "alpha": 100,
        "rotation": 0,
        "flipH": false,
        "flipV": false,
        "orientation": 4,
        "skewX": 0,
        "skewY": 0,
        "borderColor": "#000000",
        "borderThick": 0,
        "fontSize": 16,
        "fontColor": "#000000",
        "fontName": "Arial",
        "backgroundPosX": 0,
        "backgroundPosY": 0,
        "backgroundSizeW": 100,
        "backgroundSizeH": 100,
        "popupID": -1
      }
    }
  ]}