<svg xmlns="http://www.w3.org/2000/svg" xmlns:xlink="http://www.w3.org/1999/xlink" width="88" height="88" viewBox="0 0 88 88">
  <defs>
    <radialGradient id="radial-gradient" cx="0.5" cy="0.5" r="0.5" gradientUnits="objectBoundingBox">
      <stop offset="0" stop-color="#5c90ce"/>
      <stop offset="1" stop-color="#375982"/>
    </radialGradient>
    <filter id="Ellipse_1" x="0" y="0" width="88" height="88" filterUnits="userSpaceOnUse">
      <feOffset dx="5" dy="5" input="SourceAlpha"/>
      <feGaussianBlur stdDeviation="3" result="blur"/>
      <feFlood flood-opacity="0.4"/>
      <feComposite operator="in" in2="blur"/>
      <feComposite in="SourceGraphic"/>
    </filter>
  </defs>
  <g id="Autoplay_button" data-name="Autoplay button" transform="translate(-1431 -237)">
    <g transform="matrix(1, 0, 0, 1, 1431, 237)" filter="url(#Ellipse_1)">
      <g id="Ellipse_1-2" data-name="Ellipse 1" transform="translate(4 4)" stroke="#fff" stroke-width="5" fill="url(#radial-gradient)">
        <circle cx="35" cy="35" r="35" stroke="none"/>
        <circle cx="35" cy="35" r="32.5" fill="none"/>
      </g>
    </g>
    <path id="Polygon_2" data-name="Polygon 2" d="M16.665,1.267a1,1,0,0,1,1.67,0L33.978,25a1,1,0,0,1-.835,1.55H1.857A1,1,0,0,1,1.022,25Z" transform="translate(1477.553 259) rotate(90)" fill="#fff" stroke="#fff" stroke-width="3"/>
    <path id="Polygon_3" data-name="Polygon 3" d="M16.679,1.179a1,1,0,0,1,1.642,0L33.906,23.573a1,1,0,0,1-.821,1.571H1.914a1,1,0,0,1-.821-1.571Z" transform="translate(1495.145 258.5) rotate(90)" fill="#fff" stroke="#fff" stroke-width="3"/>
  </g>
</svg>
