{
    "p": "The United States Declaration of Independence was adopted by the Second Continental Congress on July 4, 1776.",
    "q": "What is the first sentence of the Declaration of Independence?",
    "tab": 1,
    "tag": "American History",
    "c": [
      {
        "l": "A",
        "t": "The human race, to which so many of my readers belong, has been playing at children’s games from the beginning, and will probably do it till the end, which is a nuisance for the few people who grow up."
      },
      {
        "l": "B",
        "t": "We the People of the United States, in Order to form a more perfect Union, establish Justice, insure domestic Tranquility, provide for the common defense, promote the general Welfare, and secure the Blessings of Liberty to ourselves and our Posterity, do ordain and establish this Constitution for the United States of America."
      },
      {
        "l": "C",
        "t": "Somewhere in la Mancha, in a place whose name I do not care to remember, a gentleman lived not long ago, one of those who has a lance and ancient shield on a shelf and keeps a skinny nag and a greyhound for racing."
      },
      {
        "l": "D",
        "c": 1,
        "t": "When in the Course of human events, it becomes necessary for one people to dissolve the political bands which have connected them with another, and to assume among the powers of the earth, the separate and equal station to which the Laws of Nature and of Nature’s God entitle them, a decent respect to the opinions of mankind requires that they should declare the causes which impel them to the separation."
      },
      {
        "l": "E",
        "t": "It was a dark and stormy night; the rain fell in torrents, except at occasional intervals, when it was checked by a violent gust of wind which swept up the streets (for it is in London that our scene lies), rattling along the house-tops, and fiercely agitating the scanty flame of the lamps that struggled against the darkness."
      }
    ]
  }