{
	"textures": [
		{
			"image": "rays.png",
			"format": "RGBA8888",
			"size": {
				"w": 960,
				"h": 507
			},
			"scale": 1,
			"frames": [
				{
					"filename": "Rays Full0012.png",
					"rotated": false,
					"trimmed": false,
					"sourceSize": {
						"w": 167,
						"h": 167
					},
					"spriteSourceSize": {
						"x": 0,
						"y": 0,
						"w": 167,
						"h": 167
					},
					"frame": {
						"x": 1,
						"y": 1,
						"w": 167,
						"h": 167
					}
				},
				{
					"filename": "Rays Full0013.png",
					"rotated": false,
					"trimmed": false,
					"sourceSize": {
						"w": 167,
						"h": 167
					},
					"spriteSourceSize": {
						"x": 0,
						"y": 0,
						"w": 167,
						"h": 167
					},
					"frame": {
						"x": 1,
						"y": 170,
						"w": 167,
						"h": 167
					}
				},
				{
					"filename": "Rays Full0014.png",
					"rotated": false,
					"trimmed": false,
					"sourceSize": {
						"w": 167,
						"h": 167
					},
					"spriteSourceSize": {
						"x": 0,
						"y": 0,
						"w": 167,
						"h": 167
					},
					"frame": {
						"x": 1,
						"y": 339,
						"w": 167,
						"h": 167
					}
				},
				{
					"filename": "Rays Full0015.png",
					"rotated": false,
					"trimmed": false,
					"sourceSize": {
						"w": 167,
						"h": 167
					},
					"spriteSourceSize": {
						"x": 0,
						"y": 0,
						"w": 167,
						"h": 167
					},
					"frame": {
						"x": 170,
						"y": 1,
						"w": 167,
						"h": 167
					}
				},
				{
					"filename": "Rays Full0016.png",
					"rotated": false,
					"trimmed": false,
					"sourceSize": {
						"w": 167,
						"h": 167
					},
					"spriteSourceSize": {
						"x": 0,
						"y": 0,
						"w": 167,
						"h": 167
					},
					"frame": {
						"x": 170,
						"y": 170,
						"w": 167,
						"h": 167
					}
				},
				{
					"filename": "Rays Full0017.png",
					"rotated": false,
					"trimmed": false,
					"sourceSize": {
						"w": 167,
						"h": 167
					},
					"spriteSourceSize": {
						"x": 0,
						"y": 0,
						"w": 167,
						"h": 167
					},
					"frame": {
						"x": 170,
						"y": 339,
						"w": 167,
						"h": 167
					}
				},
				{
					"filename": "Rays Full0018.png",
					"rotated": false,
					"trimmed": false,
					"sourceSize": {
						"w": 167,
						"h": 167
					},
					"spriteSourceSize": {
						"x": 0,
						"y": 0,
						"w": 167,
						"h": 167
					},
					"frame": {
						"x": 339,
						"y": 1,
						"w": 167,
						"h": 167
					}
				},
				{
					"filename": "Rays Full0019.png",
					"rotated": false,
					"trimmed": false,
					"sourceSize": {
						"w": 167,
						"h": 167
					},
					"spriteSourceSize": {
						"x": 0,
						"y": 0,
						"w": 167,
						"h": 167
					},
					"frame": {
						"x": 339,
						"y": 170,
						"w": 167,
						"h": 167
					}
				},
				{
					"filename": "Rays Full0020.png",
					"rotated": false,
					"trimmed": false,
					"sourceSize": {
						"w": 167,
						"h": 167
					},
					"spriteSourceSize": {
						"x": 0,
						"y": 0,
						"w": 167,
						"h": 167
					},
					"frame": {
						"x": 339,
						"y": 339,
						"w": 167,
						"h": 167
					}
				},
				{
					"filename": "Rays Full0021.png",
					"rotated": false,
					"trimmed": false,
					"sourceSize": {
						"w": 167,
						"h": 167
					},
					"spriteSourceSize": {
						"x": 0,
						"y": 0,
						"w": 167,
						"h": 167
					},
					"frame": {
						"x": 508,
						"y": 1,
						"w": 167,
						"h": 167
					}
				},
				{
					"filename": "Rays Full0022.png",
					"rotated": false,
					"trimmed": false,
					"sourceSize": {
						"w": 167,
						"h": 167
					},
					"spriteSourceSize": {
						"x": 0,
						"y": 0,
						"w": 167,
						"h": 167
					},
					"frame": {
						"x": 508,
						"y": 170,
						"w": 167,
						"h": 167
					}
				},
				{
					"filename": "Rays Full0023.png",
					"rotated": false,
					"trimmed": false,
					"sourceSize": {
						"w": 167,
						"h": 167
					},
					"spriteSourceSize": {
						"x": 0,
						"y": 0,
						"w": 167,
						"h": 167
					},
					"frame": {
						"x": 508,
						"y": 339,
						"w": 167,
						"h": 167
					}
				},
				{
					"filename": "Rays Full0024.png",
					"rotated": false,
					"trimmed": false,
					"sourceSize": {
						"w": 167,
						"h": 167
					},
					"spriteSourceSize": {
						"x": 0,
						"y": 0,
						"w": 167,
						"h": 167
					},
					"frame": {
						"x": 677,
						"y": 1,
						"w": 167,
						"h": 167
					}
				},
				{
					"filename": "Rays Full0011.png",
					"rotated": false,
					"trimmed": true,
					"sourceSize": {
						"w": 167,
						"h": 167
					},
					"spriteSourceSize": {
						"x": 7,
						"y": 7,
						"w": 154,
						"h": 154
					},
					"frame": {
						"x": 677,
						"y": 170,
						"w": 154,
						"h": 154
					}
				},
				{
					"filename": "Rays Full0010.png",
					"rotated": false,
					"trimmed": true,
					"sourceSize": {
						"w": 167,
						"h": 167
					},
					"spriteSourceSize": {
						"x": 14,
						"y": 14,
						"w": 140,
						"h": 140
					},
					"frame": {
						"x": 677,
						"y": 326,
						"w": 140,
						"h": 140
					}
				},
				{
					"filename": "Rays Full0008.png",
					"rotated": false,
					"trimmed": true,
					"sourceSize": {
						"w": 167,
						"h": 167
					},
					"spriteSourceSize": {
						"x": 28,
						"y": 28,
						"w": 111,
						"h": 111
					},
					"frame": {
						"x": 846,
						"y": 1,
						"w": 111,
						"h": 111
					}
				},
				{
					"filename": "Rays Full0007.png",
					"rotated": false,
					"trimmed": true,
					"sourceSize": {
						"w": 167,
						"h": 167
					},
					"spriteSourceSize": {
						"x": 35,
						"y": 35,
						"w": 97,
						"h": 97
					},
					"frame": {
						"x": 846,
						"y": 114,
						"w": 97,
						"h": 97
					}
				},
				{
					"filename": "Rays Full0009.png",
					"rotated": false,
					"trimmed": true,
					"sourceSize": {
						"w": 167,
						"h": 167
					},
					"spriteSourceSize": {
						"x": 21,
						"y": 21,
						"w": 126,
						"h": 126
					},
					"frame": {
						"x": 833,
						"y": 213,
						"w": 126,
						"h": 126
					}
				},
				{
					"filename": "Rays Full0006.png",
					"rotated": false,
					"trimmed": true,
					"sourceSize": {
						"w": 167,
						"h": 167
					},
					"spriteSourceSize": {
						"x": 42,
						"y": 42,
						"w": 83,
						"h": 83
					},
					"frame": {
						"x": 819,
						"y": 341,
						"w": 83,
						"h": 83
					}
				},
				{
					"filename": "Rays Full0005.png",
					"rotated": false,
					"trimmed": true,
					"sourceSize": {
						"w": 167,
						"h": 167
					},
					"spriteSourceSize": {
						"x": 49,
						"y": 49,
						"w": 69,
						"h": 69
					},
					"frame": {
						"x": 819,
						"y": 426,
						"w": 69,
						"h": 69
					}
				},
				{
					"filename": "Rays Full0004.png",
					"rotated": false,
					"trimmed": true,
					"sourceSize": {
						"w": 167,
						"h": 167
					},
					"spriteSourceSize": {
						"x": 57,
						"y": 57,
						"w": 54,
						"h": 54
					},
					"frame": {
						"x": 904,
						"y": 341,
						"w": 54,
						"h": 54
					}
				},
				{
					"filename": "Rays Full0003.png",
					"rotated": false,
					"trimmed": true,
					"sourceSize": {
						"w": 167,
						"h": 167
					},
					"spriteSourceSize": {
						"x": 64,
						"y": 64,
						"w": 40,
						"h": 40
					},
					"frame": {
						"x": 904,
						"y": 397,
						"w": 40,
						"h": 40
					}
				},
				{
					"filename": "Rays Full0002.png",
					"rotated": false,
					"trimmed": true,
					"sourceSize": {
						"w": 167,
						"h": 167
					},
					"spriteSourceSize": {
						"x": 71,
						"y": 71,
						"w": 26,
						"h": 26
					},
					"frame": {
						"x": 677,
						"y": 468,
						"w": 26,
						"h": 26
					}
				},
				{
					"filename": "Rays Full0001.png",
					"rotated": false,
					"trimmed": true,
					"sourceSize": {
						"w": 167,
						"h": 167
					},
					"spriteSourceSize": {
						"x": 78,
						"y": 78,
						"w": 12,
						"h": 11
					},
					"frame": {
						"x": 819,
						"y": 326,
						"w": 12,
						"h": 11
					}
				}
			]
		}
	],
	"meta": {
		"app": "https://www.codeandweb.com/texturepacker",
		"version": "3.0",
		"smartupdate": "$TexturePacker:SmartUpdate:b1825bd8c5f46a11dafe24b85bb4adda:3cf22df1a4ed99bdbe38ca905ab9d6ca:b464211c8e3ac975f2eca9f5e788e43b$"
	}
}
