<svg xmlns="http://www.w3.org/2000/svg" xmlns:xlink="http://www.w3.org/1999/xlink" width="88" height="88" viewBox="0 0 88 88">
  <defs>
    <radialGradient id="radial-gradient" cx="0.5" cy="0.5" r="0.5" gradientUnits="objectBoundingBox">
      <stop offset="0" stop-color="#5c90ce"/>
      <stop offset="1" stop-color="#375982"/>
    </radialGradient>
    <filter id="Ellipse_2" x="0" y="0" width="88" height="88" filterUnits="userSpaceOnUse">
      <feOffset dx="5" dy="5" input="SourceAlpha"/>
      <feGaussianBlur stdDeviation="3" result="blur"/>
      <feFlood flood-opacity="0.4"/>
      <feComposite operator="in" in2="blur"/>
      <feComposite in="SourceGraphic"/>
    </filter>
  </defs>
  <g id="Close" transform="translate(-1717 -6228)">
    <g transform="matrix(1, 0, 0, 1, 1717, 6228)" filter="url(#Ellipse_2)">
      <g id="Ellipse_2-2" data-name="Ellipse 2" transform="translate(4 4)" stroke="#fff" stroke-width="5" fill="url(#radial-gradient)">
        <circle cx="35" cy="35" r="35" stroke="none"/>
        <circle cx="35" cy="35" r="32.5" fill="none"/>
      </g>
    </g>
    <g id="Group_191" data-name="Group 191" transform="translate(84.5 -67.5)">
      <line id="Line_5" data-name="Line 5" x2="29" y2="29" transform="translate(1657.5 6320.5)" fill="none" stroke="#fff" stroke-linecap="round" stroke-width="5"/>
      <line id="Line_6" data-name="Line 6" x1="29" y2="29" transform="translate(1657.5 6320.5)" fill="none" stroke="#fff" stroke-linecap="round" stroke-width="5"/>
    </g>
  </g>
</svg>
