{
	"textures": [
		{
			"image": "fox.png",
			"format": "RGBA8888",
			"size": {
				"w": 1220,
				"h": 1993
			},
			"scale": 0.25,
			"frames": [
				{
					"filename": "Char_Fox_Joy_004.png",
					"rotated": false,
					"trimmed": true,
					"sourceSize": {
						"w": 285,
						"h": 315
					},
					"spriteSourceSize": {
						"x": 19,
						"y": 0,
						"w": 264,
						"h": 271
					},
					"frame": {
						"x": 1,
						"y": 1,
						"w": 264,
						"h": 271
					}
				},
				{
					"filename": "Char_Fox_Joy_003.png",
					"rotated": false,
					"trimmed": true,
					"sourceSize": {
						"w": 285,
						"h": 315
					},
					"spriteSourceSize": {
						"x": 14,
						"y": 5,
						"w": 251,
						"h": 257
					},
					"frame": {
						"x": 267,
						"y": 1,
						"w": 251,
						"h": 257
					}
				},
				{
					"filename": "Char_Fox_Joy_006.png",
					"rotated": false,
					"trimmed": true,
					"sourceSize": {
						"w": 285,
						"h": 315
					},
					"spriteSourceSize": {
						"x": 10,
						"y": 5,
						"w": 255,
						"h": 248
					},
					"frame": {
						"x": 520,
						"y": 1,
						"w": 255,
						"h": 248
					}
				},
				{
					"filename": "Char_Fox_Joy_005.png",
					"rotated": false,
					"trimmed": true,
					"sourceSize": {
						"w": 285,
						"h": 315
					},
					"spriteSourceSize": {
						"x": 5,
						"y": 5,
						"w": 265,
						"h": 238
					},
					"frame": {
						"x": 777,
						"y": 1,
						"w": 265,
						"h": 238
					}
				},
				{
					"filename": "Char_Fox_Flyght_001.png",
					"rotated": false,
					"trimmed": true,
					"sourceSize": {
						"w": 254,
						"h": 317
					},
					"spriteSourceSize": {
						"x": 26,
						"y": 1,
						"w": 164,
						"h": 278
					},
					"frame": {
						"x": 1044,
						"y": 1,
						"w": 164,
						"h": 278
					}
				},
				{
					"filename": "Char_Fox_Jump_005.png",
					"rotated": false,
					"trimmed": true,
					"sourceSize": {
						"w": 247,
						"h": 308
					},
					"spriteSourceSize": {
						"x": 18,
						"y": 15,
						"w": 226,
						"h": 249
					},
					"frame": {
						"x": 777,
						"y": 241,
						"w": 226,
						"h": 249
					}
				},
				{
					"filename": "Char_Fox_Joy_002.png",
					"rotated": false,
					"trimmed": true,
					"sourceSize": {
						"w": 285,
						"h": 315
					},
					"spriteSourceSize": {
						"x": 14,
						"y": 25,
						"w": 211,
						"h": 246
					},
					"frame": {
						"x": 1005,
						"y": 281,
						"w": 211,
						"h": 246
					}
				},
				{
					"filename": "Char_Fox_Jump_004.png",
					"rotated": false,
					"trimmed": true,
					"sourceSize": {
						"w": 247,
						"h": 308
					},
					"spriteSourceSize": {
						"x": 14,
						"y": 13,
						"w": 225,
						"h": 241
					},
					"frame": {
						"x": 520,
						"y": 251,
						"w": 225,
						"h": 241
					}
				},
				{
					"filename": "Char_Fox_Jump_003.png",
					"rotated": false,
					"trimmed": true,
					"sourceSize": {
						"w": 247,
						"h": 308
					},
					"spriteSourceSize": {
						"x": 14,
						"y": 18,
						"w": 211,
						"h": 246
					},
					"frame": {
						"x": 747,
						"y": 492,
						"w": 211,
						"h": 246
					}
				},
				{
					"filename": "Char_Fox_Run_009.png",
					"rotated": false,
					"trimmed": true,
					"sourceSize": {
						"w": 224,
						"h": 239
					},
					"spriteSourceSize": {
						"x": 1,
						"y": 4,
						"w": 221,
						"h": 233
					},
					"frame": {
						"x": 960,
						"y": 529,
						"w": 221,
						"h": 233
					}
				},
				{
					"filename": "Char_Fox_Jump_006.png",
					"rotated": false,
					"trimmed": true,
					"sourceSize": {
						"w": 247,
						"h": 308
					},
					"spriteSourceSize": {
						"x": 7,
						"y": 13,
						"w": 232,
						"h": 221
					},
					"frame": {
						"x": 267,
						"y": 260,
						"w": 232,
						"h": 221
					}
				},
				{
					"filename": "Char_Fox_Run_004.png",
					"rotated": false,
					"trimmed": true,
					"sourceSize": {
						"w": 224,
						"h": 239
					},
					"spriteSourceSize": {
						"x": 1,
						"y": 4,
						"w": 220,
						"h": 233
					},
					"frame": {
						"x": 1,
						"y": 274,
						"w": 220,
						"h": 233
					}
				},
				{
					"filename": "Char_Fox_Jump_007.png",
					"rotated": false,
					"trimmed": true,
					"sourceSize": {
						"w": 247,
						"h": 308
					},
					"spriteSourceSize": {
						"x": 25,
						"y": 18,
						"w": 203,
						"h": 246
					},
					"frame": {
						"x": 223,
						"y": 483,
						"w": 203,
						"h": 246
					}
				},
				{
					"filename": "Char_Fox_Run_003.png",
					"rotated": false,
					"trimmed": true,
					"sourceSize": {
						"w": 224,
						"h": 239
					},
					"spriteSourceSize": {
						"x": 8,
						"y": 3,
						"w": 214,
						"h": 232
					},
					"frame": {
						"x": 1,
						"y": 509,
						"w": 214,
						"h": 232
					}
				},
				{
					"filename": "Char_Fox_Run_008.png",
					"rotated": false,
					"trimmed": true,
					"sourceSize": {
						"w": 224,
						"h": 239
					},
					"spriteSourceSize": {
						"x": 8,
						"y": 3,
						"w": 214,
						"h": 232
					},
					"frame": {
						"x": 428,
						"y": 494,
						"w": 214,
						"h": 232
					}
				},
				{
					"filename": "Char_Fox_Joy_007.png",
					"rotated": false,
					"trimmed": true,
					"sourceSize": {
						"w": 285,
						"h": 315
					},
					"spriteSourceSize": {
						"x": 26,
						"y": 25,
						"w": 199,
						"h": 246
					},
					"frame": {
						"x": 428,
						"y": 728,
						"w": 199,
						"h": 246
					}
				},
				{
					"filename": "Char_Fox_Run_002.png",
					"rotated": false,
					"trimmed": true,
					"sourceSize": {
						"w": 224,
						"h": 239
					},
					"spriteSourceSize": {
						"x": 18,
						"y": 1,
						"w": 204,
						"h": 236
					},
					"frame": {
						"x": 217,
						"y": 731,
						"w": 204,
						"h": 236
					}
				},
				{
					"filename": "Char_Fox_Run_007.png",
					"rotated": false,
					"trimmed": true,
					"sourceSize": {
						"w": 224,
						"h": 239
					},
					"spriteSourceSize": {
						"x": 18,
						"y": 1,
						"w": 204,
						"h": 236
					},
					"frame": {
						"x": 1,
						"y": 743,
						"w": 204,
						"h": 236
					}
				},
				{
					"filename": "Char_Fox_Idle_004.png",
					"rotated": false,
					"trimmed": false,
					"sourceSize": {
						"w": 202,
						"h": 236
					},
					"spriteSourceSize": {
						"x": 0,
						"y": 0,
						"w": 202,
						"h": 236
					},
					"frame": {
						"x": 207,
						"y": 969,
						"w": 202,
						"h": 236
					}
				},
				{
					"filename": "Char_Fox_Idle_006.png",
					"rotated": false,
					"trimmed": false,
					"sourceSize": {
						"w": 202,
						"h": 236
					},
					"spriteSourceSize": {
						"x": 0,
						"y": 0,
						"w": 202,
						"h": 236
					},
					"frame": {
						"x": 207,
						"y": 969,
						"w": 202,
						"h": 236
					}
				},
				{
					"filename": "Char_Fox_Idle_005.png",
					"rotated": false,
					"trimmed": false,
					"sourceSize": {
						"w": 202,
						"h": 236
					},
					"spriteSourceSize": {
						"x": 0,
						"y": 0,
						"w": 202,
						"h": 236
					},
					"frame": {
						"x": 1,
						"y": 981,
						"w": 202,
						"h": 236
					}
				},
				{
					"filename": "Char_Fox_Run_001.png",
					"rotated": false,
					"trimmed": true,
					"sourceSize": {
						"w": 224,
						"h": 239
					},
					"spriteSourceSize": {
						"x": 20,
						"y": 2,
						"w": 202,
						"h": 236
					},
					"frame": {
						"x": 629,
						"y": 740,
						"w": 202,
						"h": 236
					}
				},
				{
					"filename": "Char_Fox_Jump_000.png",
					"rotated": false,
					"trimmed": true,
					"sourceSize": {
						"w": 247,
						"h": 308
					},
					"spriteSourceSize": {
						"x": 25,
						"y": 26,
						"w": 200,
						"h": 238
					},
					"frame": {
						"x": 411,
						"y": 976,
						"w": 200,
						"h": 238
					}
				},
				{
					"filename": "Char_Fox_Jump_009.png",
					"rotated": false,
					"trimmed": true,
					"sourceSize": {
						"w": 247,
						"h": 308
					},
					"spriteSourceSize": {
						"x": 25,
						"y": 26,
						"w": 200,
						"h": 238
					},
					"frame": {
						"x": 411,
						"y": 976,
						"w": 200,
						"h": 238
					}
				},
				{
					"filename": "Char_Fox_Idle_003.png",
					"rotated": false,
					"trimmed": true,
					"sourceSize": {
						"w": 202,
						"h": 236
					},
					"spriteSourceSize": {
						"x": 1,
						"y": 0,
						"w": 201,
						"h": 236
					},
					"frame": {
						"x": 205,
						"y": 1207,
						"w": 201,
						"h": 236
					}
				},
				{
					"filename": "Char_Fox_Idle_007.png",
					"rotated": false,
					"trimmed": true,
					"sourceSize": {
						"w": 202,
						"h": 236
					},
					"spriteSourceSize": {
						"x": 1,
						"y": 0,
						"w": 201,
						"h": 236
					},
					"frame": {
						"x": 205,
						"y": 1207,
						"w": 201,
						"h": 236
					}
				},
				{
					"filename": "Char_Fox_Run_006.png",
					"rotated": false,
					"trimmed": true,
					"sourceSize": {
						"w": 224,
						"h": 239
					},
					"spriteSourceSize": {
						"x": 20,
						"y": 2,
						"w": 201,
						"h": 236
					},
					"frame": {
						"x": 1,
						"y": 1219,
						"w": 201,
						"h": 236
					}
				},
				{
					"filename": "Char_Fox_Joy_000.png",
					"rotated": false,
					"trimmed": true,
					"sourceSize": {
						"w": 285,
						"h": 315
					},
					"spriteSourceSize": {
						"x": 26,
						"y": 33,
						"w": 199,
						"h": 238
					},
					"frame": {
						"x": 833,
						"y": 764,
						"w": 199,
						"h": 238
					}
				},
				{
					"filename": "Char_Fox_Joy_009.png",
					"rotated": false,
					"trimmed": true,
					"sourceSize": {
						"w": 285,
						"h": 315
					},
					"spriteSourceSize": {
						"x": 26,
						"y": 33,
						"w": 199,
						"h": 238
					},
					"frame": {
						"x": 833,
						"y": 764,
						"w": 199,
						"h": 238
					}
				},
				{
					"filename": "Char_Fox_Idle_002.png",
					"rotated": false,
					"trimmed": true,
					"sourceSize": {
						"w": 202,
						"h": 236
					},
					"spriteSourceSize": {
						"x": 2,
						"y": 0,
						"w": 200,
						"h": 236
					},
					"frame": {
						"x": 613,
						"y": 978,
						"w": 200,
						"h": 236
					}
				},
				{
					"filename": "Char_Fox_Idle_008.png",
					"rotated": false,
					"trimmed": true,
					"sourceSize": {
						"w": 202,
						"h": 236
					},
					"spriteSourceSize": {
						"x": 2,
						"y": 0,
						"w": 200,
						"h": 236
					},
					"frame": {
						"x": 613,
						"y": 978,
						"w": 200,
						"h": 236
					}
				},
				{
					"filename": "Char_Fox_Flyght_006.png",
					"rotated": false,
					"trimmed": true,
					"sourceSize": {
						"w": 254,
						"h": 317
					},
					"spriteSourceSize": {
						"x": 65,
						"y": 2,
						"w": 163,
						"h": 278
					},
					"frame": {
						"x": 1034,
						"y": 764,
						"w": 163,
						"h": 278
					}
				},
				{
					"filename": "Char_Fox_Run_000.png",
					"rotated": false,
					"trimmed": true,
					"sourceSize": {
						"w": 224,
						"h": 239
					},
					"spriteSourceSize": {
						"x": 23,
						"y": 2,
						"w": 199,
						"h": 237
					},
					"frame": {
						"x": 815,
						"y": 1004,
						"w": 199,
						"h": 237
					}
				},
				{
					"filename": "Char_Fox_Run_005.png",
					"rotated": false,
					"trimmed": true,
					"sourceSize": {
						"w": 224,
						"h": 239
					},
					"spriteSourceSize": {
						"x": 23,
						"y": 2,
						"w": 198,
						"h": 237
					},
					"frame": {
						"x": 1016,
						"y": 1044,
						"w": 198,
						"h": 237
					}
				},
				{
					"filename": "Char_Fox_Idle_000.png",
					"rotated": false,
					"trimmed": true,
					"sourceSize": {
						"w": 202,
						"h": 236
					},
					"spriteSourceSize": {
						"x": 4,
						"y": 0,
						"w": 198,
						"h": 236
					},
					"frame": {
						"x": 408,
						"y": 1216,
						"w": 198,
						"h": 236
					}
				},
				{
					"filename": "Char_Fox_Idle_001.png",
					"rotated": false,
					"trimmed": true,
					"sourceSize": {
						"w": 202,
						"h": 236
					},
					"spriteSourceSize": {
						"x": 4,
						"y": 0,
						"w": 198,
						"h": 236
					},
					"frame": {
						"x": 204,
						"y": 1445,
						"w": 198,
						"h": 236
					}
				},
				{
					"filename": "Char_Fox_Idle_009.png",
					"rotated": false,
					"trimmed": true,
					"sourceSize": {
						"w": 202,
						"h": 236
					},
					"spriteSourceSize": {
						"x": 4,
						"y": 0,
						"w": 198,
						"h": 236
					},
					"frame": {
						"x": 204,
						"y": 1445,
						"w": 198,
						"h": 236
					}
				},
				{
					"filename": "Char_Fox_Flyght_004.png",
					"rotated": false,
					"trimmed": true,
					"sourceSize": {
						"w": 254,
						"h": 317
					},
					"spriteSourceSize": {
						"x": 57,
						"y": 2,
						"w": 146,
						"h": 310
					},
					"frame": {
						"x": 1,
						"y": 1457,
						"w": 146,
						"h": 310
					}
				},
				{
					"filename": "Char_Fox_Flyght_009.png",
					"rotated": false,
					"trimmed": true,
					"sourceSize": {
						"w": 254,
						"h": 317
					},
					"spriteSourceSize": {
						"x": 51,
						"y": 1,
						"w": 146,
						"h": 310
					},
					"frame": {
						"x": 608,
						"y": 1216,
						"w": 146,
						"h": 310
					}
				},
				{
					"filename": "Char_Fox_Flyght_003.png",
					"rotated": false,
					"trimmed": true,
					"sourceSize": {
						"w": 254,
						"h": 317
					},
					"spriteSourceSize": {
						"x": 55,
						"y": 2,
						"w": 146,
						"h": 309
					},
					"frame": {
						"x": 404,
						"y": 1454,
						"w": 146,
						"h": 309
					}
				},
				{
					"filename": "Char_Fox_Flyght_008.png",
					"rotated": false,
					"trimmed": true,
					"sourceSize": {
						"w": 254,
						"h": 317
					},
					"spriteSourceSize": {
						"x": 53,
						"y": 2,
						"w": 146,
						"h": 309
					},
					"frame": {
						"x": 149,
						"y": 1683,
						"w": 146,
						"h": 309
					}
				},
				{
					"filename": "Char_Fox_Flyght_000.png",
					"rotated": false,
					"trimmed": true,
					"sourceSize": {
						"w": 254,
						"h": 317
					},
					"spriteSourceSize": {
						"x": 49,
						"y": 1,
						"w": 146,
						"h": 307
					},
					"frame": {
						"x": 756,
						"y": 1243,
						"w": 146,
						"h": 307
					}
				},
				{
					"filename": "Char_Fox_Flyght_005.png",
					"rotated": false,
					"trimmed": true,
					"sourceSize": {
						"w": 254,
						"h": 317
					},
					"spriteSourceSize": {
						"x": 59,
						"y": 3,
						"w": 146,
						"h": 307
					},
					"frame": {
						"x": 552,
						"y": 1528,
						"w": 146,
						"h": 307
					}
				},
				{
					"filename": "Char_Fox_Joy_008.png",
					"rotated": false,
					"trimmed": true,
					"sourceSize": {
						"w": 285,
						"h": 315
					},
					"spriteSourceSize": {
						"x": 40,
						"y": 44,
						"w": 185,
						"h": 227
					},
					"frame": {
						"x": 297,
						"y": 1765,
						"w": 185,
						"h": 227
					}
				},
				{
					"filename": "Char_Fox_Flyght_007.png",
					"rotated": false,
					"trimmed": true,
					"sourceSize": {
						"w": 254,
						"h": 317
					},
					"spriteSourceSize": {
						"x": 58,
						"y": 2,
						"w": 146,
						"h": 301
					},
					"frame": {
						"x": 904,
						"y": 1283,
						"w": 146,
						"h": 301
					}
				},
				{
					"filename": "Char_Fox_Flyght_002.png",
					"rotated": false,
					"trimmed": true,
					"sourceSize": {
						"w": 254,
						"h": 317
					},
					"spriteSourceSize": {
						"x": 51,
						"y": 2,
						"w": 146,
						"h": 300
					},
					"frame": {
						"x": 700,
						"y": 1552,
						"w": 146,
						"h": 300
					}
				},
				{
					"filename": "Char_Fox_Jump_008.png",
					"rotated": false,
					"trimmed": true,
					"sourceSize": {
						"w": 247,
						"h": 308
					},
					"spriteSourceSize": {
						"x": 59,
						"y": 35,
						"w": 166,
						"h": 229
					},
					"frame": {
						"x": 1052,
						"y": 1283,
						"w": 166,
						"h": 229
					}
				},
				{
					"filename": "Char_Fox_Joy_001.png",
					"rotated": false,
					"trimmed": true,
					"sourceSize": {
						"w": 285,
						"h": 315
					},
					"spriteSourceSize": {
						"x": 58,
						"y": 44,
						"w": 167,
						"h": 227
					},
					"frame": {
						"x": 1052,
						"y": 1514,
						"w": 167,
						"h": 227
					}
				},
				{
					"filename": "Char_Fox_Jump_001.png",
					"rotated": false,
					"trimmed": true,
					"sourceSize": {
						"w": 247,
						"h": 308
					},
					"spriteSourceSize": {
						"x": 42,
						"y": 31,
						"w": 183,
						"h": 233
					},
					"frame": {
						"x": 848,
						"y": 1586,
						"w": 183,
						"h": 233
					}
				},
				{
					"filename": "Char_Fox_Jump_002.png",
					"rotated": false,
					"trimmed": true,
					"sourceSize": {
						"w": 247,
						"h": 308
					},
					"spriteSourceSize": {
						"x": 58,
						"y": 37,
						"w": 167,
						"h": 227
					},
					"frame": {
						"x": 1033,
						"y": 1743,
						"w": 167,
						"h": 227
					}
				}
			]
		}
	],
	"meta": {
		"app": "https://www.codeandweb.com/texturepacker",
		"version": "3.0",
		"smartupdate": "$TexturePacker:SmartUpdate:62c0e44b197e13c1f5da3a7ff6769698:961275ec070d33be9868ff904dfe38ca:7a63b402a041f768da36d40249078b3b$"
	}
}
