<svg xmlns="http://www.w3.org/2000/svg" xmlns:xlink="http://www.w3.org/1999/xlink" width="88" height="88" viewBox="0 0 88 88">
  <defs>
    <radialGradient id="radial-gradient" cx="0.5" cy="0.5" r="0.5" gradientUnits="objectBoundingBox">
      <stop offset="0" stop-color="#5c90ce"/>
      <stop offset="1" stop-color="#375982"/>
    </radialGradient>
    <filter id="Ellipse_1" x="0" y="0" width="88" height="88" filterUnits="userSpaceOnUse">
      <feOffset dx="5" dy="5" input="SourceAlpha"/>
      <feGaussianBlur stdDeviation="3" result="blur"/>
      <feFlood flood-opacity="0.4"/>
      <feComposite operator="in" in2="blur"/>
      <feComposite in="SourceGraphic"/>
    </filter>
  </defs>
  <g id="volume" transform="translate(-2081 -7779)">
    <g transform="matrix(1, 0, 0, 1, 2081, 7779)" filter="url(#Ellipse_1)">
      <g id="Ellipse_1-2" data-name="Ellipse 1" transform="translate(4 4)" stroke="#fff" stroke-width="5" fill="url(#radial-gradient)">
        <circle cx="35" cy="35" r="35" stroke="none"/>
        <circle cx="35" cy="35" r="32.5" fill="none"/>
      </g>
    </g>
    <g id="Group_189" data-name="Group 189" transform="translate(-1 0)">
      <path id="Union_2" data-name="Union 2" d="M25.279,38.7,11.428,29H4.8a3,3,0,0,1-3-3V17a3,3,0,0,1,3-3H10L25.279,3.3A3,3,0,0,1,30,5.762V36.238a3,3,0,0,1-3.01,3.006A2.962,2.962,0,0,1,25.279,38.7Z" transform="translate(2095.2 7797.244)" fill="#fff"/>
      <path id="Path_4874" data-name="Path 4874" d="M0,0A4.482,4.482,0,0,1,3.989,4.5,4.469,4.469,0,0,1,0,9" transform="translate(2130.5 7813.5)" fill="none" stroke="#fff" stroke-linecap="round" stroke-width="2"/>
      <path id="Path_4875" data-name="Path 4875" d="M0,0A12.192,12.192,0,0,1,6.331,10.593,11.579,11.579,0,0,1,0,21" transform="translate(2133.5 7807.5)" fill="none" stroke="#fff" stroke-linecap="round" stroke-width="2"/>
      <path id="Path_4876" data-name="Path 4876" d="M0,0S7.664,6.553,7.62,16.682,0,33,0,33" transform="translate(2137.5 7801.5)" fill="none" stroke="#fff" stroke-linecap="round" stroke-width="2"/>
    </g>
  </g>
</svg>
