<?xml version="1.0" encoding="utf-8"?>
<!DOCTYPE svg PUBLIC "-//W3C//DTD SVG 1.1//EN" "http://www.w3.org/Graphics/SVG/1.1/DTD/svg11.dtd">
<svg version="1.1" xmlns="http://www.w3.org/2000/svg" xmlns:xlink="http://www.w3.org/1999/xlink" 
	x="0px" y="0px" width="200px" height="300px" viewBox="0 0 200 300">
	<defs>
		<style type="text/css">
			.shdw {fill: url(#btnshadow);}
			.srfc {fill: hsl(200, 100%, 25%);}
			.white {fill: hsl(200, 100%, 100%);}
			.hilite {fill: hsl(45, 100%, 80%);}
		</style>
		<radialGradient id="btnshadow">
			<stop offset="93%" stop-color="rgba(0,0,0,40%)" />
			<stop offset="100%" stop-color="rgba(0,0,0,0%)" />
		</radialGradient>
		<circle id="shadow" cy="4" r="46" />
		<circle id="outline" r="45" />
		<circle id="surface" r="40" />
		<polygon id="playicon" points="-16.4,-23.5 26.4,0 -16.4,23.5" />
		<g id="pauseicon">
			<rect x="-17.5" y="-27.5" width="13" height="55" />
			<rect x="4.5" y="-27.5" width="13" height="55" />
		</g>
	</defs>
	<g transform="translate(50,50)">
		<use class="shdw" xlink:href="#shadow" />
		<use class="hilite" xlink:href="#outline" />
		<use class="srfc" xlink:href="#surface" />
		<use class="hilite" xlink:href="#playicon" />
	</g>
	<g transform="translate(150,50)">
		<use class="shdw" xlink:href="#shadow" />
		<use class="hilite" xlink:href="#outline" />
		<use class="srfc" xlink:href="#surface" />
		<use class="hilite" xlink:href="#pauseicon" />
	</g>
	<g transform="translate(50,150)">
		<use class="shdw" xlink:href="#shadow" />
		<use class="white" xlink:href="#outline" />
		<use class="srfc" xlink:href="#surface" />
		<use class="white" xlink:href="#playicon" />
	</g>
	<g transform="translate(150,150)">
		<use class="shdw" xlink:href="#shadow" />
		<use class="white" xlink:href="#outline" />
		<use class="srfc" xlink:href="#surface" />
		<use class="white" xlink:href="#pauseicon" />
	</g>
	<use class="shdw" xlink:href="#shadow" transform="translate(50,250)" />
	<g transform="translate(50,252)">
		<use class="hilite" xlink:href="#outline" />
		<use class="srfc" xlink:href="#surface" />
		<use class="hilite" xlink:href="#playicon" />
	</g>
	<use class="shdw" xlink:href="#shadow" transform="translate(150,250)" />
	<g transform="translate(150,252)">
		<use class="hilite" xlink:href="#outline" />
		<use class="srfc" xlink:href="#surface" />
		<use class="hilite" xlink:href="#pauseicon" />
	</g>
</svg>
