{
    "ltiCode": "tt",
    "fileName": "tt",
    "expression": "255/15",
    "maxSize": 0,
    "sizes": [],
    "data": [
        {
            "quotient": [],
            "divisor": [
                {
                    "classArray": [
                        ""
                    ],
                    "text": "1"
                },
                {
                    "classArray": [
                        ""
                    ],
                    "text": "5"
                }
            ],
            "dividend": [
                {
                    "classArray": [
                        ""
                    ],
                    "text": "2"
                },
                {
                    "classArray": [
                        ""
                    ],
                    "text": "5"
                },
                {
                    "classArray": [
                        ""
                    ],
                    "text": "5"
                }
            ],
            "products": [],
            "remain": [
                {
                    "classArray": [
                        ""
                    ],
                    "text": "0"
                }
            ]
        },
        {
            "quotient": [
                {
                    "classArray": [
                        ""
                    ],
                    "text": "1"
                }
            ],
            "divisor": [
                {
                    "classArray": [
                        ""
                    ],
                    "text": "1"
                },
                {
                    "classArray": [
                        ""
                    ],
                    "text": "5"
                }
            ],
            "dividend": [
                {
                    "classArray": [
                        ""
                    ],
                    "text": "2"
                },
                {
                    "classArray": [
                        ""
                    ],
                    "text": "5"
                },
                {
                    "classArray": [
                        ""
                    ],
                    "text": "5"
                }
            ],
            "products": [],
            "remain": [
                {
                    "classArray": [
                        ""
                    ],
                    "text": "0"
                }
            ]
        },
        {
            "quotient": [
                {
                    "classArray": [
                        ""
                    ],
                    "text": "1"
                }
            ],
            "divisor": [
                {
                    "classArray": [
                        ""
                    ],
                    "text": "1"
                },
                {
                    "classArray": [
                        ""
                    ],
                    "text": "5"
                }
            ],
            "dividend": [
                {
                    "classArray": [
                        ""
                    ],
                    "text": "2"
                },
                {
                    "classArray": [
                        ""
                    ],
                    "text": "5"
                },
                {
                    "classArray": [
                        ""
                    ],
                    "text": "5"
                }
            ],
            "products": [
                [
                    {
                        "classArray": [
                            "bb"
                        ],
                        "text": "1"
                    },
                    {
                        "classArray": [
                            "bb"
                        ],
                        "text": "5"
                    }
                ]
            ],
            "remain": [
                {
                    "classArray": [
                        ""
                    ],
                    "text": "0"
                }
            ]
        },
        {
            "quotient": [
                {
                    "classArray": [
                        ""
                    ],
                    "text": "1"
                }
            ],
            "divisor": [
                {
                    "classArray": [
                        ""
                    ],
                    "text": "1"
                },
                {
                    "classArray": [
                        ""
                    ],
                    "text": "5"
                }
            ],
            "dividend": [
                {
                    "classArray": [
                        ""
                    ],
                    "text": "2"
                },
                {
                    "classArray": [
                        ""
                    ],
                    "text": "5"
                },
                {
                    "classArray": [
                        ""
                    ],
                    "text": "5"
                }
            ],
            "products": [
                [
                    {
                        "classArray": [
                            "bb"
                        ],
                        "text": "1"
                    },
                    {
                        "classArray": [
                            "bb"
                        ],
                        "text": "5"
                    }
                ]
            ],
            "remain": [
                {
                    "classArray": [
                        ""
                    ],
                    "text": "0"
                }
            ]
        },
        {
            "quotient": [
                {
                    "classArray": [
                        ""
                    ],
                    "text": "1"
                }
            ],
            "divisor": [
                {
                    "classArray": [
                        ""
                    ],
                    "text": "1"
                },
                {
                    "classArray": [
                        ""
                    ],
                    "text": "5"
                }
            ],
            "dividend": [
                {
                    "classArray": [
                        ""
                    ],
                    "text": "2"
                },
                {
                    "classArray": [
                        ""
                    ],
                    "text": "5"
                },
                {
                    "classArray": [
                        ""
                    ],
                    "text": "5"
                }
            ],
            "products": [
                [
                    {
                        "classArray": [
                            "bb"
                        ],
                        "text": "1"
                    },
                    {
                        "classArray": [
                            "bb"
                        ],
                        "text": "5"
                    },
                    {
                        "classArray": [
                            "hid"
                        ],
                        "text": "0"
                    }
                ],
                [
                    {
                        "classArray": [
                            "",
                            "hid"
                        ],
                        "text": "0"
                    },
                    {
                        "classArray": [
                            ""
                        ],
                        "text": "1"
                    },
                    {
                        "classArray": [
                            ""
                        ],
                        "text": "0"
                    }
                ]
            ],
            "remain": [
                {
                    "classArray": [
                        ""
                    ],
                    "text": "0"
                }
            ]
        },
        {
            "quotient": [
                {
                    "classArray": [
                        ""
                    ],
                    "text": "1"
                },
                {
                    "classArray": [
                        ""
                    ],
                    "text": "7"
                }
            ],
            "divisor": [
                {
                    "classArray": [
                        ""
                    ],
                    "text": "1"
                },
                {
                    "classArray": [
                        ""
                    ],
                    "text": "5"
                }
            ],
            "dividend": [
                {
                    "classArray": [
                        ""
                    ],
                    "text": "2"
                },
                {
                    "classArray": [
                        ""
                    ],
                    "text": "5"
                },
                {
                    "classArray": [
                        ""
                    ],
                    "text": "5"
                }
            ],
            "products": [
                [
                    {
                        "classArray": [
                            "bb"
                        ],
                        "text": "1"
                    },
                    {
                        "classArray": [
                            "bb"
                        ],
                        "text": "5"
                    },
                    {
                        "classArray": [
                            "hid"
                        ],
                        "text": "0"
                    },
                    {
                        "classArray": [
                            "hid"
                        ],
                        "text": "0"
                    }
                ],
                [
                    {
                        "classArray": [
                            "",
                            "hid"
                        ],
                        "text": "0"
                    },
                    {
                        "classArray": [
                            ""
                        ],
                        "text": "1"
                    },
                    {
                        "classArray": [
                            ""
                        ],
                        "text": "0"
                    },
                    {
                        "classArray": [
                            ""
                        ],
                        "text": "5"
                    }
                ]
            ],
            "remain": [
                {
                    "classArray": [
                        ""
                    ],
                    "text": "0"
                }
            ]
        },
        {
            "quotient": [
                {
                    "classArray": [
                        ""
                    ],
                    "text": "1"
                },
                {
                    "classArray": [
                        ""
                    ],
                    "text": "7"
                }
            ],
            "divisor": [
                {
                    "classArray": [
                        ""
                    ],
                    "text": "1"
                },
                {
                    "classArray": [
                        ""
                    ],
                    "text": "5"
                }
            ],
            "dividend": [
                {
                    "classArray": [
                        ""
                    ],
                    "text": "2"
                },
                {
                    "classArray": [
                        ""
                    ],
                    "text": "5"
                },
                {
                    "classArray": [
                        ""
                    ],
                    "text": "5"
                }
            ],
            "products": [
                [
                    {
                        "classArray": [
                            "bb"
                        ],
                        "text": "1"
                    },
                    {
                        "classArray": [
                            "bb"
                        ],
                        "text": "5"
                    },
                    {
                        "classArray": [
                            "hid"
                        ],
                        "text": "0"
                    },
                    {
                        "classArray": [
                            "hid"
                        ],
                        "text": "0"
                    }
                ],
                [
                    {
                        "classArray": [
                            "",
                            "hid"
                        ],
                        "text": "0"
                    },
                    {
                        "classArray": [
                            ""
                        ],
                        "text": "1"
                    },
                    {
                        "classArray": [
                            ""
                        ],
                        "text": "0"
                    },
                    {
                        "classArray": [
                            ""
                        ],
                        "text": "5"
                    }
                ],
                [
                    {
                        "classArray": [
                            "bb",
                            "hid"
                        ],
                        "text": "0"
                    },
                    {
                        "classArray": [
                            "bb"
                        ],
                        "text": "1"
                    },
                    {
                        "classArray": [
                            "bb"
                        ],
                        "text": "0"
                    },
                    {
                        "classArray": [
                            "bb"
                        ],
                        "text": "5"
                    }
                ]
            ],
            "remain": [
                {
                    "classArray": [
                        ""
                    ],
                    "text": "0"
                }
            ]
        },
        {
            "quotient": [
                {
                    "classArray": [
                        ""
                    ],
                    "text": "1"
                },
                {
                    "classArray": [
                        ""
                    ],
                    "text": "7"
                }
            ],
            "divisor": [
                {
                    "classArray": [
                        ""
                    ],
                    "text": "1"
                },
                {
                    "classArray": [
                        ""
                    ],
                    "text": "5"
                }
            ],
            "dividend": [
                {
                    "classArray": [
                        ""
                    ],
                    "text": "2"
                },
                {
                    "classArray": [
                        ""
                    ],
                    "text": "5"
                },
                {
                    "classArray": [
                        ""
                    ],
                    "text": "5"
                }
            ],
            "products": [
                [
                    {
                        "classArray": [
                            "bb"
                        ],
                        "text": "1"
                    },
                    {
                        "classArray": [
                            "bb"
                        ],
                        "text": "5"
                    },
                    {
                        "classArray": [
                            "hid"
                        ],
                        "text": "0"
                    },
                    {
                        "classArray": [
                            "hid"
                        ],
                        "text": "0"
                    }
                ],
                [
                    {
                        "classArray": [
                            "",
                            "hid"
                        ],
                        "text": "0"
                    },
                    {
                        "classArray": [
                            ""
                        ],
                        "text": "1"
                    },
                    {
                        "classArray": [
                            ""
                        ],
                        "text": "0"
                    },
                    {
                        "classArray": [
                            ""
                        ],
                        "text": "5"
                    }
                ],
                [
                    {
                        "classArray": [
                            "bb",
                            "hid"
                        ],
                        "text": "0"
                    },
                    {
                        "classArray": [
                            "bb"
                        ],
                        "text": "1"
                    },
                    {
                        "classArray": [
                            "bb"
                        ],
                        "text": "0"
                    },
                    {
                        "classArray": [
                            "bb"
                        ],
                        "text": "5"
                    }
                ]
            ],
            "remain": [
                {
                    "classArray": [
                        ""
                    ],
                    "text": "0"
                }
            ]
        },
        {
            "quotient": [
                {
                    "classArray": [
                        ""
                    ],
                    "text": "1"
                },
                {
                    "classArray": [
                        ""
                    ],
                    "text": "7"
                }
            ],
            "divisor": [
                {
                    "classArray": [
                        ""
                    ],
                    "text": "1"
                },
                {
                    "classArray": [
                        ""
                    ],
                    "text": "5"
                }
            ],
            "dividend": [
                {
                    "classArray": [
                        ""
                    ],
                    "text": "2"
                },
                {
                    "classArray": [
                        ""
                    ],
                    "text": "5"
                },
                {
                    "classArray": [
                        ""
                    ],
                    "text": "5"
                }
            ],
            "products": [
                [
                    {
                        "classArray": [
                            "bb"
                        ],
                        "text": "1"
                    },
                    {
                        "classArray": [
                            "bb"
                        ],
                        "text": "5"
                    },
                    {
                        "classArray": [
                            "hid"
                        ],
                        "text": "0"
                    },
                    {
                        "classArray": [
                            "hid"
                        ],
                        "text": "0"
                    },
                    {
                        "classArray": [
                            "hid"
                        ],
                        "text": "0"
                    },
                    {
                        "classArray": [
                            "hid"
                        ],
                        "text": "0"
                    },
                    {
                        "classArray": [
                            "hid"
                        ],
                        "text": "0"
                    }
                ],
                [
                    {
                        "classArray": [
                            ""
                        ],
                        "text": "1"
                    },
                    {
                        "classArray": [
                            ""
                        ],
                        "text": "0"
                    },
                    {
                        "classArray": [
                            ""
                        ],
                        "text": "5"
                    },
                    {
                        "classArray": [
                            "hid"
                        ],
                        "text": "0"
                    },
                    {
                        "classArray": [
                            "hid"
                        ],
                        "text": "0"
                    },
                    {
                        "classArray": ["hid"],
                        "text": "@"
                    }
                ],
                [
                    {
                        "classArray": [
                            "bb"
                        ],
                        "text": "1"
                    },
                    {
                        "classArray": [
                            "bb"
                        ],
                        "text": "0"
                    },
                    {
                        "classArray": [
                            "bb"
                        ],
                        "text": "5"
                    },
                    {
                        "classArray": [
                            "hid"
                        ],
                        "text": "0"
                    },
                    {
                        "classArray": [
                            "hid"
                        ],
                        "text": "0"
                    },
                    {
                        "classArray": [
                            "hid"
                        ],
                        "text": "0"
                    }
                ],
                [
                    {
                        "classArray": [
                            "hid"
                        ],
                        "text": "0"
                    },
                    {
                        "classArray": [
                            "hid"
                        ],
                        "text": "0"
                    },
                    {
                        "classArray": [],
                        "text": "0"
                    },
                    {
                        "classArray": [
                            "hid"
                        ],
                        "text": "0"
                    },
                    {
                        "classArray": [
                            "hid"
                        ],
                        "text": "0"
                    },
                    {
                        "classArray": [
                            "hid"
                        ],
                        "text": "0"
                    }
                ]
            ],
            "remain": [
                {
                    "classArray": [
                        ""
                    ],
                    "text": "0"
                }
            ]
        }
    ]
}