<svg xmlns="http://www.w3.org/2000/svg" width="700" height="700.015" viewBox="0 0 700 700.015">
  <g id="Uh-oh" transform="translate(-11010.716 -3920.285)" opacity="0.25" style="mix-blend-mode: multiply;isolation: isolate">
    <path id="Path_5037" data-name="Path 5037" d="M11140.6,4187.938q21.63,6.529,61.4-2.149,38.575-8.413,56.52-23.58,19.468-16.749,13.178-45.581l-22.041-101.018a6.257,6.257,0,0,0-7.268-4.663l-40.965,8.937a6.11,6.11,0,0,0-3.984,2.744,5.851,5.851,0,0,0-.875,4.566l17.744,81.332q2.991,13.721-2.047,21.177t-19.359,10.575q-15.114,3.3-22.836-1.057t-10.713-18.08l-17.871-81.93a5.868,5.868,0,0,0-2.7-3.784,6.093,6.093,0,0,0-4.764-.835l-40.768,8.9a6.093,6.093,0,0,0-3.984,2.744,5.859,5.859,0,0,0-.879,4.565l21.605,99.032Q11116.716,4180.646,11140.6,4187.938Z" transform="translate(67.987 79.379)" fill="#be1e2d"/>
    <path id="Path_5038" data-name="Path 5038" d="M11217.668,4179.905l43.748-9.544a6.111,6.111,0,0,0,3.986-2.744,5.871,5.871,0,0,0,.877-4.566l-11.584-53.1,50.707-11.062,11.584,53.095a5.868,5.868,0,0,0,2.7,3.785,6.091,6.091,0,0,0,4.766.834l43.748-9.543a6.106,6.106,0,0,0,3.984-2.743,5.883,5.883,0,0,0,.879-4.567l-31.412-143.972a5.856,5.856,0,0,0-2.7-3.784,6.086,6.086,0,0,0-4.768-.837l-43.748,9.544a6.091,6.091,0,0,0-3.984,2.746,5.857,5.857,0,0,0-.877,4.566l10.889,49.914-50.705,11.064-10.891-49.915a5.859,5.859,0,0,0-2.7-3.784,6.081,6.081,0,0,0-4.766-.837l-43.748,9.544a6.26,6.26,0,0,0-4.662,7.267l31.41,143.972a6.259,6.259,0,0,0,7.266,4.664Z" transform="translate(147.443 62.009)" fill="#be1e2d"/>
    <path id="Path_5039" data-name="Path 5039" d="M11266.595,4141.266q-28.028-14.818-74.156-4.754T11127,4171.723q-19.31,25.149-10.408,65.912t36.893,55.49q28,14.725,74.139,4.657t65.459-35.113q19.327-25.043,10.43-65.813T11266.595,4141.266Zm-22.393,95.5q-7.951,10.8-26.643,14.877t-30.326-2.446q-11.634-6.52-15.361-23.625T11176,4197.7q7.852-10.772,26.549-14.854t30.424,2.421q11.728,6.506,15.459,23.606T11244.2,4236.77Z" transform="translate(90.382 186.045)" fill="#be1e2d"/>
    <path id="Path_5040" data-name="Path 5040" d="M11366.446,4106.2l-43.75,9.546a6.076,6.076,0,0,0-3.982,2.746,5.863,5.863,0,0,0-.881,4.564l10.893,49.914-50.709,11.062-10.887-49.911a5.866,5.866,0,0,0-2.705-3.784,6.085,6.085,0,0,0-4.766-.838l-43.746,9.544a6.268,6.268,0,0,0-4.662,7.27l31.41,143.972a6.258,6.258,0,0,0,7.268,4.662l43.744-9.544a6.111,6.111,0,0,0,3.988-2.742,5.876,5.876,0,0,0,.877-4.568L11286.954,4225l50.707-11.065,11.584,53.1a5.862,5.862,0,0,0,2.7,3.786,6.094,6.094,0,0,0,4.766.835l43.748-9.546a6.114,6.114,0,0,0,3.988-2.742,5.866,5.866,0,0,0,.875-4.568l-31.41-143.97a5.849,5.849,0,0,0-2.7-3.784A6.073,6.073,0,0,0,11366.446,4106.2Z" transform="translate(175.73 162.892)" fill="#be1e2d"/>
    <path id="Path_5041" data-name="Path 5041" d="M11071.787,4189.859l476.85-103.224-.76-3.738-476.846,103.225Z" transform="translate(52.891 142.599)" fill="#be1e2d"/>
    <path id="Path_5042" data-name="Path 5042" d="M11070.549,4184.5l476.85-103.225-.76-3.737-476.846,103.224Z" transform="translate(51.805 137.904)" fill="#be1e2d"/>
    <path id="Path_5043" data-name="Path 5043" d="M11281.9,3929.354c-188.3,43.53-305.646,231.454-262.117,419.753s231.451,305.653,419.75,262.124,305.639-231.462,262.111-419.751S11470.192,3885.827,11281.9,3929.354Zm413.227,345.79c-.182,13.3-14.23,25.5-16,38.5-1.791,13.148,8.455,28.665,5.117,41.376-3.373,12.818-19.943,21.289-24.8,33.528-4.885,12.3,1.361,29.827-4.945,41.413s-24.412,15.884-32.066,26.643-5.754,29.258-14.656,39.041c-8.869,9.737-27.463,9.576-37.5,18.225-9.963,8.583-12.545,27.017-23.572,34.4-10.9,7.3-28.912,2.675-40.783,8.677-11.68,5.9-18.623,23.169-31.162,27.706-12.273,4.435-28.65-4.37-41.682-1.357s-23.887,18.112-36.863,19.514c-13.262,1.429-27.078-11.038-40.158-11.218-13.3-.182-27.463,11.879-40.459,10.1-13.156-1.794-23.566-17.223-36.283-20.565-12.811-3.367-29.455,4.941-41.689.084-12.3-4.882-18.721-22.34-30.307-28.648-11.6-6.308-29.746-2.212-40.514-9.868-10.75-7.646-12.832-26.132-22.613-35.035-9.738-8.867-28.338-9.206-36.988-19.24-8.584-9.958-6.184-28.4-13.566-39.435-7.3-10.9-25.275-15.7-31.281-27.57-5.9-11.674.871-28.993-3.666-41.54-4.432-12.266-20.74-21.237-23.75-34.267s7.7-28.247,6.3-41.222c-1.426-13.258-15.109-25.847-14.93-38.938.182-13.3,14.229-25.506,16-38.5,1.791-13.152-8.455-28.665-5.111-41.382,3.367-12.814,19.932-21.286,24.789-33.527,4.879-12.292-1.365-29.823,4.941-41.413s24.414-15.881,32.066-26.647c7.65-10.748,5.754-29.258,14.658-39.035,8.867-9.745,27.467-9.583,37.5-18.232,9.955-8.583,12.543-27.019,23.57-34.4,10.9-7.3,28.916-2.675,40.787-8.675,11.674-5.9,18.617-23.167,31.16-27.706,12.275-4.437,28.652,4.366,41.686,1.354s23.885-18.109,36.867-19.509c13.256-1.43,27.072,11.034,40.158,11.212,13.3.188,27.451-11.872,40.453-10.1,13.15,1.8,23.564,17.225,36.281,20.565,12.811,3.368,29.457-4.934,41.7-.075,12.293,4.878,18.713,22.341,30.3,28.646s29.748,2.211,40.508,9.869,12.832,26.132,22.607,35.037c9.744,8.866,28.348,9.212,36.994,19.244,8.586,9.96,6.184,28.4,13.57,39.426,7.3,10.9,25.275,15.7,31.273,27.573,5.9,11.676-.863,29,3.668,41.54,4.438,12.273,20.74,21.241,23.752,34.272s-7.7,28.246-6.3,41.224C11681.628,4249.461,11695.31,4262.052,11695.13,4275.144Z" transform="translate(-0.001 -0.001)" fill="#be1e2d"/>
    <path id="Path_5044" data-name="Path 5044" d="M11663.938,4225.768c-.592-5.464,1.238-11.474,3.166-17.839,2.273-7.494,4.633-15.255,2.934-22.59s-7.219-13.274-12.549-19.012c-4.527-4.873-8.809-9.471-10.676-14.638-1.93-5.349-1.574-12.021-1.223-18.479.42-7.724.848-15.7-2.449-22.238-3.377-6.674-10.146-11.1-16.689-15.393-5.578-3.653-10.846-7.1-13.928-11.7-3.141-4.7-4.336-10.944-5.6-17.566-1.459-7.615-2.969-15.5-7.773-21.076-4.857-5.633-12.465-8.3-19.824-10.873-6.32-2.214-12.287-4.3-16.4-8.054-4.16-3.782-6.809-9.558-9.617-15.667-3.244-7.06-6.6-14.363-12.621-18.647s-14.043-5.066-21.785-5.817c-6.684-.647-12.992-1.259-17.916-3.934-4.908-2.671-8.85-7.631-13.018-12.879-4.84-6.1-9.85-12.4-16.748-15.143-6.855-2.726-14.8-1.571-22.5-.458-6.652.967-12.937,1.873-18.383.443-5.379-1.411-10.371-5.274-15.654-9.362-6.184-4.778-12.568-9.717-19.961-10.721-6.3-.86-14.4,1.911-21.869,4.951-6.143,2.5-12.74,4.94-17.816,4.873-5.518-.073-11.273-2.609-17.365-5.294-7.17-3.157-14.574-6.419-22.039-5.614-7.178.773-13.691,5.475-19.922,10-5.25,3.816-10.672,7.759-16.244,9.049s-12.189.127-18.578-1c-7.59-1.333-15.486-2.707-22.293-.242-7.057,2.551-12.287,8.733-17.334,14.715-4.3,5.088-8.359,9.892-13.281,12.378-4.531,2.29-11.535,2.994-18.146,3.442-8.051.541-16.529,1.6-21.82,5.143-6.2,4.152-9.77,11.391-13.217,18.392-2.965,6-5.752,11.654-9.969,15.284-4.264,3.677-10.318,5.617-16.723,7.672-7.393,2.369-15.035,4.822-20,10.276-4.994,5.486-6.727,13.351-8.4,20.958-1.437,6.544-2.8,12.733-6.043,17.287s-8.65,7.888-14.375,11.406c-6.625,4.069-13.479,8.281-17.018,14.779s-3.338,14.529-3.16,22.3c.158,6.719.313,13.065-1.766,18.289-2.055,5.179-6.5,9.681-11.205,14.441-5.479,5.55-11.146,11.284-13.037,18.473-1.871,7.121.23,14.865,2.264,22.35,1.768,6.5,3.436,12.645,2.678,18.24-.752,5.482-3.973,10.9-7.381,16.629-4,6.721-8.139,13.679-8.24,21.157-.1,7.313,3.791,14.3,7.551,21.054,3.152,5.646,6.4,11.483,7.012,17.146.594,5.468-1.229,11.476-3.158,17.836-2.279,7.5-4.629,15.254-2.934,22.591s7.217,13.273,12.551,19.011c4.529,4.871,8.809,9.471,10.674,14.639,1.932,5.348,1.568,12.021,1.217,18.478-.414,7.72-.846,15.7,2.455,22.234,3.373,6.672,10.141,11.108,16.688,15.391,5.58,3.657,10.846,7.108,13.926,11.707,3.141,4.694,4.34,10.942,5.605,17.562,1.459,7.617,2.969,15.5,7.777,21.074,4.852,5.629,12.457,8.3,19.809,10.873,6.322,2.219,12.293,4.31,16.418,8.058,4.152,3.784,6.8,9.557,9.613,15.663,3.24,7.062,6.594,14.363,12.617,18.651s14.039,5.068,21.785,5.817c6.68.648,13,1.259,17.916,3.935s8.852,7.635,13.025,12.883c4.842,6.1,9.846,12.407,16.736,15.141,6.859,2.72,14.809,1.57,22.494.458,6.66-.967,12.947-1.877,18.4-.446,5.371,1.415,10.371,5.274,15.652,9.362,6.18,4.778,12.568,9.717,19.951,10.723,6.318.86,14.41-1.912,21.873-4.949,6.139-2.5,12.74-4.948,17.82-4.873,5.514.075,11.268,2.607,17.363,5.3,7.162,3.154,14.568,6.417,22.031,5.613,7.191-.771,13.693-5.469,19.93-10,5.244-3.815,10.672-7.761,16.252-9.05s12.178-.125,18.568,1c6.707,1.179,13.629,2.4,19.867.959a21.521,21.521,0,0,0,2.426-.715c7.059-2.553,12.281-8.736,17.338-14.716,4.291-5.09,8.35-9.892,13.271-12.378,4.537-2.3,11.537-3,18.158-3.444,8.039-.55,16.529-1.61,21.813-5.149,6.2-4.146,9.766-11.385,13.227-18.386,2.953-5.993,5.752-11.656,9.957-15.282,4.262-3.682,10.318-5.622,16.727-7.678,7.4-2.373,15.041-4.826,20.006-10.278,4.994-5.488,6.725-13.351,8.4-20.949,1.443-6.553,2.809-12.735,6.045-17.3s8.654-7.883,14.373-11.4c6.625-4.071,13.482-8.283,17.02-14.787s3.34-14.523,3.158-22.3c-.154-6.721-.3-13.067,1.768-18.289,2.059-5.178,6.506-9.682,11.211-14.446,5.477-5.544,11.146-11.281,13.035-18.47,1.871-7.121-.232-14.867-2.268-22.348-1.768-6.507-3.434-12.645-2.668-18.245.744-5.482,3.965-10.893,7.381-16.624,4-6.72,8.129-13.675,8.238-21.157.1-7.318-3.793-14.3-7.557-21.057C11667.8,4237.264,11664.554,4231.421,11663.938,4225.768Zm10.24,38.139c-.088,6.323-3.754,12.481-7.633,19-3.477,5.855-7.076,11.9-7.945,18.26-.883,6.466.975,13.322,2.779,19.958,1.975,7.255,3.836,14.114,2.254,20.113-1.6,6.074-6.611,11.155-11.922,16.53-4.807,4.866-9.775,9.89-12.16,15.892-2.395,6.037-2.229,13.131-2.066,19.99.178,7.532.344,14.647-2.637,20.121-2.988,5.494-9.057,9.221-15.479,13.17-5.838,3.583-11.875,7.292-15.639,12.583-3.744,5.272-5.271,12.179-6.746,18.865-1.615,7.376-3.15,14.338-7.369,18.968-4.189,4.6-10.951,6.772-18.121,9.069-6.545,2.1-13.3,4.268-18.23,8.52-4.879,4.2-8,10.527-11.018,16.652-3.355,6.786-6.512,13.2-11.754,16.7-4.494,3-11.883,3.9-19.7,4.427-7.045.478-14.615,1.262-19.809,3.9-5.711,2.883-10.252,8.253-14.635,13.448-4.9,5.8-9.533,11.28-15.5,13.443-5.787,2.094-12.7.858-20.068-.44-6.816-1.2-13.861-2.443-20.3-.955s-12.225,5.7-17.826,9.768c-6.051,4.4-11.717,8.528-17.84,9.2-6.312.678-12.877-2.212-19.828-5.274-6.219-2.738-12.646-5.578-19.047-5.663-5.824-.086-12.973,2.526-19.51,5.193-7.26,2.957-14.285,5.4-19.652,4.67-6.242-.847-11.9-5.226-17.895-9.857-5.4-4.171-10.975-8.488-17.207-10.125-6.295-1.652-13.312-.637-20.111.346-7.447,1.079-14.484,2.1-20.268-.2-5.818-2.3-10.258-7.888-14.953-13.805-4.254-5.356-8.656-10.9-14.342-13.992s-12.752-3.784-19.572-4.441c-7.51-.729-14.6-1.415-19.689-5.04s-8.051-10.079-11.193-16.924c-2.863-6.233-5.824-12.682-10.631-17.054-4.777-4.351-11.449-6.686-17.9-8.951-7.139-2.5-13.871-4.855-17.967-9.614-4.053-4.7-5.389-11.67-6.8-19.06-1.293-6.75-2.633-13.733-6.262-19.154-3.568-5.329-9.459-9.191-15.152-12.92-6.352-4.152-12.338-8.081-15.193-13.726-2.781-5.5-2.4-12.561-2-20.044.377-6.885.766-14.009-1.471-20.187-2.168-6-6.949-11.138-11.57-16.113-5.174-5.567-10.068-10.826-11.506-17.037s.648-13.08,2.861-20.361c1.969-6.494,4.008-13.213,3.322-19.556-.707-6.537-4.176-12.766-7.537-18.793-3.641-6.54-7.088-12.721-7-18.878.088-6.326,3.748-12.487,7.627-19.007,3.482-5.854,7.08-11.906,7.951-18.261.875-6.463-.986-13.321-2.789-19.958-1.965-7.256-3.828-14.115-2.252-20.113,1.592-6.072,6.613-11.153,11.926-16.528,4.8-4.867,9.768-9.89,12.152-15.9,2.4-6.04,2.229-13.128,2.064-19.986-.172-7.532-.342-14.647,2.639-20.126s9.057-9.215,15.479-13.165c5.842-3.589,11.879-7.3,15.637-12.587,3.752-5.269,5.27-12.181,6.746-18.867,1.627-7.371,3.16-14.336,7.375-18.968,4.188-4.6,10.959-6.772,18.127-9.071,6.533-2.095,13.3-4.266,18.227-8.514,4.877-4.2,8-10.533,11.018-16.65,3.348-6.791,6.518-13.2,11.744-16.708,4.5-3.011,11.9-3.9,19.705-4.424,7.041-.475,14.615-1.267,19.816-3.9,5.707-2.887,10.24-8.255,14.627-13.448,4.9-5.8,9.531-11.277,15.5-13.441,5.8-2.1,12.711-.854,20.068.441,6.818,1.2,13.867,2.44,20.3.951s12.223-5.693,17.816-9.764c6.051-4.4,11.725-8.534,17.842-9.2,6.311-.675,12.879,2.213,19.828,5.274,6.221,2.74,12.658,5.578,19.051,5.661,5.814.081,12.969-2.53,19.51-5.194,7.26-2.956,14.283-5.4,19.654-4.668,6.24.853,11.9,5.225,17.891,9.856,5.4,4.174,10.98,8.487,17.2,10.128,6.293,1.65,13.32.634,20.107-.351,7.455-1.081,14.5-2.1,20.281.2,5.822,2.311,10.258,7.89,14.947,13.809,4.26,5.36,8.664,10.9,14.342,13.99,5.7,3.1,12.75,3.788,19.572,4.445,7.5.728,14.594,1.415,19.688,5.039s8.053,10.076,11.2,16.923c2.867,6.237,5.826,12.681,10.633,17.06,4.773,4.339,11.436,6.676,17.889,8.94,7.133,2.5,13.879,4.861,17.975,9.617,4.049,4.7,5.383,11.673,6.8,19.062,1.293,6.748,2.629,13.731,6.256,19.154,3.568,5.329,9.461,9.186,15.156,12.919,6.34,4.158,12.34,8.08,15.2,13.726,2.773,5.5,2.395,12.563,1.988,20.048-.367,6.883-.758,14.005,1.477,20.185,2.166,6,6.947,11.136,11.572,16.111,5.176,5.569,10.07,10.828,11.506,17.039s-.652,13.086-2.857,20.359c-1.977,6.5-4.016,13.214-3.33,19.558.705,6.53,4.18,12.763,7.535,18.789C11670.817,4251.562,11674.261,4257.748,11674.179,4263.907Z" transform="translate(10.258 11.077)" fill="#be1e2d"/>
  </g>
</svg>
