{"locations":[{"level":5,"x":1,"y":4,"name":"bshop","unlock":""},
    {"level":4,"x":1,"y":9,"name":"food","unlock":"bshop"},
    {"level":3,"x":1,"y":8,"name":"pizza","unlock":"food","button":{"key":"btnPizza","type":"cookie","file":"pizzagame.json"},"message":"Click the slice to make some pizza!"},
    {"level":1,"x":1,"y":7,"name":"bakery","unlock":"coffee","button":{"key":"btnCookie","type":"cookie","file":"cookiegame.json"},"message":"Click the cookie to get baking"},
    {"level":2,"x":1,"y":6,"name":"coffee","unlock":"pizza"},
    {"level":-1,"x":5,"y":4,"name":"movies","unlock":"","button":{"key":"btnMovie","type":"movie","file":"odd.json"},"message":"Click the clapper board to watch the movie"}]}