<svg xmlns="http://www.w3.org/2000/svg" xmlns:xlink="http://www.w3.org/1999/xlink" width="80.648" height="85.263" viewBox="0 0 80.648 85.263">
  <defs>
    <filter id="Path_4967" x="0" y="3.752" width="80.648" height="81.511" filterUnits="userSpaceOnUse">
      <feOffset dx="5" dy="5" input="SourceAlpha"/>
      <feGaussianBlur stdDeviation="1" result="blur"/>
      <feFlood flood-opacity="0.4"/>
      <feComposite operator="in" in2="blur"/>
      <feComposite in="SourceGraphic"/>
    </filter>
  </defs>
  <g id="Group_322" data-name="Group 322" transform="translate(-1091.325 -969.868)">
    <g transform="matrix(1, 0, 0, 1, 1091.33, 969.87)" filter="url(#Path_4967)">
      <path id="Path_4967-2" data-name="Path 4967" d="M15-2.248l38.675-1c8.284,0,18.973,9.964,18.973,18.248l-.99,41.188c0,8.284-9.7,14.074-17.983,14.074H15a15,15,0,0,1-15-15V15C0,6.716,6.716-2.248,15-2.248Z" transform="translate(0 7)" fill="#375982"/>
    </g>
    <g id="Rectangle_29" data-name="Rectangle 29" transform="translate(1096.325 969.868)" fill="#5a82b9" stroke="#fff" stroke-width="3">
      <rect width="68.675" height="70.263" rx="15" stroke="none"/>
      <rect x="1.5" y="1.5" width="65.675" height="67.263" rx="13.5" fill="none"/>
    </g>
    <g id="Group_321" data-name="Group 321" transform="translate(-65 -10701.644)">
      <g id="Group_320" data-name="Group 320" transform="translate(1174.931 11690.01)">
        <g id="Group_318" data-name="Group 318" transform="translate(3.618)">
          <path id="Path_4959" data-name="Path 4959" d="M850.025,11720.478l11.27,15.176" transform="translate(-850.025 -11702.514)" fill="none" stroke="#000" stroke-linecap="round" stroke-width="8"/>
          <path id="Path_4960" data-name="Path 4960" d="M850.025,11733.034a127.055,127.055,0,0,1,12.449-17.73,137.939,137.939,0,0,1,16-15.409" transform="translate(-838.755 -11699.895)" fill="none" stroke="#000" stroke-linecap="round" stroke-width="8"/>
        </g>
        <g id="Group_319" data-name="Group 319" transform="translate(0 0.127)">
          <path id="Path_4959-2" data-name="Path 4959" d="M850.025,11720.478l11.27,15.176" transform="translate(-850.025 -11702.514)" fill="none" stroke="#fff" stroke-linecap="round" stroke-width="8"/>
          <path id="Path_4960-2" data-name="Path 4960" d="M850.025,11733.034a127.055,127.055,0,0,1,12.449-17.73,137.939,137.939,0,0,1,16-15.409" transform="translate(-838.755 -11699.895)" fill="none" stroke="#fff" stroke-linecap="round" stroke-width="8"/>
        </g>
      </g>
    </g>
  </g>
</svg>
