{
	"textures": [
		{
			"image": "hands.png",
			"format": "RGBA8888",
			"size": {
				"w": 941,
				"h": 256
			},
			"scale": 0.25,
			"frames": [
				{
					"filename": "hand (10).png",
					"rotated": false,
					"trimmed": false,
					"sourceSize": {
						"w": 109,
						"h": 161
					},
					"spriteSourceSize": {
						"x": 0,
						"y": 0,
						"w": 109,
						"h": 161
					},
					"frame": {
						"x": 1,
						"y": 1,
						"w": 109,
						"h": 161
					}
				},
				{
					"filename": "hand (7).png",
					"rotated": false,
					"trimmed": false,
					"sourceSize": {
						"w": 188,
						"h": 82
					},
					"spriteSourceSize": {
						"x": 0,
						"y": 0,
						"w": 188,
						"h": 82
					},
					"frame": {
						"x": 1,
						"y": 164,
						"w": 188,
						"h": 82
					}
				},
				{
					"filename": "hand (0).png",
					"rotated": false,
					"trimmed": false,
					"sourceSize": {
						"w": 123,
						"h": 159
					},
					"spriteSourceSize": {
						"x": 0,
						"y": 0,
						"w": 123,
						"h": 159
					},
					"frame": {
						"x": 112,
						"y": 1,
						"w": 123,
						"h": 159
					}
				},
				{
					"filename": "hand (13).png",
					"rotated": false,
					"trimmed": false,
					"sourceSize": {
						"w": 99,
						"h": 153
					},
					"spriteSourceSize": {
						"x": 0,
						"y": 0,
						"w": 99,
						"h": 153
					},
					"frame": {
						"x": 237,
						"y": 1,
						"w": 99,
						"h": 153
					}
				},
				{
					"filename": "hand (8).png",
					"rotated": false,
					"trimmed": false,
					"sourceSize": {
						"w": 164,
						"h": 99
					},
					"spriteSourceSize": {
						"x": 0,
						"y": 0,
						"w": 164,
						"h": 99
					},
					"frame": {
						"x": 237,
						"y": 156,
						"w": 164,
						"h": 99
					}
				},
				{
					"filename": "hand (11).png",
					"rotated": false,
					"trimmed": false,
					"sourceSize": {
						"w": 83,
						"h": 153
					},
					"spriteSourceSize": {
						"x": 0,
						"y": 0,
						"w": 83,
						"h": 153
					},
					"frame": {
						"x": 338,
						"y": 1,
						"w": 83,
						"h": 153
					}
				},
				{
					"filename": "hand (12).png",
					"rotated": false,
					"trimmed": false,
					"sourceSize": {
						"w": 133,
						"h": 146
					},
					"spriteSourceSize": {
						"x": 0,
						"y": 0,
						"w": 133,
						"h": 146
					},
					"frame": {
						"x": 423,
						"y": 1,
						"w": 133,
						"h": 146
					}
				},
				{
					"filename": "hand (2).png",
					"rotated": false,
					"trimmed": false,
					"sourceSize": {
						"w": 149,
						"h": 105
					},
					"spriteSourceSize": {
						"x": 0,
						"y": 0,
						"w": 149,
						"h": 105
					},
					"frame": {
						"x": 423,
						"y": 149,
						"w": 149,
						"h": 105
					}
				},
				{
					"filename": "hand (9).png",
					"rotated": false,
					"trimmed": false,
					"sourceSize": {
						"w": 106,
						"h": 144
					},
					"spriteSourceSize": {
						"x": 0,
						"y": 0,
						"w": 106,
						"h": 144
					},
					"frame": {
						"x": 558,
						"y": 1,
						"w": 106,
						"h": 144
					}
				},
				{
					"filename": "hand (3).png",
					"rotated": false,
					"trimmed": false,
					"sourceSize": {
						"w": 105,
						"h": 102
					},
					"spriteSourceSize": {
						"x": 0,
						"y": 0,
						"w": 105,
						"h": 102
					},
					"frame": {
						"x": 574,
						"y": 147,
						"w": 105,
						"h": 102
					}
				},
				{
					"filename": "hand (1).png",
					"rotated": false,
					"trimmed": false,
					"sourceSize": {
						"w": 163,
						"h": 132
					},
					"spriteSourceSize": {
						"x": 0,
						"y": 0,
						"w": 163,
						"h": 132
					},
					"frame": {
						"x": 666,
						"y": 1,
						"w": 163,
						"h": 132
					}
				},
				{
					"filename": "hand (5).png",
					"rotated": false,
					"trimmed": false,
					"sourceSize": {
						"w": 95,
						"h": 118
					},
					"spriteSourceSize": {
						"x": 0,
						"y": 0,
						"w": 95,
						"h": 118
					},
					"frame": {
						"x": 681,
						"y": 135,
						"w": 95,
						"h": 118
					}
				},
				{
					"filename": "hand (6).png",
					"rotated": false,
					"trimmed": false,
					"sourceSize": {
						"w": 153,
						"h": 116
					},
					"spriteSourceSize": {
						"x": 0,
						"y": 0,
						"w": 153,
						"h": 116
					},
					"frame": {
						"x": 778,
						"y": 135,
						"w": 153,
						"h": 116
					}
				},
				{
					"filename": "hand (4).png",
					"rotated": false,
					"trimmed": false,
					"sourceSize": {
						"w": 109,
						"h": 129
					},
					"spriteSourceSize": {
						"x": 0,
						"y": 0,
						"w": 109,
						"h": 129
					},
					"frame": {
						"x": 831,
						"y": 1,
						"w": 109,
						"h": 129
					}
				}
			]
		}
	],
	"meta": {
		"app": "https://www.codeandweb.com/texturepacker",
		"version": "3.0",
		"smartupdate": "$TexturePacker:SmartUpdate:a3102b8cb2ff0eda5f3318eaab9648d2:00c7a5993c6e63a2259bf6b82e108193:bc190b560df43dafc27d13c8fb9f7515$"
	}
}
