[
    {
        "letter": "E",
        "page": 6,
        "animation": "elephant",
        "x": 70,
        "y": 50,
        "w": 10,
        "h": 10
    },
    {
        "letter": "B",
        "page": 2,
        "animation": "book",
        "x": 80,
        "y": 60,
        "w": 5,
        "h": 5
    },
    {
        "letter": "C",
        "page": 0,
        "animation": "flamingo",
        "x": 20,
        "y": 30,
        "w": 5,
        "h": 5
    },
    {
        "letter": "D",
        "page": 2,
        "animation": "lion",
        "x": 20,
        "y": 40,
        "w": 10,
        "h": 10
    }
]