{
    "tabs": [
        {
            "title": "Buddies<br/><small>(animated)</small>",
            "description": "Choose a buddy to help you on your journey. You can change your buddy at any time. Your buddy will appear in the bottom right corner of your screen."
        },
        {
            "title": "Papers",
            "description": "Here are your wallpapers. Choose the one you like best.\nYou will get more of these as you work your way through the course.Tap the wallpaper you&#x2019;d like to use. Also, if you want to change your wallpaper in the middle of a lesson, just tap &#x201C;Controls&#x201D; on the lesson screen and then hit &#x201C;Wallpapers.&#x201D;"
        }
    ]
}
