{
	"textures": [
		{
			"image": "butterfly.png",
			"format": "RGBA8888",
			"size": {
				"w": 446,
				"h": 844
			},
			"scale": 0.25,
			"frames": [
				{
					"filename": "butterfly blue animation 1 1200.png",
					"rotated": false,
					"trimmed": true,
					"sourceSize": {
						"w": 300,
						"h": 290
					},
					"spriteSourceSize": {
						"x": 6,
						"y": 8,
						"w": 293,
						"h": 279
					},
					"frame": {
						"x": 1,
						"y": 1,
						"w": 293,
						"h": 279
					}
				},
				{
					"filename": "butterfly blue animation 15 1200.png",
					"rotated": false,
					"trimmed": true,
					"sourceSize": {
						"w": 300,
						"h": 290
					},
					"spriteSourceSize": {
						"x": 6,
						"y": 8,
						"w": 293,
						"h": 279
					},
					"frame": {
						"x": 1,
						"y": 1,
						"w": 293,
						"h": 279
					}
				},
				{
					"filename": "butterfly blue animation 14 1200.png",
					"rotated": false,
					"trimmed": true,
					"sourceSize": {
						"w": 300,
						"h": 290
					},
					"spriteSourceSize": {
						"x": 32,
						"y": 8,
						"w": 234,
						"h": 280
					},
					"frame": {
						"x": 1,
						"y": 282,
						"w": 234,
						"h": 280
					}
				},
				{
					"filename": "butterfly blue animation 2 1200.png",
					"rotated": false,
					"trimmed": true,
					"sourceSize": {
						"w": 300,
						"h": 290
					},
					"spriteSourceSize": {
						"x": 32,
						"y": 8,
						"w": 234,
						"h": 280
					},
					"frame": {
						"x": 1,
						"y": 282,
						"w": 234,
						"h": 280
					}
				},
				{
					"filename": "butterfly blue animation 10 1200.png",
					"rotated": false,
					"trimmed": true,
					"sourceSize": {
						"w": 300,
						"h": 290
					},
					"spriteSourceSize": {
						"x": 103,
						"y": 11,
						"w": 96,
						"h": 279
					},
					"frame": {
						"x": 1,
						"y": 564,
						"w": 96,
						"h": 279
					}
				},
				{
					"filename": "butterfly blue animation 6 1200.png",
					"rotated": false,
					"trimmed": true,
					"sourceSize": {
						"w": 300,
						"h": 290
					},
					"spriteSourceSize": {
						"x": 103,
						"y": 11,
						"w": 96,
						"h": 279
					},
					"frame": {
						"x": 1,
						"y": 564,
						"w": 96,
						"h": 279
					}
				},
				{
					"filename": "butterfly blue animation 8 1200.png",
					"rotated": false,
					"trimmed": true,
					"sourceSize": {
						"w": 300,
						"h": 290
					},
					"spriteSourceSize": {
						"x": 104,
						"y": 11,
						"w": 94,
						"h": 279
					},
					"frame": {
						"x": 99,
						"y": 564,
						"w": 94,
						"h": 279
					}
				},
				{
					"filename": "butterfly blue animation 11 1200.png",
					"rotated": false,
					"trimmed": true,
					"sourceSize": {
						"w": 300,
						"h": 290
					},
					"spriteSourceSize": {
						"x": 99,
						"y": 9,
						"w": 112,
						"h": 280
					},
					"frame": {
						"x": 296,
						"y": 1,
						"w": 112,
						"h": 280
					}
				},
				{
					"filename": "butterfly blue animation 5 1200.png",
					"rotated": false,
					"trimmed": true,
					"sourceSize": {
						"w": 300,
						"h": 290
					},
					"spriteSourceSize": {
						"x": 99,
						"y": 9,
						"w": 112,
						"h": 280
					},
					"frame": {
						"x": 296,
						"y": 1,
						"w": 112,
						"h": 280
					}
				},
				{
					"filename": "butterfly blue animation 13 1200.png",
					"rotated": false,
					"trimmed": true,
					"sourceSize": {
						"w": 300,
						"h": 290
					},
					"spriteSourceSize": {
						"x": 56,
						"y": 8,
						"w": 193,
						"h": 280
					},
					"frame": {
						"x": 237,
						"y": 283,
						"w": 193,
						"h": 280
					}
				},
				{
					"filename": "butterfly blue animation 3 1200.png",
					"rotated": false,
					"trimmed": true,
					"sourceSize": {
						"w": 300,
						"h": 290
					},
					"spriteSourceSize": {
						"x": 56,
						"y": 8,
						"w": 193,
						"h": 280
					},
					"frame": {
						"x": 237,
						"y": 283,
						"w": 193,
						"h": 280
					}
				},
				{
					"filename": "butterfly blue animation 12 1200 -.png",
					"rotated": false,
					"trimmed": true,
					"sourceSize": {
						"w": 300,
						"h": 290
					},
					"spriteSourceSize": {
						"x": 79,
						"y": 10,
						"w": 154,
						"h": 278
					},
					"frame": {
						"x": 195,
						"y": 565,
						"w": 154,
						"h": 278
					}
				},
				{
					"filename": "butterfly blue animation 4 1200.png",
					"rotated": false,
					"trimmed": true,
					"sourceSize": {
						"w": 300,
						"h": 290
					},
					"spriteSourceSize": {
						"x": 79,
						"y": 10,
						"w": 154,
						"h": 278
					},
					"frame": {
						"x": 195,
						"y": 565,
						"w": 154,
						"h": 278
					}
				},
				{
					"filename": "butterfly blue animation 7 1200.png",
					"rotated": false,
					"trimmed": true,
					"sourceSize": {
						"w": 300,
						"h": 290
					},
					"spriteSourceSize": {
						"x": 104,
						"y": 12,
						"w": 94,
						"h": 278
					},
					"frame": {
						"x": 351,
						"y": 565,
						"w": 94,
						"h": 278
					}
				},
				{
					"filename": "butterfly blue animation 9 1200.png",
					"rotated": false,
					"trimmed": true,
					"sourceSize": {
						"w": 300,
						"h": 290
					},
					"spriteSourceSize": {
						"x": 104,
						"y": 12,
						"w": 94,
						"h": 278
					},
					"frame": {
						"x": 351,
						"y": 565,
						"w": 94,
						"h": 278
					}
				}
			]
		}
	],
	"meta": {
		"app": "https://www.codeandweb.com/texturepacker",
		"version": "3.0",
		"smartupdate": "$TexturePacker:SmartUpdate:e84554210bb34b3a04d31bb4129cace5:0f584ebb0aa963c8bc7293c9f03ee34a:3fef989ed967e7bd86acc14ba95312c2$"
	}
}
