{
  "levels": [
    {
      "words": [
        { "word1": "city", "word2": "San Jose" },
        { "word1": "state", "word2": "California" },
        {"word1":"girl","word2":"Jenny"},
        {"word1":"game","word2":"Risk"}
      ]
    }
  ]
}
