{
    "shapes": [
        [
            4,
            23.4836,
            48.5818,
            0
        ],
        [
            4,
            35.4836,
            48.5818,
            120
        ],
        [
            4,
            47.4836,
            48.5818,
            0
        ],
        [
            4,
            47.6291,
            67.7818,
            60
        ],
        [
            4,
            35.6291,
            67.7818,
            60
        ],
        [
            4,
            23.6291,
            67.7818,
            60
        ]
    ]
}